%YAML 1.1
%TAG !u! tag:unity3d.com,2011:
--- !u!114 &11400000
MonoBehaviour:
  m_ObjectHideFlags: 0
  m_PrefabParentObject: {fileID: 0}
  m_PrefabInternal: {fileID: 0}
  m_GameObject: {fileID: 0}
  m_Enabled: 1
  m_EditorHideFlags: 0
  m_Script: {fileID: 11500000, guid: f7a371d3c077b734e8c6a79283f76ce1, type: 3}
  m_Name: Abra
  m_EditorClassIdentifier: 
  FighterIDName: ABRA
  FighterShowName: Abra
  Level: 1
  Attacks:
  - Info: {fileID: 11400000, guid: b3a14834b6b97ad47ab7b38aa380c1f0, type: 2}
    UnlockLevel: 1
  Types:
  - {fileID: 11400000, guid: 6ab104ed0fffb2949b3b296c5c7eb603, type: 2}
  Health: 25
  Attack: 20
  Defense: 15
  SPAttack: 105
  SPDefense: 55
  Speed: 90
  Experience: 62
  IsShiny: 0
  Front: {fileID: 0}
  Back: {fileID: 0}
  Nature: {fileID: 0}
