%YAML 1.1
%TAG !u! tag:unity3d.com,2011:
--- !u!114 &11400000
MonoBehaviour:
  m_ObjectHideFlags: 0
  m_PrefabParentObject: {fileID: 0}
  m_PrefabInternal: {fileID: 0}
  m_GameObject: {fileID: 0}
  m_Enabled: 1
  m_EditorHideFlags: 0
  m_Script: {fileID: 11500000, guid: f7a371d3c077b734e8c6a79283f76ce1, type: 3}
  m_Name: Adarnara
  m_EditorClassIdentifier: 
  FighterIDName: ADARNARA
  FighterShowName: Adarnara
  Level: 1
  Attacks:
  - Info: {fileID: 11400000, guid: eff3f6a6d7f8fba428512940ddd4ff40, type: 2}
    UnlockLevel: 1
  - Info: {fileID: 11400000, guid: 784b28b86d33acc4eadd18270d016049, type: 2}
    UnlockLevel: 1
  - Info: {fileID: 11400000, guid: be186cb0cecc436499b7819f638c25ff, type: 2}
    UnlockLevel: 1
  - Info: {fileID: 11400000, guid: 08c60fe3d93c6d04c9f9d6ae0089cefc, type: 2}
    UnlockLevel: 7
  - Info: {fileID: 11400000, guid: 14afecd68481b614299f394fd58da5ba, type: 2}
    UnlockLevel: 13
  - Info: {fileID: 11400000, guid: b69e63923e723104caaef3d0a61acd3f, type: 2}
    UnlockLevel: 19
  - Info: {fileID: 11400000, guid: f700ab716f82e654e87d4c6d6a6ebd76, type: 2}
    UnlockLevel: 25
  - Info: {fileID: 11400000, guid: b5a5d675056ee8e4f8eb2e403859ca3a, type: 2}
    UnlockLevel: 31
  - Info: {fileID: 11400000, guid: 7c7e4a156beeca746aef3b8f5e598401, type: 2}
    UnlockLevel: 37
  - Info: {fileID: 11400000, guid: e0c2b30647a184b439206a05879b27c6, type: 2}
    UnlockLevel: 43
  - Info: {fileID: 11400000, guid: ac4cab31ab9635746bb7c70979ca732b, type: 2}
    UnlockLevel: 49
  - Info: {fileID: 11400000, guid: e21478649702a1c4fa71373c3b1c3eb4, type: 2}
    UnlockLevel: 55
  - Info: {fileID: 11400000, guid: cc623af46e99f9e4592e2728778a9091, type: 2}
    UnlockLevel: 61
  - Info: {fileID: 11400000, guid: 3e63cc0a05a1b3849879f10e7fe6683c, type: 2}
    UnlockLevel: 68
  - Info: {fileID: 11400000, guid: d924ae2200f23b74aa0ae6c3ac5e02f8, type: 2}
    UnlockLevel: 75
  Types:
  - {fileID: 11400000, guid: 57d5c332bc212a047a73d3810bd3f7cb, type: 2}
  - {fileID: 11400000, guid: b2263d3942d9cee40b27a6d5ead1297d, type: 2}
  Health: 110
  Attack: 70
  Defense: 80
  SPAttack: 130
  SPDefense: 110
  Speed: 80
  Experience: 270
  IsShiny: 0
  Front: {fileID: 0}
  Back: {fileID: 0}
  Nature: {fileID: 0}
