%YAML 1.1
%TAG !u! tag:unity3d.com,2011:
--- !u!114 &11400000
MonoBehaviour:
  m_ObjectHideFlags: 0
  m_PrefabParentObject: {fileID: 0}
  m_PrefabInternal: {fileID: 0}
  m_GameObject: {fileID: 0}
  m_Enabled: 1
  m_EditorHideFlags: 0
  m_Script: {fileID: 11500000, guid: f7a371d3c077b734e8c6a79283f76ce1, type: 3}
  m_Name: Armaldo
  m_EditorClassIdentifier: 
  FighterIDName: ARMALDO
  FighterShowName: Armaldo
  Level: 1
  Attacks:
  - Info: {fileID: 11400000, guid: 617336879215d7c4789d9ecc335218bd, type: 2}
    UnlockLevel: 1
  - Info: {fileID: 11400000, guid: 624bb10375fc74e439e9e39bd6b4cd0f, type: 2}
    UnlockLevel: 1
  - Info: {fileID: 11400000, guid: 47efa6a7107dc634289c735cfa955e72, type: 2}
    UnlockLevel: 1
  - Info: {fileID: 11400000, guid: 02d15518f762bc144aad19195dbbad73, type: 2}
    UnlockLevel: 1
  - Info: {fileID: 11400000, guid: 47efa6a7107dc634289c735cfa955e72, type: 2}
    UnlockLevel: 4
  - Info: {fileID: 11400000, guid: 02d15518f762bc144aad19195dbbad73, type: 2}
    UnlockLevel: 7
  - Info: {fileID: 11400000, guid: 06cf5ef60e19e88418a5936bf3cb78f1, type: 2}
    UnlockLevel: 10
  - Info: {fileID: 11400000, guid: a35088441d3ee09418434c7689a68584, type: 2}
    UnlockLevel: 13
  - Info: {fileID: 11400000, guid: 43d305e340d009549b5374163014532b, type: 2}
    UnlockLevel: 17
  - Info: {fileID: 11400000, guid: ca6c940bfb9054b40b65235800b926f4, type: 2}
    UnlockLevel: 21
  - Info: {fileID: 11400000, guid: f431e5480eb00184790591673c2f18e3, type: 2}
    UnlockLevel: 25
  - Info: {fileID: 11400000, guid: af8b5056fadcd39429232050c9dad5d0, type: 2}
    UnlockLevel: 29
  - Info: {fileID: 11400000, guid: f431e5480eb00184790591673c2f18e3, type: 2}
    UnlockLevel: 34
  - Info: {fileID: 11400000, guid: fa26ada95ebb6994c9a658040d701bad, type: 2}
    UnlockLevel: 39
  - Info: {fileID: 11400000, guid: 50537587665f6594f80bf0fccab8f1fe, type: 2}
    UnlockLevel: 46
  - Info: {fileID: 11400000, guid: d04276be4bd800c46aba359a8062fc4c, type: 2}
    UnlockLevel: 53
  - Info: {fileID: 11400000, guid: a276e66a3af8d1945b5a53ad0817b9ec, type: 2}
    UnlockLevel: 61
  Types:
  - {fileID: 11400000, guid: d5e8e99b7eae6e14e916633b02b73558, type: 2}
  - {fileID: 11400000, guid: 0f07cb8f52a4e464fa188043a8de5605, type: 2}
  Health: 75
  Attack: 125
  Defense: 100
  SPAttack: 70
  SPDefense: 80
  Speed: 45
  Experience: 173
  IsShiny: 0
  Front: {fileID: 0}
  Back: {fileID: 0}
  Nature: {fileID: 0}
