%YAML 1.1
%TAG !u! tag:unity3d.com,2011:
--- !u!114 &11400000
MonoBehaviour:
  m_ObjectHideFlags: 0
  m_PrefabParentObject: {fileID: 0}
  m_PrefabInternal: {fileID: 0}
  m_GameObject: {fileID: 0}
  m_Enabled: 1
  m_EditorHideFlags: 0
  m_Script: {fileID: 11500000, guid: f7a371d3c077b734e8c6a79283f76ce1, type: 3}
  m_Name: Aromatisse
  m_EditorClassIdentifier: 
  FighterIDName: AROMATISSE
  FighterShowName: Aromatisse
  Level: 1
  Attacks:
  - Info: {fileID: 11400000, guid: cb9c93cb614cc614984331e17ad98b4a, type: 2}
    UnlockLevel: 1
  - Info: {fileID: 11400000, guid: 61f85625ead4b3e4ebec97c64bbe220e, type: 2}
    UnlockLevel: 1
  - Info: {fileID: 11400000, guid: 698e1dc8f492f4c4cb35c5be64319e81, type: 2}
    UnlockLevel: 1
  - Info: {fileID: 11400000, guid: df3e27159641382499f177aaf98ecd1d, type: 2}
    UnlockLevel: 1
  - Info: {fileID: 11400000, guid: 821a2bbe53b32a044bdc7af6861e0583, type: 2}
    UnlockLevel: 6
  - Info: {fileID: 11400000, guid: bc56a9074e1067646b352b0f60cf20f0, type: 2}
    UnlockLevel: 8
  - Info: {fileID: 11400000, guid: e00c528bd783fbd408df106467929fa5, type: 2}
    UnlockLevel: 13
  - Info: {fileID: 11400000, guid: 5e18ae890890e094e894e38a37330229, type: 2}
    UnlockLevel: 17
  - Info: {fileID: 11400000, guid: 99ffc8c09dda3724ba1d5e310bf76b58, type: 2}
    UnlockLevel: 21
  - Info: {fileID: 11400000, guid: 09bbbc5be2cbda24c95f243e40208a71, type: 2}
    UnlockLevel: 25
  - Info: {fileID: 11400000, guid: c42a05790b01d174d8f9aaa81513d80d, type: 2}
    UnlockLevel: 29
  - Info: {fileID: 11400000, guid: 5c950bd5ad7678d4892a0408ab45a3b7, type: 2}
    UnlockLevel: 31
  - Info: {fileID: 11400000, guid: 5a9e071dd6a4c9842826114be48624d2, type: 2}
    UnlockLevel: 35
  - Info: {fileID: 11400000, guid: 7f8f41d987e8f4049925abea1e720837, type: 2}
    UnlockLevel: 38
  - Info: {fileID: 11400000, guid: 650e44288e6d5e349a33558e541cc14b, type: 2}
    UnlockLevel: 42
  - Info: {fileID: 11400000, guid: 892dbca1ba08d014da293aed47c468fd, type: 2}
    UnlockLevel: 44
  - Info: {fileID: 11400000, guid: fb7b7fe6af6cb964ea0e6e9b932b389c, type: 2}
    UnlockLevel: 48
  - Info: {fileID: 11400000, guid: 2d638d2ad42a8704a9a768b819e92de0, type: 2}
    UnlockLevel: 53
  - Info: {fileID: 11400000, guid: ad16e83f042264642a2f22a3379ac18d, type: 2}
    UnlockLevel: 57
  - Info: {fileID: 11400000, guid: f419aabc484eee7498915419cc5f07be, type: 2}
    UnlockLevel: 64
  Types:
  - {fileID: 11400000, guid: 57d5c332bc212a047a73d3810bd3f7cb, type: 2}
  Health: 101
  Attack: 72
  Defense: 72
  SPAttack: 99
  SPDefense: 89
  Speed: 29
  Experience: 158
  IsShiny: 0
  Front: {fileID: 0}
  Back: {fileID: 0}
  Nature: {fileID: 0}
