%YAML 1.1
%TAG !u! tag:unity3d.com,2011:
--- !u!114 &11400000
MonoBehaviour:
  m_ObjectHideFlags: 0
  m_PrefabParentObject: {fileID: 0}
  m_PrefabInternal: {fileID: 0}
  m_GameObject: {fileID: 0}
  m_Enabled: 1
  m_EditorHideFlags: 0
  m_Script: {fileID: 11500000, guid: f7a371d3c077b734e8c6a79283f76ce1, type: 3}
  m_Name: Aron
  m_EditorClassIdentifier: 
  FighterIDName: ARON
  FighterShowName: Aron
  Level: 1
  Attacks:
  - Info: {fileID: 11400000, guid: f2eafcc30bd3f47418faaca7f81f0ad2, type: 2}
    UnlockLevel: 1
  - Info: {fileID: 11400000, guid: 624bb10375fc74e439e9e39bd6b4cd0f, type: 2}
    UnlockLevel: 1
  - Info: {fileID: 11400000, guid: 8129c89ff1b66524e960913cf3688c46, type: 2}
    UnlockLevel: 4
  - Info: {fileID: 11400000, guid: ce1a3e17e46972949a27701ac879297c, type: 2}
    UnlockLevel: 7
  - Info: {fileID: 11400000, guid: 43d305e340d009549b5374163014532b, type: 2}
    UnlockLevel: 10
  - Info: {fileID: 11400000, guid: 6ae73d71e084acb4fa48184f4707e634, type: 2}
    UnlockLevel: 13
  - Info: {fileID: 11400000, guid: d04276be4bd800c46aba359a8062fc4c, type: 2}
    UnlockLevel: 16
  - Info: {fileID: 11400000, guid: 32db2be791f52e14a80ce635023f777d, type: 2}
    UnlockLevel: 19
  - Info: {fileID: 11400000, guid: e59fbb56c445ac64c9b1dfb8e121b5de, type: 2}
    UnlockLevel: 22
  - Info: {fileID: 11400000, guid: 8c639a55a7e50e540a4c05a3b0f7c8d4, type: 2}
    UnlockLevel: 25
  - Info: {fileID: 11400000, guid: b6405890855b9df4993647366ae6467b, type: 2}
    UnlockLevel: 28
  - Info: {fileID: 11400000, guid: d2c098d5952df4347bb8371ad6b1433d, type: 2}
    UnlockLevel: 31
  - Info: {fileID: 11400000, guid: 61a55d282edab7c4bb26267c459cb7c0, type: 2}
    UnlockLevel: 34
  - Info: {fileID: 11400000, guid: c06b5fc43f8c26f4a98788cf49c70281, type: 2}
    UnlockLevel: 37
  - Info: {fileID: 11400000, guid: 73b36bf5b1878fb4b9a6b88cbbcd4833, type: 2}
    UnlockLevel: 40
  - Info: {fileID: 11400000, guid: 1eef165331725154c8b200cc11ea8cf2, type: 2}
    UnlockLevel: 43
  - Info: {fileID: 11400000, guid: 133544841a2f2f446b7c21c95c336c03, type: 2}
    UnlockLevel: 46
  - Info: {fileID: 11400000, guid: 97cec6ee9e7b21d49bd6c220fdcccfc2, type: 2}
    UnlockLevel: 49
  Types:
  - {fileID: 11400000, guid: 937a21aa05fa8254283297d7a575da5c, type: 2}
  - {fileID: 11400000, guid: d5e8e99b7eae6e14e916633b02b73558, type: 2}
  Health: 50
  Attack: 70
  Defense: 100
  SPAttack: 40
  SPDefense: 40
  Speed: 30
  Experience: 66
  IsShiny: 0
  Front: {fileID: 0}
  Back: {fileID: 0}
  Nature: {fileID: 0}
