%YAML 1.1
%TAG !u! tag:unity3d.com,2011:
--- !u!114 &11400000
MonoBehaviour:
  m_ObjectHideFlags: 0
  m_PrefabParentObject: {fileID: 0}
  m_PrefabInternal: {fileID: 0}
  m_GameObject: {fileID: 0}
  m_Enabled: 1
  m_EditorHideFlags: 0
  m_Script: {fileID: 11500000, guid: f7a371d3c077b734e8c6a79283f76ce1, type: 3}
  m_Name: Asdroid
  m_EditorClassIdentifier: 
  FighterIDName: ASDROID
  FighterShowName: Asdroid
  Level: 1
  Attacks:
  - Info: {fileID: 11400000, guid: 2684866907368d747a8cf43b903709cc, type: 2}
    UnlockLevel: 1
  - Info: {fileID: 11400000, guid: 9bfe42524092c6945b53a1d4fafb376f, type: 2}
    UnlockLevel: 1
  - Info: {fileID: 11400000, guid: bb7c5465603f4534f8b6e21405df26e4, type: 2}
    UnlockLevel: 7
  - Info: {fileID: 11400000, guid: a276e66a3af8d1945b5a53ad0817b9ec, type: 2}
    UnlockLevel: 10
  - Info: {fileID: 11400000, guid: b6405890855b9df4993647366ae6467b, type: 2}
    UnlockLevel: 13
  - Info: {fileID: 11400000, guid: 2c0c78f64bb6b604d8024d8b2ee63670, type: 2}
    UnlockLevel: 16
  - Info: {fileID: 11400000, guid: 5663cb52451bdf846a253ef3b9e54a4b, type: 2}
    UnlockLevel: 19
  - Info: {fileID: 11400000, guid: d847b53bf3e87ba4c9a36c55cea60aef, type: 2}
    UnlockLevel: 23
  - Info: {fileID: 11400000, guid: 8c639a55a7e50e540a4c05a3b0f7c8d4, type: 2}
    UnlockLevel: 27
  - Info: {fileID: 11400000, guid: 08c60fe3d93c6d04c9f9d6ae0089cefc, type: 2}
    UnlockLevel: 31
  - Info: {fileID: 11400000, guid: 518a56fb19ee9734ab2818d8bbc8e8c0, type: 2}
    UnlockLevel: 35
  - Info: {fileID: 11400000, guid: d04276be4bd800c46aba359a8062fc4c, type: 2}
    UnlockLevel: 42
  - Info: {fileID: 11400000, guid: 133544841a2f2f446b7c21c95c336c03, type: 2}
    UnlockLevel: 48
  - Info: {fileID: 11400000, guid: 73b36bf5b1878fb4b9a6b88cbbcd4833, type: 2}
    UnlockLevel: 54
  - Info: {fileID: 11400000, guid: 8ecee85d61df34f4296356ba066c4f9c, type: 2}
    UnlockLevel: 59
  - Info: {fileID: 11400000, guid: b58c4afda19c0b749ae1ed92e7114cdf, type: 2}
    UnlockLevel: 64
  - Info: {fileID: 11400000, guid: 5da1432516df1c648bc70c96f2da58a4, type: 2}
    UnlockLevel: 70
  Types:
  - {fileID: 11400000, guid: b2263d3942d9cee40b27a6d5ead1297d, type: 2}
  - {fileID: 11400000, guid: d5e8e99b7eae6e14e916633b02b73558, type: 2}
  Health: 115
  Attack: 140
  Defense: 65
  SPAttack: 50
  SPDefense: 130
  Speed: 30
  Experience: 130
  IsShiny: 0
  Front: {fileID: 0}
  Back: {fileID: 0}
  Nature: {fileID: 0}
