%YAML 1.1
%TAG !u! tag:unity3d.com,2011:
--- !u!114 &11400000
MonoBehaviour:
  m_ObjectHideFlags: 0
  m_PrefabParentObject: {fileID: 0}
  m_PrefabInternal: {fileID: 0}
  m_GameObject: {fileID: 0}
  m_Enabled: 1
  m_EditorHideFlags: 0
  m_Script: {fileID: 11500000, guid: f7a371d3c077b734e8c6a79283f76ce1, type: 3}
  m_Name: Azurill
  m_EditorClassIdentifier: 
  FighterIDName: AZURILL
  FighterShowName: Azurill
  Level: 1
  Attacks:
  - Info: {fileID: 11400000, guid: 63bbdf4baa0b0e247b1e86bc58ea6d7d, type: 2}
    UnlockLevel: 1
  - Info: {fileID: 11400000, guid: 02d15518f762bc144aad19195dbbad73, type: 2}
    UnlockLevel: 1
  - Info: {fileID: 11400000, guid: d51902e7be2d7a145b1e4ef7fb23bbe5, type: 2}
    UnlockLevel: 2
  - Info: {fileID: 11400000, guid: e90550dfdb5749e479b5dc29239cb4d2, type: 2}
    UnlockLevel: 5
  - Info: {fileID: 11400000, guid: 13de6f2a10560bc4eb3b08553d811b66, type: 2}
    UnlockLevel: 7
  - Info: {fileID: 11400000, guid: 5a9e071dd6a4c9842826114be48624d2, type: 2}
    UnlockLevel: 10
  - Info: {fileID: 11400000, guid: e5b18e8ddd80ff240823d697f5903d5c, type: 2}
    UnlockLevel: 13
  - Info: {fileID: 11400000, guid: 7f2228723f639d24995d6a8e59a9599c, type: 2}
    UnlockLevel: 16
  - Info: {fileID: 11400000, guid: 73a0bfe4b673cef44b5585606995855b, type: 2}
    UnlockLevel: 20
  - Info: {fileID: 11400000, guid: 5459e779804fc0146ba0d5e9f5921571, type: 2}
    UnlockLevel: 23
  Types:
  - {fileID: 11400000, guid: 3e51a82ce5c89e94ba1a2824788016d3, type: 2}
  - {fileID: 11400000, guid: 57d5c332bc212a047a73d3810bd3f7cb, type: 2}
  Health: 50
  Attack: 20
  Defense: 40
  SPAttack: 20
  SPDefense: 40
  Speed: 20
  Experience: 38
  IsShiny: 0
  Front: {fileID: 0}
  Back: {fileID: 0}
  Nature: {fileID: 0}
