%YAML 1.1
%TAG !u! tag:unity3d.com,2011:
--- !u!114 &11400000
MonoBehaviour:
  m_ObjectHideFlags: 0
  m_PrefabParentObject: {fileID: 0}
  m_PrefabInternal: {fileID: 0}
  m_GameObject: {fileID: 0}
  m_Enabled: 1
  m_EditorHideFlags: 0
  m_Script: {fileID: 11500000, guid: f7a371d3c077b734e8c6a79283f76ce1, type: 3}
  m_Name: Barboach
  m_EditorClassIdentifier: 
  FighterIDName: BARBOACH
  FighterShowName: Barboach
  Level: 1
  Attacks:
  - Info: {fileID: 11400000, guid: 8129c89ff1b66524e960913cf3688c46, type: 2}
    UnlockLevel: 1
  - Info: {fileID: 11400000, guid: 47efa6a7107dc634289c735cfa955e72, type: 2}
    UnlockLevel: 6
  - Info: {fileID: 11400000, guid: e90550dfdb5749e479b5dc29239cb4d2, type: 2}
    UnlockLevel: 6
  - Info: {fileID: 11400000, guid: 02d15518f762bc144aad19195dbbad73, type: 2}
    UnlockLevel: 9
  - Info: {fileID: 11400000, guid: 4f13755efd9dacf4980a885d4fe36c93, type: 2}
    UnlockLevel: 13
  - Info: {fileID: 11400000, guid: 4bfebfd887e1b5b4da190dddfb1b9c3d, type: 2}
    UnlockLevel: 15
  - Info: {fileID: 11400000, guid: f2153a9a81374f84f9d4f6f9010749e2, type: 2}
    UnlockLevel: 17
  - Info: {fileID: 11400000, guid: fbe1979b4e36f1540b300a7fe4701af2, type: 2}
    UnlockLevel: 20
  - Info: {fileID: 11400000, guid: 870ca5b2611656848a734636f34c7259, type: 2}
    UnlockLevel: 25
  - Info: {fileID: 11400000, guid: 2082bf1a77e655d4390aa47f8ea77f57, type: 2}
    UnlockLevel: 25
  - Info: {fileID: 11400000, guid: aa7cf8e261f912349962c8f1b70ef99e, type: 2}
    UnlockLevel: 28
  - Info: {fileID: 11400000, guid: 6e868e7b2d08bf74dae70b4717f380ac, type: 2}
    UnlockLevel: 32
  - Info: {fileID: 11400000, guid: b386253ed8ff41e4897b033c7937589c, type: 2}
    UnlockLevel: 35
  - Info: {fileID: 11400000, guid: c562a55de5b57e841939caac7c276ddb, type: 2}
    UnlockLevel: 39
  - Info: {fileID: 11400000, guid: d205f63093a5e1445883b903e5ac1aef, type: 2}
    UnlockLevel: 44
  Types:
  - {fileID: 11400000, guid: 892e55384fa4038429488b25a0004457, type: 2}
  - {fileID: 11400000, guid: 9bce953606501074f95fb811ea470131, type: 2}
  Health: 50
  Attack: 48
  Defense: 43
  SPAttack: 46
  SPDefense: 41
  Speed: 60
  Experience: 58
  IsShiny: 0
  Front: {fileID: 0}
  Back: {fileID: 0}
  Nature: {fileID: 0}
