%YAML 1.1
%TAG !u! tag:unity3d.com,2011:
--- !u!114 &11400000
MonoBehaviour:
  m_ObjectHideFlags: 0
  m_PrefabParentObject: {fileID: 0}
  m_PrefabInternal: {fileID: 0}
  m_GameObject: {fileID: 0}
  m_Enabled: 1
  m_EditorHideFlags: 0
  m_Script: {fileID: 11500000, guid: f7a371d3c077b734e8c6a79283f76ce1, type: 3}
  m_Name: Beedrill
  m_EditorClassIdentifier: 
  FighterIDName: BEEDRILL
  FighterShowName: Beedrill
  Level: 1
  Attacks:
  - Info: {fileID: 11400000, guid: df0b0e776f7208b44935ea8f6a45bdf9, type: 2}
    UnlockLevel: 1
  - Info: {fileID: 11400000, guid: df0b0e776f7208b44935ea8f6a45bdf9, type: 2}
    UnlockLevel: 10
  - Info: {fileID: 11400000, guid: 08c60fe3d93c6d04c9f9d6ae0089cefc, type: 2}
    UnlockLevel: 13
  - Info: {fileID: 11400000, guid: 4451c2e5ee9674943999522bf16c9681, type: 2}
    UnlockLevel: 16
  - Info: {fileID: 11400000, guid: c614406402c010f408888624b50bb8a5, type: 2}
    UnlockLevel: 19
  - Info: {fileID: 11400000, guid: ac27f4ed62e5b5049b5edfe302614f5c, type: 2}
    UnlockLevel: 22
  - Info: {fileID: 11400000, guid: ef18844515e5ea2409d96fd3f27c7fba, type: 2}
    UnlockLevel: 25
  - Info: {fileID: 11400000, guid: 3a8f071911e567e479d5b30346ad6c5c, type: 2}
    UnlockLevel: 28
  - Info: {fileID: 11400000, guid: 9670989c9e32e4d41b527fcf211cb072, type: 2}
    UnlockLevel: 31
  - Info: {fileID: 11400000, guid: 01109219d28c8f548a731ea7400ea5a7, type: 2}
    UnlockLevel: 34
  - Info: {fileID: 11400000, guid: d016d087343ec804eaffb31b88e20c8f, type: 2}
    UnlockLevel: 37
  - Info: {fileID: 11400000, guid: fda2eb59fc5bee44e808bdaed4ca69fc, type: 2}
    UnlockLevel: 40
  - Info: {fileID: 11400000, guid: 306ba74bdbcda314ca047e46a77e96f9, type: 2}
    UnlockLevel: 45
  Types:
  - {fileID: 11400000, guid: 0f07cb8f52a4e464fa188043a8de5605, type: 2}
  - {fileID: 11400000, guid: 59f2fca58cea2e4459ec19299719ad21, type: 2}
  Health: 65
  Attack: 90
  Defense: 40
  SPAttack: 45
  SPDefense: 80
  Speed: 75
  Experience: 173
  IsShiny: 0
  Front: {fileID: 0}
  Back: {fileID: 0}
  Nature: {fileID: 0}
