%YAML 1.1
%TAG !u! tag:unity3d.com,2011:
--- !u!114 &11400000
MonoBehaviour:
  m_ObjectHideFlags: 0
  m_PrefabParentObject: {fileID: 0}
  m_PrefabInternal: {fileID: 0}
  m_GameObject: {fileID: 0}
  m_Enabled: 1
  m_EditorHideFlags: 0
  m_Script: {fileID: 11500000, guid: f7a371d3c077b734e8c6a79283f76ce1, type: 3}
  m_Name: Bonsly
  m_EditorClassIdentifier: 
  FighterIDName: BONSLY
  FighterShowName: Bonsly
  Level: 1
  Attacks:
  - Info: {fileID: 11400000, guid: a187f2c6573ea6043b0f5c2dd0f4a552, type: 2}
    UnlockLevel: 1
  - Info: {fileID: 11400000, guid: 5bdd031051f98d2429073a9a2e4b183a, type: 2}
    UnlockLevel: 1
  - Info: {fileID: 11400000, guid: 7f8f41d987e8f4049925abea1e720837, type: 2}
    UnlockLevel: 5
  - Info: {fileID: 11400000, guid: dd39e7b5b5cddb148988ce9c9664d377, type: 2}
    UnlockLevel: 8
  - Info: {fileID: 11400000, guid: 2684866907368d747a8cf43b903709cc, type: 2}
    UnlockLevel: 12
  - Info: {fileID: 11400000, guid: bb67198caf62a174baa028a3936212c3, type: 2}
    UnlockLevel: 15
  - Info: {fileID: 11400000, guid: f4aea1b9c7ff7d64da97d8e765f743df, type: 2}
    UnlockLevel: 19
  - Info: {fileID: 11400000, guid: 6ae73d71e084acb4fa48184f4707e634, type: 2}
    UnlockLevel: 22
  - Info: {fileID: 11400000, guid: 77026d5978a4f0f4b9a5f3c31c756a29, type: 2}
    UnlockLevel: 26
  - Info: {fileID: 11400000, guid: 8c639a55a7e50e540a4c05a3b0f7c8d4, type: 2}
    UnlockLevel: 29
  - Info: {fileID: 11400000, guid: 03b3bbf99d3c9044fa94d2c23c9145cd, type: 2}
    UnlockLevel: 36
  - Info: {fileID: 11400000, guid: 73b36bf5b1878fb4b9a6b88cbbcd4833, type: 2}
    UnlockLevel: 40
  Types:
  - {fileID: 11400000, guid: d5e8e99b7eae6e14e916633b02b73558, type: 2}
  Health: 50
  Attack: 80
  Defense: 95
  SPAttack: 10
  SPDefense: 45
  Speed: 10
  Experience: 58
  IsShiny: 0
  Front: {fileID: 0}
  Back: {fileID: 0}
  Nature: {fileID: 0}
