%YAML 1.1
%TAG !u! tag:unity3d.com,2011:
--- !u!114 &11400000
MonoBehaviour:
  m_ObjectHideFlags: 0
  m_PrefabParentObject: {fileID: 0}
  m_PrefabInternal: {fileID: 0}
  m_GameObject: {fileID: 0}
  m_Enabled: 1
  m_EditorHideFlags: 0
  m_Script: {fileID: 11500000, guid: f7a371d3c077b734e8c6a79283f76ce1, type: 3}
  m_Name: Cacturne
  m_EditorClassIdentifier: 
  FighterIDName: CACTURNE
  FighterShowName: Cacturne
  Level: 1
  Attacks:
  - Info: {fileID: 11400000, guid: 73a759fa359ba53449d82172bf4fa0ab, type: 2}
    UnlockLevel: 1
  - Info: {fileID: 11400000, guid: f6f147d6b33424b4abf6da6d4c4dd169, type: 2}
    UnlockLevel: 1
  - Info: {fileID: 11400000, guid: 8b5bc5bc5e80fd3428791efaadd1d33c, type: 2}
    UnlockLevel: 1
  - Info: {fileID: 11400000, guid: ff9a619b72c64b34bbd0e7cd74afda71, type: 2}
    UnlockLevel: 1
  - Info: {fileID: 11400000, guid: 5a91db60a93684b49808e3f388382a57, type: 2}
    UnlockLevel: 1
  - Info: {fileID: 11400000, guid: b125a41387c352646805f9b67236e4e7, type: 2}
    UnlockLevel: 1
  - Info: {fileID: 11400000, guid: 5a91db60a93684b49808e3f388382a57, type: 2}
    UnlockLevel: 4
  - Info: {fileID: 11400000, guid: b125a41387c352646805f9b67236e4e7, type: 2}
    UnlockLevel: 7
  - Info: {fileID: 11400000, guid: 81c5eb9cedf61544a8e47812a46ebdc8, type: 2}
    UnlockLevel: 10
  - Info: {fileID: 11400000, guid: 6eab2f1a18e675c4f8d8bb28fda59603, type: 2}
    UnlockLevel: 13
  - Info: {fileID: 11400000, guid: b331c2fb98052a94ebafbbff106690ef, type: 2}
    UnlockLevel: 16
  - Info: {fileID: 11400000, guid: f4aea1b9c7ff7d64da97d8e765f743df, type: 2}
    UnlockLevel: 19
  - Info: {fileID: 11400000, guid: 8752a00c4d148bd49853072d9f8dcb07, type: 2}
    UnlockLevel: 22
  - Info: {fileID: 11400000, guid: 851a8959fc4db65459905ad693655be2, type: 2}
    UnlockLevel: 26
  - Info: {fileID: 11400000, guid: 05e37c6eb6a9602429017781bf075875, type: 2}
    UnlockLevel: 30
  - Info: {fileID: 11400000, guid: dc03d2e24b024a44dbe574f84272d215, type: 2}
    UnlockLevel: 32
  - Info: {fileID: 11400000, guid: 03b3bbf99d3c9044fa94d2c23c9145cd, type: 2}
    UnlockLevel: 35
  - Info: {fileID: 11400000, guid: 3a8f071911e567e479d5b30346ad6c5c, type: 2}
    UnlockLevel: 38
  - Info: {fileID: 11400000, guid: a9317de618151b4469c78aa0ebbcf42a, type: 2}
    UnlockLevel: 44
  - Info: {fileID: 11400000, guid: 9381c1322c359094a8e23bdd62d83467, type: 2}
    UnlockLevel: 49
  - Info: {fileID: 11400000, guid: c0a8c5ed8b803a244970ac14ff1144c1, type: 2}
    UnlockLevel: 54
  - Info: {fileID: 11400000, guid: 73a759fa359ba53449d82172bf4fa0ab, type: 2}
    UnlockLevel: 59
  Types:
  - {fileID: 11400000, guid: 9013aa9c388209e498c7cc40001c20b9, type: 2}
  - {fileID: 11400000, guid: 9034d3dd3086cdc41af1e7173855452f, type: 2}
  Health: 70
  Attack: 115
  Defense: 60
  SPAttack: 115
  SPDefense: 60
  Speed: 55
  Experience: 166
  IsShiny: 0
  Front: {fileID: 0}
  Back: {fileID: 0}
  Nature: {fileID: 0}
