%YAML 1.1
%TAG !u! tag:unity3d.com,2011:
--- !u!114 &11400000
MonoBehaviour:
  m_ObjectHideFlags: 0
  m_PrefabParentObject: {fileID: 0}
  m_PrefabInternal: {fileID: 0}
  m_GameObject: {fileID: 0}
  m_Enabled: 1
  m_EditorHideFlags: 0
  m_Script: {fileID: 11500000, guid: f7a371d3c077b734e8c6a79283f76ce1, type: 3}
  m_Name: Cereetle
  m_EditorClassIdentifier: 
  FighterIDName: CEREETLE
  FighterShowName: Cereetle
  Level: 1
  Attacks:
  - Info: {fileID: 11400000, guid: d613775d6898c4849953f777019ba012, type: 2}
    UnlockLevel: 1
  - Info: {fileID: 11400000, guid: bd845d8f8a6398f4b9decd4eb16d2e8f, type: 2}
    UnlockLevel: 1
  - Info: {fileID: 11400000, guid: 772fd8b20f2344441aefef7d40ad0d7e, type: 2}
    UnlockLevel: 6
  - Info: {fileID: 11400000, guid: 2af2f53b70656584aa9bc8719435fe6b, type: 2}
    UnlockLevel: 9
  - Info: {fileID: 11400000, guid: 536b554402f04ff46814b1f7cdd6215b, type: 2}
    UnlockLevel: 12
  - Info: {fileID: 11400000, guid: e5020a4a4a9cc6049ac6106e364139d6, type: 2}
    UnlockLevel: 15
  - Info: {fileID: 11400000, guid: 6bdbf87ba6f2ef749bfcfba57ecfb8d1, type: 2}
    UnlockLevel: 18
  - Info: {fileID: 11400000, guid: ad16e83f042264642a2f22a3379ac18d, type: 2}
    UnlockLevel: 21
  - Info: {fileID: 11400000, guid: ac6daa9c5a01d4949b2fb9a67a0bd190, type: 2}
    UnlockLevel: 21
  - Info: {fileID: 11400000, guid: bc5691d0d1adc0e449480c363ec21299, type: 2}
    UnlockLevel: 24
  - Info: {fileID: 11400000, guid: b92589cc3458fa6449a00dd43b6b61f6, type: 2}
    UnlockLevel: 27
  - Info: {fileID: 11400000, guid: fe82db13d5fdbd34c91a7c45bd74d844, type: 2}
    UnlockLevel: 30
  - Info: {fileID: 11400000, guid: fb7b7fe6af6cb964ea0e6e9b932b389c, type: 2}
    UnlockLevel: 34
  - Info: {fileID: 11400000, guid: 5e18ae890890e094e894e38a37330229, type: 2}
    UnlockLevel: 38
  - Info: {fileID: 11400000, guid: 996c745730cde6f40811a4121293194a, type: 2}
    UnlockLevel: 42
  - Info: {fileID: 11400000, guid: 7cbf9ee48ddba294fa5e70b149716377, type: 2}
    UnlockLevel: 46
  - Info: {fileID: 11400000, guid: c5f84c112e68a404992bbf522ee943d0, type: 2}
    UnlockLevel: 50
  - Info: {fileID: 11400000, guid: 3eba455177a634e43ae5519f840abb6b, type: 2}
    UnlockLevel: 54
  - Info: {fileID: 11400000, guid: 9826ff173c489e24385a61d4da65082f, type: 2}
    UnlockLevel: 59
  - Info: {fileID: 11400000, guid: 02e9b463ceedc5a44ab189017a634b7a, type: 2}
    UnlockLevel: 64
  - Info: {fileID: 11400000, guid: b483d4e9f9c578c45a07da248ff2bc9e, type: 2}
    UnlockLevel: 69
  Types:
  - {fileID: 11400000, guid: 0f07cb8f52a4e464fa188043a8de5605, type: 2}
  - {fileID: 11400000, guid: 6ab104ed0fffb2949b3b296c5c7eb603, type: 2}
  Health: 100
  Attack: 30
  Defense: 65
  SPAttack: 95
  SPDefense: 125
  Speed: 75
  Experience: 175
  IsShiny: 0
  Front: {fileID: 0}
  Back: {fileID: 0}
  Nature: {fileID: 0}
