%YAML 1.1
%TAG !u! tag:unity3d.com,2011:
--- !u!114 &11400000
MonoBehaviour:
  m_ObjectHideFlags: 0
  m_PrefabParentObject: {fileID: 0}
  m_PrefabInternal: {fileID: 0}
  m_GameObject: {fileID: 0}
  m_Enabled: 1
  m_EditorHideFlags: 0
  m_Script: {fileID: 11500000, guid: f7a371d3c077b734e8c6a79283f76ce1, type: 3}
  m_Name: Charmeleon
  m_EditorClassIdentifier: 
  FighterIDName: CHARMELEON
  FighterShowName: Charmeleon
  Level: 1
  Attacks:
  - Info: {fileID: 11400000, guid: 617336879215d7c4789d9ecc335218bd, type: 2}
    UnlockLevel: 1
  - Info: {fileID: 11400000, guid: b5f0c5fa15024ab4f887c0948f682d1c, type: 2}
    UnlockLevel: 1
  - Info: {fileID: 11400000, guid: 7df3b6dc573d0974c8e8433313d63e73, type: 2}
    UnlockLevel: 1
  - Info: {fileID: 11400000, guid: 7df3b6dc573d0974c8e8433313d63e73, type: 2}
    UnlockLevel: 7
  - Info: {fileID: 11400000, guid: cf55802d2f3dee84d844916ab62f4f80, type: 2}
    UnlockLevel: 10
  - Info: {fileID: 11400000, guid: 6f388d528a263d34cb4aae5bad625721, type: 2}
    UnlockLevel: 17
  - Info: {fileID: 11400000, guid: 9dff449eb4e23724c8fac7e303e86fb7, type: 2}
    UnlockLevel: 21
  - Info: {fileID: 11400000, guid: 3922935ef5fc05c49ae3c99ce6b70bf7, type: 2}
    UnlockLevel: 28
  - Info: {fileID: 11400000, guid: 5663cb52451bdf846a253ef3b9e54a4b, type: 2}
    UnlockLevel: 32
  - Info: {fileID: 11400000, guid: f431e5480eb00184790591673c2f18e3, type: 2}
    UnlockLevel: 39
  - Info: {fileID: 11400000, guid: 583f0f699db4531478a8952cfd6b5957, type: 2}
    UnlockLevel: 43
  - Info: {fileID: 11400000, guid: ee37fc9e57a85bb479a4ec19717d29e7, type: 2}
    UnlockLevel: 50
  - Info: {fileID: 11400000, guid: eda82339dff988c419432fe43c43b194, type: 2}
    UnlockLevel: 54
  Types:
  - {fileID: 11400000, guid: b2263d3942d9cee40b27a6d5ead1297d, type: 2}
  Health: 58
  Attack: 64
  Defense: 58
  SPAttack: 80
  SPDefense: 65
  Speed: 80
  Experience: 142
  IsShiny: 0
  Front: {fileID: 0}
  Back: {fileID: 0}
  Nature: {fileID: 0}
