%YAML 1.1
%TAG !u! tag:unity3d.com,2011:
--- !u!114 &11400000
MonoBehaviour:
  m_ObjectHideFlags: 0
  m_PrefabParentObject: {fileID: 0}
  m_PrefabInternal: {fileID: 0}
  m_GameObject: {fileID: 0}
  m_Enabled: 1
  m_EditorHideFlags: 0
  m_Script: {fileID: 11500000, guid: f7a371d3c077b734e8c6a79283f76ce1, type: 3}
  m_Name: Chatot
  m_EditorClassIdentifier: 
  FighterIDName: CHATOT
  FighterShowName: Chatot
  Level: 1
  Attacks:
  - Info: {fileID: 11400000, guid: 7c1d4e753d6aad24da38d4f3e0fe68d5, type: 2}
    UnlockLevel: 1
  - Info: {fileID: 11400000, guid: 8dce61ae362aca44ea0a16932af919eb, type: 2}
    UnlockLevel: 1
  - Info: {fileID: 11400000, guid: bd845d8f8a6398f4b9decd4eb16d2e8f, type: 2}
    UnlockLevel: 1
  - Info: {fileID: 11400000, guid: 8f4bdc757ba4a904a805d11d67a6bef3, type: 2}
    UnlockLevel: 1
  - Info: {fileID: 11400000, guid: 4915ebb5dc88dda4692ea608f3342b7f, type: 2}
    UnlockLevel: 1
  - Info: {fileID: 11400000, guid: b5f0c5fa15024ab4f887c0948f682d1c, type: 2}
    UnlockLevel: 5
  - Info: {fileID: 11400000, guid: 69bfebd127243ab4e8f874caef5bd232, type: 2}
    UnlockLevel: 9
  - Info: {fileID: 11400000, guid: c3c9abdec16e2ec47b690829cb5649b0, type: 2}
    UnlockLevel: 13
  - Info: {fileID: 11400000, guid: df0b0e776f7208b44935ea8f6a45bdf9, type: 2}
    UnlockLevel: 17
  - Info: {fileID: 11400000, guid: 8dce61ae362aca44ea0a16932af919eb, type: 2}
    UnlockLevel: 21
  - Info: {fileID: 11400000, guid: 8f4bdc757ba4a904a805d11d67a6bef3, type: 2}
    UnlockLevel: 25
  - Info: {fileID: 11400000, guid: 0c2bbf328746027409a9f017f6af49e1, type: 2}
    UnlockLevel: 29
  - Info: {fileID: 11400000, guid: bb67198caf62a174baa028a3936212c3, type: 2}
    UnlockLevel: 33
  - Info: {fileID: 11400000, guid: e00c528bd783fbd408df106467929fa5, type: 2}
    UnlockLevel: 37
  - Info: {fileID: 11400000, guid: df5c9aa3ecdccdd45af39edd7f904147, type: 2}
    UnlockLevel: 41
  - Info: {fileID: 11400000, guid: 772fd8b20f2344441aefef7d40ad0d7e, type: 2}
    UnlockLevel: 45
  - Info: {fileID: 11400000, guid: 81941decc54f9ab4e99954562e9ff7b9, type: 2}
    UnlockLevel: 49
  - Info: {fileID: 11400000, guid: 4302696026f3b2e4cb812fa1d3277731, type: 2}
    UnlockLevel: 50
  - Info: {fileID: 11400000, guid: 7c1d4e753d6aad24da38d4f3e0fe68d5, type: 2}
    UnlockLevel: 57
  Types:
  - {fileID: 11400000, guid: 3e51a82ce5c89e94ba1a2824788016d3, type: 2}
  - {fileID: 11400000, guid: 0973b6dbda6985f49a4dacdef07c9047, type: 2}
  Health: 76
  Attack: 65
  Defense: 45
  SPAttack: 92
  SPDefense: 42
  Speed: 91
  Experience: 144
  IsShiny: 0
  Front: {fileID: 0}
  Back: {fileID: 0}
  Nature: {fileID: 0}
