%YAML 1.1
%TAG !u! tag:unity3d.com,2011:
--- !u!114 &11400000
MonoBehaviour:
  m_ObjectHideFlags: 0
  m_PrefabParentObject: {fileID: 0}
  m_PrefabInternal: {fileID: 0}
  m_GameObject: {fileID: 0}
  m_Enabled: 1
  m_EditorHideFlags: 0
  m_Script: {fileID: 11500000, guid: f7a371d3c077b734e8c6a79283f76ce1, type: 3}
  m_Name: Cherubi
  m_EditorClassIdentifier: 
  FighterIDName: CHERUBI
  FighterShowName: Cherubi
  Level: 1
  Attacks:
  - Info: {fileID: 11400000, guid: cc623af46e99f9e4592e2728778a9091, type: 2}
    UnlockLevel: 1
  - Info: {fileID: 11400000, guid: f2eafcc30bd3f47418faaca7f81f0ad2, type: 2}
    UnlockLevel: 1
  - Info: {fileID: 11400000, guid: b125a41387c352646805f9b67236e4e7, type: 2}
    UnlockLevel: 7
  - Info: {fileID: 11400000, guid: 81c5eb9cedf61544a8e47812a46ebdc8, type: 2}
    UnlockLevel: 10
  - Info: {fileID: 11400000, guid: 7f2228723f639d24995d6a8e59a9599c, type: 2}
    UnlockLevel: 13
  - Info: {fileID: 11400000, guid: 1c7ea99f3fb29dd49986cdb06b6f8562, type: 2}
    UnlockLevel: 19
  - Info: {fileID: 11400000, guid: 8711f7b778b07cf4cb8db20aaa852edc, type: 2}
    UnlockLevel: 22
  - Info: {fileID: 11400000, guid: c3854942ad9038f4988efe138a8d2edb, type: 2}
    UnlockLevel: 28
  - Info: {fileID: 11400000, guid: b6405890855b9df4993647366ae6467b, type: 2}
    UnlockLevel: 31
  - Info: {fileID: 11400000, guid: ec10853d60102274db7543ce21f38b4c, type: 2}
    UnlockLevel: 37
  - Info: {fileID: 11400000, guid: 9b9397f6a83f9eb498534660a9ec27fa, type: 2}
    UnlockLevel: 40
  - Info: {fileID: 11400000, guid: dfcd4052b2ea5b94fbabc2d3fe6a0076, type: 2}
    UnlockLevel: 47
  Types:
  - {fileID: 11400000, guid: 9013aa9c388209e498c7cc40001c20b9, type: 2}
  Health: 45
  Attack: 35
  Defense: 45
  SPAttack: 62
  SPDefense: 53
  Speed: 35
  Experience: 55
  IsShiny: 0
  Front: {fileID: 0}
  Back: {fileID: 0}
  Nature: {fileID: 0}
