%YAML 1.1
%TAG !u! tag:unity3d.com,2011:
--- !u!114 &11400000
MonoBehaviour:
  m_ObjectHideFlags: 0
  m_PrefabParentObject: {fileID: 0}
  m_PrefabInternal: {fileID: 0}
  m_GameObject: {fileID: 0}
  m_Enabled: 1
  m_EditorHideFlags: 0
  m_Script: {fileID: 11500000, guid: f7a371d3c077b734e8c6a79283f76ce1, type: 3}
  m_Name: Cinccino
  m_EditorClassIdentifier: 
  FighterIDName: CINCCINO
  FighterShowName: Cinccino
  Level: 1
  Attacks:
  - Info: {fileID: 11400000, guid: 77f770e1ce2dd1b42ba50c4651afeb68, type: 2}
    UnlockLevel: 1
  - Info: {fileID: 11400000, guid: a276e66a3af8d1945b5a53ad0817b9ec, type: 2}
    UnlockLevel: 1
  - Info: {fileID: 11400000, guid: 7f2228723f639d24995d6a8e59a9599c, type: 2}
    UnlockLevel: 1
  - Info: {fileID: 11400000, guid: f50e4d05245db844c95c113e5477fed5, type: 2}
    UnlockLevel: 1
  - Info: {fileID: 11400000, guid: c3c9abdec16e2ec47b690829cb5649b0, type: 2}
    UnlockLevel: 1
  - Info: {fileID: 11400000, guid: b2e97f84284bb2044bd742298d61354c, type: 2}
    UnlockLevel: 1
  Types:
  - {fileID: 11400000, guid: 3e51a82ce5c89e94ba1a2824788016d3, type: 2}
  Health: 75
  Attack: 95
  Defense: 60
  SPAttack: 65
  SPDefense: 60
  Speed: 115
  Experience: 165
  IsShiny: 0
  Front: {fileID: 0}
  Back: {fileID: 0}
  Nature: {fileID: 0}
