%YAML 1.1
%TAG !u! tag:unity3d.com,2011:
--- !u!114 &11400000
MonoBehaviour:
  m_ObjectHideFlags: 0
  m_PrefabParentObject: {fileID: 0}
  m_PrefabInternal: {fileID: 0}
  m_GameObject: {fileID: 0}
  m_Enabled: 1
  m_EditorHideFlags: 0
  m_Script: {fileID: 11500000, guid: f7a371d3c077b734e8c6a79283f76ce1, type: 3}
  m_Name: Conkeldurr
  m_EditorClassIdentifier: 
  FighterIDName: CONKELDURR
  FighterShowName: Conkeldurr
  Level: 1
  Attacks:
  - Info: {fileID: 11400000, guid: 606c2bcb526fed143972e7c91f810132, type: 2}
    UnlockLevel: 1
  - Info: {fileID: 11400000, guid: ff9a619b72c64b34bbd0e7cd74afda71, type: 2}
    UnlockLevel: 1
  - Info: {fileID: 11400000, guid: 08c60fe3d93c6d04c9f9d6ae0089cefc, type: 2}
    UnlockLevel: 1
  - Info: {fileID: 11400000, guid: 34bbaf062002eac41b3fc44e81e80d9e, type: 2}
    UnlockLevel: 1
  - Info: {fileID: 11400000, guid: 08c60fe3d93c6d04c9f9d6ae0089cefc, type: 2}
    UnlockLevel: 4
  - Info: {fileID: 11400000, guid: 34bbaf062002eac41b3fc44e81e80d9e, type: 2}
    UnlockLevel: 8
  - Info: {fileID: 11400000, guid: dd39e7b5b5cddb148988ce9c9664d377, type: 2}
    UnlockLevel: 12
  - Info: {fileID: 11400000, guid: 2684866907368d747a8cf43b903709cc, type: 2}
    UnlockLevel: 16
  - Info: {fileID: 11400000, guid: a4138997270927a4fab10bb5575c480e, type: 2}
    UnlockLevel: 20
  - Info: {fileID: 11400000, guid: 2d074f351474345449c430890490004a, type: 2}
    UnlockLevel: 24
  - Info: {fileID: 11400000, guid: 2c0c78f64bb6b604d8024d8b2ee63670, type: 2}
    UnlockLevel: 29
  - Info: {fileID: 11400000, guid: 8c639a55a7e50e540a4c05a3b0f7c8d4, type: 2}
    UnlockLevel: 33
  - Info: {fileID: 11400000, guid: 3c20f251e43ab314193a27577799dbd4, type: 2}
    UnlockLevel: 37
  - Info: {fileID: 11400000, guid: 9dff449eb4e23724c8fac7e303e86fb7, type: 2}
    UnlockLevel: 41
  - Info: {fileID: 11400000, guid: 1a077ae8b6d40854291439dff847376f, type: 2}
    UnlockLevel: 45
  - Info: {fileID: 11400000, guid: 392b5043e1b75a8449bc29e1b814f5d6, type: 2}
    UnlockLevel: 49
  - Info: {fileID: 11400000, guid: b91bbb8dbfde8ce4d94a030d32f2ff2c, type: 2}
    UnlockLevel: 53
  - Info: {fileID: 11400000, guid: a64f4b4c99d030b4f90bd1f820282fd1, type: 2}
    UnlockLevel: 57
  Types:
  - {fileID: 11400000, guid: f70898c0189222a4091ee9f0c6037fe5, type: 2}
  Health: 105
  Attack: 140
  Defense: 95
  SPAttack: 55
  SPDefense: 65
  Speed: 45
  Experience: 227
  IsShiny: 0
  Front: {fileID: 0}
  Back: {fileID: 0}
  Nature: {fileID: 0}
