%YAML 1.1
%TAG !u! tag:unity3d.com,2011:
--- !u!114 &11400000
MonoBehaviour:
  m_ObjectHideFlags: 0
  m_PrefabParentObject: {fileID: 0}
  m_PrefabInternal: {fileID: 0}
  m_GameObject: {fileID: 0}
  m_Enabled: 1
  m_EditorHideFlags: 0
  m_Script: {fileID: 11500000, guid: f7a371d3c077b734e8c6a79283f76ce1, type: 3}
  m_Name: Cyndaquil
  m_EditorClassIdentifier: 
  FighterIDName: CYNDAQUIL
  FighterShowName: Cyndaquil
  Level: 1
  Attacks:
  - Info: {fileID: 11400000, guid: f2eafcc30bd3f47418faaca7f81f0ad2, type: 2}
    UnlockLevel: 1
  - Info: {fileID: 11400000, guid: ff9a619b72c64b34bbd0e7cd74afda71, type: 2}
    UnlockLevel: 1
  - Info: {fileID: 11400000, guid: cf55802d2f3dee84d844916ab62f4f80, type: 2}
    UnlockLevel: 6
  - Info: {fileID: 11400000, guid: 7df3b6dc573d0974c8e8433313d63e73, type: 2}
    UnlockLevel: 10
  - Info: {fileID: 11400000, guid: 3f22a5e8b79f95d4791e16260dfea1bf, type: 2}
    UnlockLevel: 13
  - Info: {fileID: 11400000, guid: b99817564cb46c141a633d5b4f4ac352, type: 2}
    UnlockLevel: 19
  - Info: {fileID: 11400000, guid: 9bfe42524092c6945b53a1d4fafb376f, type: 2}
    UnlockLevel: 22
  - Info: {fileID: 11400000, guid: bb7c5465603f4534f8b6e21405df26e4, type: 2}
    UnlockLevel: 28
  - Info: {fileID: 11400000, guid: 1b37625e5b522f543adcfba6cb99ea13, type: 2}
    UnlockLevel: 31
  - Info: {fileID: 11400000, guid: 1c70ebcf4e7ceee4390094714432c949, type: 2}
    UnlockLevel: 37
  - Info: {fileID: 11400000, guid: 583f0f699db4531478a8952cfd6b5957, type: 2}
    UnlockLevel: 40
  - Info: {fileID: 11400000, guid: eda82339dff988c419432fe43c43b194, type: 2}
    UnlockLevel: 46
  - Info: {fileID: 11400000, guid: 847604257988a6f4f9e49a13ce7f2a69, type: 2}
    UnlockLevel: 49
  - Info: {fileID: 11400000, guid: 73b36bf5b1878fb4b9a6b88cbbcd4833, type: 2}
    UnlockLevel: 55
  - Info: {fileID: 11400000, guid: b826520ab208a434cace76927d5a3919, type: 2}
    UnlockLevel: 58
  Types:
  - {fileID: 11400000, guid: b2263d3942d9cee40b27a6d5ead1297d, type: 2}
  Health: 39
  Attack: 52
  Defense: 43
  SPAttack: 60
  SPDefense: 50
  Speed: 65
  Experience: 62
  IsShiny: 0
  Front: {fileID: 0}
  Back: {fileID: 0}
  Nature: {fileID: 0}
