%YAML 1.1
%TAG !u! tag:unity3d.com,2011:
--- !u!114 &11400000
MonoBehaviour:
  m_ObjectHideFlags: 0
  m_PrefabParentObject: {fileID: 0}
  m_PrefabInternal: {fileID: 0}
  m_GameObject: {fileID: 0}
  m_Enabled: 1
  m_EditorHideFlags: 0
  m_Script: {fileID: 11500000, guid: f7a371d3c077b734e8c6a79283f76ce1, type: 3}
  m_Name: Darkrai
  m_EditorClassIdentifier: 
  FighterIDName: DARKRAI
  FighterShowName: Darkrai
  Level: 1
  Attacks:
  - Info: {fileID: 11400000, guid: c67b11184988f3e428a50f23628e3a5e, type: 2}
    UnlockLevel: 1
  - Info: {fileID: 11400000, guid: 73e7714b9fb1a504dbe30a95f529e626, type: 2}
    UnlockLevel: 1
  - Info: {fileID: 11400000, guid: 3f22a5e8b79f95d4791e16260dfea1bf, type: 2}
    UnlockLevel: 11
  - Info: {fileID: 11400000, guid: 2af2f53b70656584aa9bc8719435fe6b, type: 2}
    UnlockLevel: 20
  - Info: {fileID: 11400000, guid: f4aea1b9c7ff7d64da97d8e765f743df, type: 2}
    UnlockLevel: 29
  - Info: {fileID: 11400000, guid: 04b382ad753938c4fb57b907792c9816, type: 2}
    UnlockLevel: 38
  - Info: {fileID: 11400000, guid: 950d58be627d1444688d1c1c45a8e210, type: 2}
    UnlockLevel: 47
  - Info: {fileID: 11400000, guid: 2b783edb940338845b69819bde3bb28a, type: 2}
    UnlockLevel: 57
  - Info: {fileID: 11400000, guid: 3796bfa91f1b3aa4788f4cae0ef3ddf0, type: 2}
    UnlockLevel: 66
  - Info: {fileID: 11400000, guid: abf311c9f8da9bd4180f7fa9e71c2926, type: 2}
    UnlockLevel: 75
  - Info: {fileID: 11400000, guid: 38765fda499b4874a97d609987e1b991, type: 2}
    UnlockLevel: 84
  - Info: {fileID: 11400000, guid: d56059e52abf56f4daebe81b2bd56a3a, type: 2}
    UnlockLevel: 93
  Types:
  - {fileID: 11400000, guid: 9034d3dd3086cdc41af1e7173855452f, type: 2}
  Health: 70
  Attack: 90
  Defense: 90
  SPAttack: 135
  SPDefense: 90
  Speed: 125
  Experience: 270
  IsShiny: 0
  Front: {fileID: 0}
  Back: {fileID: 0}
  Nature: {fileID: 0}
