%YAML 1.1
%TAG !u! tag:unity3d.com,2011:
--- !u!114 &11400000
MonoBehaviour:
  m_ObjectHideFlags: 0
  m_PrefabParentObject: {fileID: 0}
  m_PrefabInternal: {fileID: 0}
  m_GameObject: {fileID: 0}
  m_Enabled: 1
  m_EditorHideFlags: 0
  m_Script: {fileID: 11500000, guid: f7a371d3c077b734e8c6a79283f76ce1, type: 3}
  m_Name: Delphox
  m_EditorClassIdentifier: 
  FighterIDName: DELPHOX
  FighterShowName: Delphox
  Level: 1
  Attacks:
  - Info: {fileID: 11400000, guid: c562a55de5b57e841939caac7c276ddb, type: 2}
    UnlockLevel: 1
  - Info: {fileID: 11400000, guid: d209c05705d906445aa4fca9595df4fd, type: 2}
    UnlockLevel: 1
  - Info: {fileID: 11400000, guid: 195ef4df04a60354eacad606bd6b182c, type: 2}
    UnlockLevel: 1
  - Info: {fileID: 11400000, guid: 70a8a7233d6709c43804d70595c1d933, type: 2}
    UnlockLevel: 1
  - Info: {fileID: 11400000, guid: 617336879215d7c4789d9ecc335218bd, type: 2}
    UnlockLevel: 1
  - Info: {fileID: 11400000, guid: d51902e7be2d7a145b1e4ef7fb23bbe5, type: 2}
    UnlockLevel: 1
  - Info: {fileID: 11400000, guid: 7df3b6dc573d0974c8e8433313d63e73, type: 2}
    UnlockLevel: 5
  - Info: {fileID: 11400000, guid: 88010d42a5b34b6498fb8950b8993777, type: 2}
    UnlockLevel: 11
  - Info: {fileID: 11400000, guid: bb7c5465603f4534f8b6e21405df26e4, type: 2}
    UnlockLevel: 14
  - Info: {fileID: 11400000, guid: 55361eb20ed5df44fa76b49f1359e70d, type: 2}
    UnlockLevel: 18
  - Info: {fileID: 11400000, guid: ee37fc9e57a85bb479a4ec19717d29e7, type: 2}
    UnlockLevel: 22
  - Info: {fileID: 11400000, guid: 9b9397f6a83f9eb498534660a9ec27fa, type: 2}
    UnlockLevel: 27
  - Info: {fileID: 11400000, guid: ac6daa9c5a01d4949b2fb9a67a0bd190, type: 2}
    UnlockLevel: 30
  - Info: {fileID: 11400000, guid: daa7cdcd3b0aec84ca1a5cb819de846e, type: 2}
    UnlockLevel: 34
  - Info: {fileID: 11400000, guid: eff3f6a6d7f8fba428512940ddd4ff40, type: 2}
    UnlockLevel: 36
  - Info: {fileID: 11400000, guid: 583f0f699db4531478a8952cfd6b5957, type: 2}
    UnlockLevel: 42
  - Info: {fileID: 11400000, guid: 7c7e4a156beeca746aef3b8f5e598401, type: 2}
    UnlockLevel: 47
  - Info: {fileID: 11400000, guid: fb7b7fe6af6cb964ea0e6e9b932b389c, type: 2}
    UnlockLevel: 51
  - Info: {fileID: 11400000, guid: 8711f7b778b07cf4cb8db20aaa852edc, type: 2}
    UnlockLevel: 55
  - Info: {fileID: 11400000, guid: 4c020d49489340e4c86b458689aa9eb8, type: 2}
    UnlockLevel: 58
  - Info: {fileID: 11400000, guid: 6cb6968e2e76335469670b6cd155c664, type: 2}
    UnlockLevel: 61
  - Info: {fileID: 11400000, guid: c562a55de5b57e841939caac7c276ddb, type: 2}
    UnlockLevel: 69
  - Info: {fileID: 11400000, guid: eff3f6a6d7f8fba428512940ddd4ff40, type: 2}
    UnlockLevel: 75
  Types:
  - {fileID: 11400000, guid: b2263d3942d9cee40b27a6d5ead1297d, type: 2}
  - {fileID: 11400000, guid: 6ab104ed0fffb2949b3b296c5c7eb603, type: 2}
  Health: 75
  Attack: 69
  Defense: 72
  SPAttack: 114
  SPDefense: 100
  Speed: 104
  Experience: 240
  IsShiny: 0
  Front: {fileID: 0}
  Back: {fileID: 0}
  Nature: {fileID: 0}
