%YAML 1.1
%TAG !u! tag:unity3d.com,2011:
--- !u!114 &11400000
MonoBehaviour:
  m_ObjectHideFlags: 0
  m_PrefabParentObject: {fileID: 0}
  m_PrefabInternal: {fileID: 0}
  m_GameObject: {fileID: 0}
  m_Enabled: 1
  m_EditorHideFlags: 0
  m_Script: {fileID: 11500000, guid: f7a371d3c077b734e8c6a79283f76ce1, type: 3}
  m_Name: Deoxys
  m_EditorClassIdentifier: 
  FighterIDName: DEOXYS
  FighterShowName: Deoxys
  Level: 1
  Attacks:
  - Info: {fileID: 11400000, guid: ff9a619b72c64b34bbd0e7cd74afda71, type: 2}
    UnlockLevel: 1
  - Info: {fileID: 11400000, guid: 02d6cb038b063634b9ad03c91f224206, type: 2}
    UnlockLevel: 1
  - Info: {fileID: 11400000, guid: 70e7a3e122d27ba4cb472ab142bceec1, type: 2}
    UnlockLevel: 7
  - Info: {fileID: 11400000, guid: b3a14834b6b97ad47ab7b38aa380c1f0, type: 2}
    UnlockLevel: 13
  - Info: {fileID: 11400000, guid: fc856e4c06e76414ea716c2eea2fb4fd, type: 2}
    UnlockLevel: 19
  - Info: {fileID: 11400000, guid: ac27f4ed62e5b5049b5edfe302614f5c, type: 2}
    UnlockLevel: 25
  - Info: {fileID: 11400000, guid: fb7b7fe6af6cb964ea0e6e9b932b389c, type: 2}
    UnlockLevel: 31
  - Info: {fileID: 11400000, guid: c2a326be5e8a3864bbc3b595cc0410e1, type: 2}
    UnlockLevel: 37
  - Info: {fileID: 11400000, guid: 6bdbf87ba6f2ef749bfcfba57ecfb8d1, type: 2}
    UnlockLevel: 43
  - Info: {fileID: 11400000, guid: 23528101c326c0f47b0ea2b9a05a3464, type: 2}
    UnlockLevel: 49
  - Info: {fileID: 11400000, guid: 70e57ca44850d7f4a85988b9996a0592, type: 2}
    UnlockLevel: 55
  - Info: {fileID: 11400000, guid: 9826ff173c489e24385a61d4da65082f, type: 2}
    UnlockLevel: 61
  - Info: {fileID: 11400000, guid: 97f37dcbfbb1d394aba2577827d9f979, type: 2}
    UnlockLevel: 67
  - Info: {fileID: 11400000, guid: da0a4d7e5178daf4d81f7439f2af6bea, type: 2}
    UnlockLevel: 73
  Types:
  - {fileID: 11400000, guid: 6ab104ed0fffb2949b3b296c5c7eb603, type: 2}
  Health: 50
  Attack: 150
  Defense: 50
  SPAttack: 150
  SPDefense: 50
  Speed: 150
  Experience: 270
  IsShiny: 0
  Front: {fileID: 0}
  Back: {fileID: 0}
  Nature: {fileID: 0}
