%YAML 1.1
%TAG !u! tag:unity3d.com,2011:
--- !u!114 &11400000
MonoBehaviour:
  m_ObjectHideFlags: 0
  m_PrefabParentObject: {fileID: 0}
  m_PrefabInternal: {fileID: 0}
  m_GameObject: {fileID: 0}
  m_Enabled: 1
  m_EditorHideFlags: 0
  m_Script: {fileID: 11500000, guid: f7a371d3c077b734e8c6a79283f76ce1, type: 3}
  m_Name: Dewgong
  m_EditorClassIdentifier: 
  FighterIDName: DEWGONG
  FighterShowName: Dewgong
  Level: 1
  Attacks:
  - Info: {fileID: 11400000, guid: ce1a3e17e46972949a27701ac879297c, type: 2}
    UnlockLevel: 1
  - Info: {fileID: 11400000, guid: b5f0c5fa15024ab4f887c0948f682d1c, type: 2}
    UnlockLevel: 1
  - Info: {fileID: 11400000, guid: 996c745730cde6f40811a4121293194a, type: 2}
    UnlockLevel: 1
  - Info: {fileID: 11400000, guid: 514928b27d47c944c8a76de429e78827, type: 2}
    UnlockLevel: 1
  - Info: {fileID: 11400000, guid: b5f0c5fa15024ab4f887c0948f682d1c, type: 2}
    UnlockLevel: 3
  - Info: {fileID: 11400000, guid: 996c745730cde6f40811a4121293194a, type: 2}
    UnlockLevel: 7
  - Info: {fileID: 11400000, guid: 514928b27d47c944c8a76de429e78827, type: 2}
    UnlockLevel: 11
  - Info: {fileID: 11400000, guid: 2f47cefd6769fcc45b79aab46c452fbf, type: 2}
    UnlockLevel: 13
  - Info: {fileID: 11400000, guid: 81033c31ad1de9b4495fa4a654cf33e8, type: 2}
    UnlockLevel: 17
  - Info: {fileID: 11400000, guid: 870ca5b2611656848a734636f34c7259, type: 2}
    UnlockLevel: 21
  - Info: {fileID: 11400000, guid: fb846cdfeb666f04788ca6a39226e9c4, type: 2}
    UnlockLevel: 23
  - Info: {fileID: 11400000, guid: f9e31bb83ea40fb4f9fa7ab032777a42, type: 2}
    UnlockLevel: 27
  - Info: {fileID: 11400000, guid: 924aa533dc9b350418c3321cc0fd75f5, type: 2}
    UnlockLevel: 31
  - Info: {fileID: 11400000, guid: af8b5056fadcd39429232050c9dad5d0, type: 2}
    UnlockLevel: 33
  - Info: {fileID: 11400000, guid: 6302b8269a7dd9445aa416ac69259723, type: 2}
    UnlockLevel: 34
  - Info: {fileID: 11400000, guid: b6405890855b9df4993647366ae6467b, type: 2}
    UnlockLevel: 39
  - Info: {fileID: 11400000, guid: 6788fc7e1e25ac5428756c60638d1b53, type: 2}
    UnlockLevel: 45
  - Info: {fileID: 11400000, guid: aa7cf8e261f912349962c8f1b70ef99e, type: 2}
    UnlockLevel: 49
  - Info: {fileID: 11400000, guid: 2613e24817b1dba4f8125629bb2b06a5, type: 2}
    UnlockLevel: 55
  - Info: {fileID: 11400000, guid: 6cd4d2fdec43d4a4383e3058f7679ab0, type: 2}
    UnlockLevel: 61
  - Info: {fileID: 11400000, guid: 292437369c95b70458dba5e65f3e01aa, type: 2}
    UnlockLevel: 65
  Types:
  - {fileID: 11400000, guid: 892e55384fa4038429488b25a0004457, type: 2}
  - {fileID: 11400000, guid: 498eb535236adbf4aafda6c97768c2b7, type: 2}
  Health: 90
  Attack: 70
  Defense: 80
  SPAttack: 70
  SPDefense: 95
  Speed: 70
  Experience: 166
  IsShiny: 0
  Front: {fileID: 0}
  Back: {fileID: 0}
  Nature: {fileID: 0}
