%YAML 1.1
%TAG !u! tag:unity3d.com,2011:
--- !u!114 &11400000
MonoBehaviour:
  m_ObjectHideFlags: 0
  m_PrefabParentObject: {fileID: 0}
  m_PrefabInternal: {fileID: 0}
  m_GameObject: {fileID: 0}
  m_Enabled: 1
  m_EditorHideFlags: 0
  m_Script: {fileID: 11500000, guid: f7a371d3c077b734e8c6a79283f76ce1, type: 3}
  m_Name: Diancie
  m_EditorClassIdentifier: 
  FighterIDName: DIANCIE
  FighterShowName: Diancie
  Level: 1
  Attacks:
  - Info: {fileID: 11400000, guid: f2eafcc30bd3f47418faaca7f81f0ad2, type: 2}
    UnlockLevel: 1
  - Info: {fileID: 11400000, guid: 624bb10375fc74e439e9e39bd6b4cd0f, type: 2}
    UnlockLevel: 1
  - Info: {fileID: 11400000, guid: 2684866907368d747a8cf43b903709cc, type: 2}
    UnlockLevel: 5
  - Info: {fileID: 11400000, guid: b9b53e6f7525a0048bad44d6222fab82, type: 2}
    UnlockLevel: 8
  - Info: {fileID: 11400000, guid: a35088441d3ee09418434c7689a68584, type: 2}
    UnlockLevel: 12
  - Info: {fileID: 11400000, guid: ad16e83f042264642a2f22a3379ac18d, type: 2}
    UnlockLevel: 18
  - Info: {fileID: 11400000, guid: 01e51831f3cfd4944b58c20510c9ef9f, type: 2}
    UnlockLevel: 21
  - Info: {fileID: 11400000, guid: 276142f9b1099f44094ed7ea68310ba9, type: 2}
    UnlockLevel: 27
  - Info: {fileID: 11400000, guid: ca6c940bfb9054b40b65235800b926f4, type: 2}
    UnlockLevel: 31
  - Info: {fileID: 11400000, guid: 7f8f41d987e8f4049925abea1e720837, type: 2}
    UnlockLevel: 35
  - Info: {fileID: 11400000, guid: 892dbca1ba08d014da293aed47c468fd, type: 2}
    UnlockLevel: 40
  - Info: {fileID: 11400000, guid: a98bfddca4dc93e4683b2e7ff53a6c1a, type: 2}
    UnlockLevel: 46
  - Info: {fileID: 11400000, guid: 392b5043e1b75a8449bc29e1b814f5d6, type: 2}
    UnlockLevel: 49
  - Info: {fileID: 11400000, guid: 5c950bd5ad7678d4892a0408ab45a3b7, type: 2}
    UnlockLevel: 50
  - Info: {fileID: 11400000, guid: d653a338a6b813649abffca15a83752a, type: 2}
    UnlockLevel: 50
  - Info: {fileID: 11400000, guid: ac6daa9c5a01d4949b2fb9a67a0bd190, type: 2}
    UnlockLevel: 60
  - Info: {fileID: 11400000, guid: 6cd4d2fdec43d4a4383e3058f7679ab0, type: 2}
    UnlockLevel: 70
  Types:
  - {fileID: 11400000, guid: d5e8e99b7eae6e14e916633b02b73558, type: 2}
  - {fileID: 11400000, guid: 57d5c332bc212a047a73d3810bd3f7cb, type: 2}
  Health: 50
  Attack: 100
  Defense: 150
  SPAttack: 100
  SPDefense: 150
  Speed: 50
  Experience: 270
  IsShiny: 0
  Front: {fileID: 0}
  Back: {fileID: 0}
  Nature: {fileID: 0}
