%YAML 1.1
%TAG !u! tag:unity3d.com,2011:
--- !u!114 &11400000
MonoBehaviour:
  m_ObjectHideFlags: 0
  m_PrefabParentObject: {fileID: 0}
  m_PrefabInternal: {fileID: 0}
  m_GameObject: {fileID: 0}
  m_Enabled: 1
  m_EditorHideFlags: 0
  m_Script: {fileID: 11500000, guid: f7a371d3c077b734e8c6a79283f76ce1, type: 3}
  m_Name: Ditto
  m_EditorClassIdentifier: 
  FighterIDName: DITTO
  FighterShowName: Ditto
  Level: 1
  Attacks:
  - Info: {fileID: 11400000, guid: 9b9747363af66a14d880e351301458a0, type: 2}
    UnlockLevel: 1
  Types:
  - {fileID: 11400000, guid: 3e51a82ce5c89e94ba1a2824788016d3, type: 2}
  Health: 48
  Attack: 48
  Defense: 48
  SPAttack: 48
  SPDefense: 48
  Speed: 48
  Experience: 101
  IsShiny: 0
  Front: {fileID: 0}
  Back: {fileID: 0}
  Nature: {fileID: 0}
