%YAML 1.1
%TAG !u! tag:unity3d.com,2011:
--- !u!114 &11400000
MonoBehaviour:
  m_ObjectHideFlags: 0
  m_PrefabParentObject: {fileID: 0}
  m_PrefabInternal: {fileID: 0}
  m_GameObject: {fileID: 0}
  m_Enabled: 1
  m_EditorHideFlags: 0
  m_Script: {fileID: 11500000, guid: f7a371d3c077b734e8c6a79283f76ce1, type: 3}
  m_Name: Drapion
  m_EditorClassIdentifier: 
  FighterIDName: DRAPION
  FighterShowName: Drapion
  Level: 1
  Attacks:
  - Info: {fileID: 11400000, guid: b5cb2411209bd0f48abab70e355b829e, type: 2}
    UnlockLevel: 1
  - Info: {fileID: 11400000, guid: c066bed003ca19b4297618a3bdcf500e, type: 2}
    UnlockLevel: 1
  - Info: {fileID: 11400000, guid: 3922935ef5fc05c49ae3c99ce6b70bf7, type: 2}
    UnlockLevel: 1
  - Info: {fileID: 11400000, guid: 78d6565e4587cf546a56fccf771a17f2, type: 2}
    UnlockLevel: 1
  - Info: {fileID: 11400000, guid: 8b5bc5bc5e80fd3428791efaadd1d33c, type: 2}
    UnlockLevel: 1
  - Info: {fileID: 11400000, guid: ff9a619b72c64b34bbd0e7cd74afda71, type: 2}
    UnlockLevel: 1
  - Info: {fileID: 11400000, guid: fc856e4c06e76414ea716c2eea2fb4fd, type: 2}
    UnlockLevel: 1
  - Info: {fileID: 11400000, guid: fc856e4c06e76414ea716c2eea2fb4fd, type: 2}
    UnlockLevel: 5
  - Info: {fileID: 11400000, guid: 3a8f071911e567e479d5b30346ad6c5c, type: 2}
    UnlockLevel: 9
  - Info: {fileID: 11400000, guid: 2911d79390f8eb545a2bab8d6d78c4c8, type: 2}
    UnlockLevel: 13
  - Info: {fileID: 11400000, guid: ac27f4ed62e5b5049b5edfe302614f5c, type: 2}
    UnlockLevel: 16
  - Info: {fileID: 11400000, guid: 0728a4a563798e442b112f6a45d5c079, type: 2}
    UnlockLevel: 20
  - Info: {fileID: 11400000, guid: 9f3bcf332ff853a44943596445c25e31, type: 2}
    UnlockLevel: 23
  - Info: {fileID: 11400000, guid: c93e916ac1f2e1841af4544d8191af94, type: 2}
    UnlockLevel: 27
  - Info: {fileID: 11400000, guid: c3a468ccc8fc5aa4c9ac3f0cef964f3d, type: 2}
    UnlockLevel: 30
  - Info: {fileID: 11400000, guid: ef18844515e5ea2409d96fd3f27c7fba, type: 2}
    UnlockLevel: 34
  - Info: {fileID: 11400000, guid: 760c7ab60c563a44c8438cdaf60f447c, type: 2}
    UnlockLevel: 38
  - Info: {fileID: 11400000, guid: 9dff449eb4e23724c8fac7e303e86fb7, type: 2}
    UnlockLevel: 43
  - Info: {fileID: 11400000, guid: 96cda4380aa0cc748add614e7e69f874, type: 2}
    UnlockLevel: 49
  - Info: {fileID: 11400000, guid: 306ba74bdbcda314ca047e46a77e96f9, type: 2}
    UnlockLevel: 53
  - Info: {fileID: 11400000, guid: 4bd38567493f58545922f991b8f29f91, type: 2}
    UnlockLevel: 57
  Types:
  - {fileID: 11400000, guid: 59f2fca58cea2e4459ec19299719ad21, type: 2}
  - {fileID: 11400000, guid: 9034d3dd3086cdc41af1e7173855452f, type: 2}
  Health: 70
  Attack: 90
  Defense: 110
  SPAttack: 60
  SPDefense: 75
  Speed: 95
  Experience: 175
  IsShiny: 0
  Front: {fileID: 0}
  Back: {fileID: 0}
  Nature: {fileID: 0}
