%YAML 1.1
%TAG !u! tag:unity3d.com,2011:
--- !u!114 &11400000
MonoBehaviour:
  m_ObjectHideFlags: 0
  m_PrefabParentObject: {fileID: 0}
  m_PrefabInternal: {fileID: 0}
  m_GameObject: {fileID: 0}
  m_Enabled: 1
  m_EditorHideFlags: 0
  m_Script: {fileID: 11500000, guid: f7a371d3c077b734e8c6a79283f76ce1, type: 3}
  m_Name: Drilbur
  m_EditorClassIdentifier: 
  FighterIDName: DRILBUR
  FighterShowName: Drilbur
  Level: 1
  Attacks:
  - Info: {fileID: 11400000, guid: 617336879215d7c4789d9ecc335218bd, type: 2}
    UnlockLevel: 1
  - Info: {fileID: 11400000, guid: 47efa6a7107dc634289c735cfa955e72, type: 2}
    UnlockLevel: 1
  - Info: {fileID: 11400000, guid: c743836096577064082a5528b9429dfe, type: 2}
    UnlockLevel: 5
  - Info: {fileID: 11400000, guid: 8129c89ff1b66524e960913cf3688c46, type: 2}
    UnlockLevel: 8
  - Info: {fileID: 11400000, guid: cf5abc1e28d8604408c380f4e3478d91, type: 2}
    UnlockLevel: 12
  - Info: {fileID: 11400000, guid: 43d305e340d009549b5374163014532b, type: 2}
    UnlockLevel: 15
  - Info: {fileID: 11400000, guid: 240aba762d9b772449bc523256c28d3a, type: 2}
    UnlockLevel: 19
  - Info: {fileID: 11400000, guid: c3a468ccc8fc5aa4c9ac3f0cef964f3d, type: 2}
    UnlockLevel: 22
  - Info: {fileID: 11400000, guid: f431e5480eb00184790591673c2f18e3, type: 2}
    UnlockLevel: 26
  - Info: {fileID: 11400000, guid: 8c639a55a7e50e540a4c05a3b0f7c8d4, type: 2}
    UnlockLevel: 29
  - Info: {fileID: 11400000, guid: 6e868e7b2d08bf74dae70b4717f380ac, type: 2}
    UnlockLevel: 33
  - Info: {fileID: 11400000, guid: c13d046460698e9449d0e67277d874fe, type: 2}
    UnlockLevel: 36
  - Info: {fileID: 11400000, guid: c0a8c5ed8b803a244970ac14ff1144c1, type: 2}
    UnlockLevel: 40
  - Info: {fileID: 11400000, guid: aa93790af2eaeda47ae78923ec4727c1, type: 2}
    UnlockLevel: 43
  - Info: {fileID: 11400000, guid: d205f63093a5e1445883b903e5ac1aef, type: 2}
    UnlockLevel: 47
  Types:
  - {fileID: 11400000, guid: 9bce953606501074f95fb811ea470131, type: 2}
  Health: 60
  Attack: 85
  Defense: 40
  SPAttack: 30
  SPDefense: 45
  Speed: 68
  Experience: 66
  IsShiny: 0
  Front: {fileID: 0}
  Back: {fileID: 0}
  Nature: {fileID: 0}
