%YAML 1.1
%TAG !u! tag:unity3d.com,2011:
--- !u!114 &11400000
MonoBehaviour:
  m_ObjectHideFlags: 0
  m_PrefabParentObject: {fileID: 0}
  m_PrefabInternal: {fileID: 0}
  m_GameObject: {fileID: 0}
  m_Enabled: 1
  m_EditorHideFlags: 0
  m_Script: {fileID: 11500000, guid: f7a371d3c077b734e8c6a79283f76ce1, type: 3}
  m_Name: Dugtrio
  m_EditorClassIdentifier: 
  FighterIDName: DUGTRIO
  FighterShowName: Dugtrio
  Level: 1
  Attacks:
  - Info: {fileID: 11400000, guid: a39a61a68ddef564f9106a7913cc5536, type: 2}
    UnlockLevel: 1
  - Info: {fileID: 11400000, guid: 760c7ab60c563a44c8438cdaf60f447c, type: 2}
    UnlockLevel: 1
  - Info: {fileID: 11400000, guid: e52528b15d5e55a4c850ec825bca6aad, type: 2}
    UnlockLevel: 1
  - Info: {fileID: 11400000, guid: 617336879215d7c4789d9ecc335218bd, type: 2}
    UnlockLevel: 1
  - Info: {fileID: 11400000, guid: 6eab2f1a18e675c4f8d8bb28fda59603, type: 2}
    UnlockLevel: 1
  - Info: {fileID: 11400000, guid: b5f0c5fa15024ab4f887c0948f682d1c, type: 2}
    UnlockLevel: 1
  - Info: {fileID: 11400000, guid: b5f0c5fa15024ab4f887c0948f682d1c, type: 2}
    UnlockLevel: 4
  - Info: {fileID: 11400000, guid: bc077637c71f39c42b46de9a6ea9ce1f, type: 2}
    UnlockLevel: 7
  - Info: {fileID: 11400000, guid: 8129c89ff1b66524e960913cf3688c46, type: 2}
    UnlockLevel: 12
  - Info: {fileID: 11400000, guid: fbe1979b4e36f1540b300a7fe4701af2, type: 2}
    UnlockLevel: 15
  - Info: {fileID: 11400000, guid: 46ccef657aa70df4fa19e2c84452e30c, type: 2}
    UnlockLevel: 18
  - Info: {fileID: 11400000, guid: 03b3bbf99d3c9044fa94d2c23c9145cd, type: 2}
    UnlockLevel: 23
  - Info: {fileID: 11400000, guid: 9d135d3526c5f0f448681d12d11eea5f, type: 2}
    UnlockLevel: 26
  - Info: {fileID: 11400000, guid: 4f13755efd9dacf4980a885d4fe36c93, type: 2}
    UnlockLevel: 28
  - Info: {fileID: 11400000, guid: 72b2f2ad91103fa489e088ff93822cee, type: 2}
    UnlockLevel: 33
  - Info: {fileID: 11400000, guid: 240aba762d9b772449bc523256c28d3a, type: 2}
    UnlockLevel: 40
  - Info: {fileID: 11400000, guid: f431e5480eb00184790591673c2f18e3, type: 2}
    UnlockLevel: 45
  - Info: {fileID: 11400000, guid: 6e868e7b2d08bf74dae70b4717f380ac, type: 2}
    UnlockLevel: 50
  - Info: {fileID: 11400000, guid: d205f63093a5e1445883b903e5ac1aef, type: 2}
    UnlockLevel: 57
  Types:
  - {fileID: 11400000, guid: 9bce953606501074f95fb811ea470131, type: 2}
  Health: 35
  Attack: 100
  Defense: 50
  SPAttack: 50
  SPDefense: 70
  Speed: 120
  Experience: 142
  IsShiny: 0
  Front: {fileID: 0}
  Back: {fileID: 0}
  Nature: {fileID: 0}
