%YAML 1.1
%TAG !u! tag:unity3d.com,2011:
--- !u!114 &11400000
MonoBehaviour:
  m_ObjectHideFlags: 0
  m_PrefabParentObject: {fileID: 0}
  m_PrefabInternal: {fileID: 0}
  m_GameObject: {fileID: 0}
  m_Enabled: 1
  m_EditorHideFlags: 0
  m_Script: {fileID: 11500000, guid: f7a371d3c077b734e8c6a79283f76ce1, type: 3}
  m_Name: Duosion
  m_EditorClassIdentifier: 
  FighterIDName: DUOSION
  FighterShowName: Duosion
  Level: 1
  Attacks:
  - Info: {fileID: 11400000, guid: 6abe9ab13845b6a4cb8ccc1c08899a8d, type: 2}
    UnlockLevel: 1
  - Info: {fileID: 11400000, guid: ad16e83f042264642a2f22a3379ac18d, type: 2}
    UnlockLevel: 1
  - Info: {fileID: 11400000, guid: 847604257988a6f4f9e49a13ce7f2a69, type: 2}
    UnlockLevel: 1
  - Info: {fileID: 11400000, guid: c2a326be5e8a3864bbc3b595cc0410e1, type: 2}
    UnlockLevel: 1
  - Info: {fileID: 11400000, guid: ad16e83f042264642a2f22a3379ac18d, type: 2}
    UnlockLevel: 3
  - Info: {fileID: 11400000, guid: 847604257988a6f4f9e49a13ce7f2a69, type: 2}
    UnlockLevel: 7
  - Info: {fileID: 11400000, guid: c2a326be5e8a3864bbc3b595cc0410e1, type: 2}
    UnlockLevel: 10
  - Info: {fileID: 11400000, guid: d22654c189b4f9c4892649c47e11bba9, type: 2}
    UnlockLevel: 14
  - Info: {fileID: 11400000, guid: ac6daa9c5a01d4949b2fb9a67a0bd190, type: 2}
    UnlockLevel: 16
  - Info: {fileID: 11400000, guid: 5a9e071dd6a4c9842826114be48624d2, type: 2}
    UnlockLevel: 19
  - Info: {fileID: 11400000, guid: 9826ff173c489e24385a61d4da65082f, type: 2}
    UnlockLevel: 24
  - Info: {fileID: 11400000, guid: daa7cdcd3b0aec84ca1a5cb819de846e, type: 2}
    UnlockLevel: 25
  - Info: {fileID: 11400000, guid: fda2eb59fc5bee44e808bdaed4ca69fc, type: 2}
    UnlockLevel: 28
  - Info: {fileID: 11400000, guid: c562a55de5b57e841939caac7c276ddb, type: 2}
    UnlockLevel: 31
  - Info: {fileID: 11400000, guid: 8b97b5e1f1a407943a4fa7c8fb8c79d2, type: 2}
    UnlockLevel: 34
  - Info: {fileID: 11400000, guid: fb7b7fe6af6cb964ea0e6e9b932b389c, type: 2}
    UnlockLevel: 39
  - Info: {fileID: 11400000, guid: 892dbca1ba08d014da293aed47c468fd, type: 2}
    UnlockLevel: 43
  - Info: {fileID: 11400000, guid: fbe100b24b37bdb4ca2c15dfa57d7eee, type: 2}
    UnlockLevel: 50
  - Info: {fileID: 11400000, guid: 161c55ace2f2a714ea57089b66de63c3, type: 2}
    UnlockLevel: 53
  Types:
  - {fileID: 11400000, guid: 6ab104ed0fffb2949b3b296c5c7eb603, type: 2}
  Health: 65
  Attack: 40
  Defense: 50
  SPAttack: 125
  SPDefense: 60
  Speed: 30
  Experience: 130
  IsShiny: 0
  Front: {fileID: 0}
  Back: {fileID: 0}
  Nature: {fileID: 0}
