%YAML 1.1
%TAG !u! tag:unity3d.com,2011:
--- !u!114 &11400000
MonoBehaviour:
  m_ObjectHideFlags: 0
  m_PrefabParentObject: {fileID: 0}
  m_PrefabInternal: {fileID: 0}
  m_GameObject: {fileID: 0}
  m_Enabled: 1
  m_EditorHideFlags: 0
  m_Script: {fileID: 11500000, guid: f7a371d3c077b734e8c6a79283f76ce1, type: 3}
  m_Name: Electalry
  m_EditorClassIdentifier: 
  FighterIDName: ELECTALRY
  FighterShowName: Electalry
  Level: 1
  Attacks:
  - Info: {fileID: 11400000, guid: 07abe9e26f3f5d947a0987a002f8c813, type: 2}
    UnlockLevel: 1
  - Info: {fileID: 11400000, guid: fbbf1f1988f10bf41830d1001347a9cd, type: 2}
    UnlockLevel: 1
  - Info: {fileID: 11400000, guid: d475225e804817944a05186d24b1763d, type: 2}
    UnlockLevel: 8
  - Info: {fileID: 11400000, guid: bd8cc3d843f116b42867beec6fd15f2e, type: 2}
    UnlockLevel: 11
  - Info: {fileID: 11400000, guid: 9997a858cb2c5494db807406f3e0136f, type: 2}
    UnlockLevel: 14
  - Info: {fileID: 11400000, guid: c1e05e7ff24674b4c8cd6e8d04f182b5, type: 2}
    UnlockLevel: 17
  - Info: {fileID: 11400000, guid: 08c60fe3d93c6d04c9f9d6ae0089cefc, type: 2}
    UnlockLevel: 20
  - Info: {fileID: 11400000, guid: 4be843e87a210b74ba9e6bbbb8c36dc8, type: 2}
    UnlockLevel: 23
  - Info: {fileID: 11400000, guid: 7f3034724ec331947af6a1d0bcd1e9a7, type: 2}
    UnlockLevel: 26
  - Info: {fileID: 11400000, guid: abf311c9f8da9bd4180f7fa9e71c2926, type: 2}
    UnlockLevel: 29
  - Info: {fileID: 11400000, guid: 51ecf903005b91e4fbac7168e1be41c4, type: 2}
    UnlockLevel: 33
  - Info: {fileID: 11400000, guid: aac6ac945a8f5e247b882440941a9440, type: 2}
    UnlockLevel: 37
  - Info: {fileID: 11400000, guid: ffdb8aed3df87a041a843278db837b9d, type: 2}
    UnlockLevel: 41
  - Info: {fileID: 11400000, guid: 1204eb5fc4cc06c47ab1d2ee814bcda8, type: 2}
    UnlockLevel: 45
  - Info: {fileID: 11400000, guid: e52528b15d5e55a4c850ec825bca6aad, type: 2}
    UnlockLevel: 50
  - Info: {fileID: 11400000, guid: 36a88772c7ca48a4d9cebca23167e24c, type: 2}
    UnlockLevel: 55
  Types:
  - {fileID: 11400000, guid: eb1f61bfedf02c847ac8f80212573502, type: 2}
  - {fileID: 11400000, guid: f70898c0189222a4091ee9f0c6037fe5, type: 2}
  Health: 75
  Attack: 55
  Defense: 120
  SPAttack: 120
  SPDefense: 75
  Speed: 55
  Experience: 90
  IsShiny: 0
  Front: {fileID: 0}
  Back: {fileID: 0}
  Nature: {fileID: 0}
