%YAML 1.1
%TAG !u! tag:unity3d.com,2011:
--- !u!114 &11400000
MonoBehaviour:
  m_ObjectHideFlags: 0
  m_PrefabParentObject: {fileID: 0}
  m_PrefabInternal: {fileID: 0}
  m_GameObject: {fileID: 0}
  m_Enabled: 1
  m_EditorHideFlags: 0
  m_Script: {fileID: 11500000, guid: f7a371d3c077b734e8c6a79283f76ce1, type: 3}
  m_Name: Elystal
  m_EditorClassIdentifier: 
  FighterIDName: ELYSTAL
  FighterShowName: Elystal
  Level: 1
  Attacks:
  - Info: {fileID: 11400000, guid: 07abe9e26f3f5d947a0987a002f8c813, type: 2}
    UnlockLevel: 1
  - Info: {fileID: 11400000, guid: 624bb10375fc74e439e9e39bd6b4cd0f, type: 2}
    UnlockLevel: 1
  - Info: {fileID: 11400000, guid: fbbf1f1988f10bf41830d1001347a9cd, type: 2}
    UnlockLevel: 7
  - Info: {fileID: 11400000, guid: 2684866907368d747a8cf43b903709cc, type: 2}
    UnlockLevel: 10
  - Info: {fileID: 11400000, guid: b9b53e6f7525a0048bad44d6222fab82, type: 2}
    UnlockLevel: 13
  - Info: {fileID: 11400000, guid: 91fdaea39a22d2447a5cb11f98fe32b9, type: 2}
    UnlockLevel: 16
  - Info: {fileID: 11400000, guid: d847b53bf3e87ba4c9a36c55cea60aef, type: 2}
    UnlockLevel: 19
  - Info: {fileID: 11400000, guid: 90a8665de1fe69f45a7ab49c2c6d4092, type: 2}
    UnlockLevel: 22
  - Info: {fileID: 11400000, guid: fa53d08e8aaafed468febc6fba3fa794, type: 2}
    UnlockLevel: 26
  - Info: {fileID: 11400000, guid: 1204eb5fc4cc06c47ab1d2ee814bcda8, type: 2}
    UnlockLevel: 30
  - Info: {fileID: 11400000, guid: 82a23c9108da75d409ad644443c4fe7e, type: 2}
    UnlockLevel: 34
  - Info: {fileID: 11400000, guid: 41fe68d79e2a5ee4fbd5000ebbd19f51, type: 2}
    UnlockLevel: 38
  - Info: {fileID: 11400000, guid: e8b39628738ded94d9c10efd473e3d33, type: 2}
    UnlockLevel: 43
  - Info: {fileID: 11400000, guid: 41ef57400d234894fbeccf4bf82d02f1, type: 2}
    UnlockLevel: 48
  - Info: {fileID: 11400000, guid: 028371f4a74389c4bbfe79008bf38879, type: 2}
    UnlockLevel: 53
  - Info: {fileID: 11400000, guid: ffdb8aed3df87a041a843278db837b9d, type: 2}
    UnlockLevel: 58
  Types:
  - {fileID: 11400000, guid: d5e8e99b7eae6e14e916633b02b73558, type: 2}
  - {fileID: 11400000, guid: eb1f61bfedf02c847ac8f80212573502, type: 2}
  Health: 60
  Attack: 30
  Defense: 45
  SPAttack: 85
  SPDefense: 70
  Speed: 20
  Experience: 70
  IsShiny: 0
  Front: {fileID: 0}
  Back: {fileID: 0}
  Nature: {fileID: 0}
