%YAML 1.1
%TAG !u! tag:unity3d.com,2011:
--- !u!114 &11400000
MonoBehaviour:
  m_ObjectHideFlags: 0
  m_PrefabParentObject: {fileID: 0}
  m_PrefabInternal: {fileID: 0}
  m_GameObject: {fileID: 0}
  m_Enabled: 1
  m_EditorHideFlags: 0
  m_Script: {fileID: 11500000, guid: f7a371d3c077b734e8c6a79283f76ce1, type: 3}
  m_Name: Exeggutor
  m_EditorClassIdentifier: 
  FighterIDName: EXEGGUTOR
  FighterShowName: Exeggutor
  Level: 1
  Attacks:
  - Info: {fileID: 11400000, guid: 98599bbb42935ae4abc241fa014f11cb, type: 2}
    UnlockLevel: 1
  - Info: {fileID: 11400000, guid: 1fe3d229a9fb0ac43bd4acc63b40f135, type: 2}
    UnlockLevel: 1
  - Info: {fileID: 11400000, guid: 2af2f53b70656584aa9bc8719435fe6b, type: 2}
    UnlockLevel: 1
  - Info: {fileID: 11400000, guid: a2f353ca478a3ab409ab868c224dc481, type: 2}
    UnlockLevel: 1
  - Info: {fileID: 11400000, guid: 01bc17fd70695054ba4c8b7a915ad2cb, type: 2}
    UnlockLevel: 1
  - Info: {fileID: 11400000, guid: daa7cdcd3b0aec84ca1a5cb819de846e, type: 2}
    UnlockLevel: 17
  - Info: {fileID: 11400000, guid: 1c17fd823f6ba224a9b034f94c017390, type: 2}
    UnlockLevel: 27
  - Info: {fileID: 11400000, guid: 3319493917416144a8d2133390b91235, type: 2}
    UnlockLevel: 37
  - Info: {fileID: 11400000, guid: 7619cc947695090439b6d8ef1c177795, type: 2}
    UnlockLevel: 47
  Types:
  - {fileID: 11400000, guid: 9013aa9c388209e498c7cc40001c20b9, type: 2}
  - {fileID: 11400000, guid: 6ab104ed0fffb2949b3b296c5c7eb603, type: 2}
  Health: 95
  Attack: 95
  Defense: 85
  SPAttack: 125
  SPDefense: 75
  Speed: 55
  Experience: 182
  IsShiny: 0
  Front: {fileID: 0}
  Back: {fileID: 0}
  Nature: {fileID: 0}
