%YAML 1.1
%TAG !u! tag:unity3d.com,2011:
--- !u!114 &11400000
MonoBehaviour:
  m_ObjectHideFlags: 0
  m_PrefabParentObject: {fileID: 0}
  m_PrefabInternal: {fileID: 0}
  m_GameObject: {fileID: 0}
  m_Enabled: 1
  m_EditorHideFlags: 0
  m_Script: {fileID: 11500000, guid: f7a371d3c077b734e8c6a79283f76ce1, type: 3}
  m_Name: Floette
  m_EditorClassIdentifier: 
  FighterIDName: FLOETTE
  FighterShowName: Floette
  Level: 1
  Attacks:
  - Info: {fileID: 11400000, guid: f2eafcc30bd3f47418faaca7f81f0ad2, type: 2}
    UnlockLevel: 1
  - Info: {fileID: 11400000, guid: 85cd5625801a7b04a91603d852adf3f8, type: 2}
    UnlockLevel: 1
  - Info: {fileID: 11400000, guid: df3e27159641382499f177aaf98ecd1d, type: 2}
    UnlockLevel: 6
  - Info: {fileID: 11400000, guid: 9b9397f6a83f9eb498534660a9ec27fa, type: 2}
    UnlockLevel: 10
  - Info: {fileID: 11400000, guid: 26e96eeecdd6eef44bd58a4ce436d67d, type: 2}
    UnlockLevel: 15
  - Info: {fileID: 11400000, guid: a501fabf27ed09f4d97df3b5a3361f42, type: 2}
    UnlockLevel: 20
  - Info: {fileID: 11400000, guid: 1c7ea99f3fb29dd49986cdb06b6f8562, type: 2}
    UnlockLevel: 25
  - Info: {fileID: 11400000, guid: 9ca624c53051f6e41b3070f02ba23d96, type: 2}
    UnlockLevel: 27
  - Info: {fileID: 11400000, guid: dfcd4052b2ea5b94fbabc2d3fe6a0076, type: 2}
    UnlockLevel: 33
  - Info: {fileID: 11400000, guid: 09bbbc5be2cbda24c95f243e40208a71, type: 2}
    UnlockLevel: 38
  - Info: {fileID: 11400000, guid: 650e44288e6d5e349a33558e541cc14b, type: 2}
    UnlockLevel: 43
  - Info: {fileID: 11400000, guid: 5c950bd5ad7678d4892a0408ab45a3b7, type: 2}
    UnlockLevel: 46
  - Info: {fileID: 11400000, guid: 0b07a0f1e4018a241954d73c3912c161, type: 2}
    UnlockLevel: 51
  - Info: {fileID: 11400000, guid: ec10853d60102274db7543ce21f38b4c, type: 2}
    UnlockLevel: 58
  Types:
  - {fileID: 11400000, guid: 57d5c332bc212a047a73d3810bd3f7cb, type: 2}
  Health: 54
  Attack: 45
  Defense: 47
  SPAttack: 75
  SPDefense: 98
  Speed: 52
  Experience: 142
  IsShiny: 0
  Front: {fileID: 0}
  Back: {fileID: 0}
  Nature: {fileID: 0}
