%YAML 1.1
%TAG !u! tag:unity3d.com,2011:
--- !u!114 &11400000
MonoBehaviour:
  m_ObjectHideFlags: 0
  m_PrefabParentObject: {fileID: 0}
  m_PrefabInternal: {fileID: 0}
  m_GameObject: {fileID: 0}
  m_Enabled: 1
  m_EditorHideFlags: 0
  m_Script: {fileID: 11500000, guid: f7a371d3c077b734e8c6a79283f76ce1, type: 3}
  m_Name: Genesect
  m_EditorClassIdentifier: 
  FighterIDName: GENESECT
  FighterShowName: Genesect
  Level: 1
  Attacks:
  - Info: {fileID: 11400000, guid: 306ba74bdbcda314ca047e46a77e96f9, type: 2}
    UnlockLevel: 1
  - Info: {fileID: 11400000, guid: f4921a66c36b72d4182cc1aece606018, type: 2}
    UnlockLevel: 1
  - Info: {fileID: 11400000, guid: 3f22a5e8b79f95d4791e16260dfea1bf, type: 2}
    UnlockLevel: 1
  - Info: {fileID: 11400000, guid: 3a16caf8f57bd2348aa36fb0f36c1aff, type: 2}
    UnlockLevel: 1
  - Info: {fileID: 11400000, guid: 43d305e340d009549b5374163014532b, type: 2}
    UnlockLevel: 1
  - Info: {fileID: 11400000, guid: 7f3ca70281d87284d9f41c54d620cc36, type: 2}
    UnlockLevel: 1
  - Info: {fileID: 11400000, guid: 06cf5ef60e19e88418a5936bf3cb78f1, type: 2}
    UnlockLevel: 7
  - Info: {fileID: 11400000, guid: 7c22ff5beb1d0ce4cb256ae812e028dc, type: 2}
    UnlockLevel: 11
  - Info: {fileID: 11400000, guid: bb7c5465603f4534f8b6e21405df26e4, type: 2}
    UnlockLevel: 18
  - Info: {fileID: 11400000, guid: b269dc95bd2a72e4f8f932f216f0f977, type: 2}
    UnlockLevel: 22
  - Info: {fileID: 11400000, guid: f431e5480eb00184790591673c2f18e3, type: 2}
    UnlockLevel: 29
  - Info: {fileID: 11400000, guid: d2c098d5952df4347bb8371ad6b1433d, type: 2}
    UnlockLevel: 33
  - Info: {fileID: 11400000, guid: 996c745730cde6f40811a4121293194a, type: 2}
    UnlockLevel: 40
  - Info: {fileID: 11400000, guid: e52528b15d5e55a4c850ec825bca6aad, type: 2}
    UnlockLevel: 44
  - Info: {fileID: 11400000, guid: 50537587665f6594f80bf0fccab8f1fe, type: 2}
    UnlockLevel: 51
  - Info: {fileID: 11400000, guid: 3eba455177a634e43ae5519f840abb6b, type: 2}
    UnlockLevel: 55
  - Info: {fileID: 11400000, guid: 1478575d28073504b9ccc4337e7b386c, type: 2}
    UnlockLevel: 62
  - Info: {fileID: 11400000, guid: b8c54a5565d8a9b469f804dbb641299b, type: 2}
    UnlockLevel: 66
  - Info: {fileID: 11400000, guid: da0a4d7e5178daf4d81f7439f2af6bea, type: 2}
    UnlockLevel: 73
  - Info: {fileID: 11400000, guid: 9f7417919642e134294c500ade397110, type: 2}
    UnlockLevel: 77
  Types:
  - {fileID: 11400000, guid: 0f07cb8f52a4e464fa188043a8de5605, type: 2}
  - {fileID: 11400000, guid: 937a21aa05fa8254283297d7a575da5c, type: 2}
  Health: 71
  Attack: 120
  Defense: 95
  SPAttack: 120
  SPDefense: 95
  Speed: 99
  Experience: 14
  IsShiny: 0
  Front: {fileID: 0}
  Back: {fileID: 0}
  Nature: {fileID: 0}
