%YAML 1.1
%TAG !u! tag:unity3d.com,2011:
--- !u!114 &11400000
MonoBehaviour:
  m_ObjectHideFlags: 0
  m_PrefabParentObject: {fileID: 0}
  m_PrefabInternal: {fileID: 0}
  m_GameObject: {fileID: 0}
  m_Enabled: 1
  m_EditorHideFlags: 0
  m_Script: {fileID: 11500000, guid: f7a371d3c077b734e8c6a79283f76ce1, type: 3}
  m_Name: Gliscor
  m_EditorClassIdentifier: 
  FighterIDName: GLISCOR
  FighterShowName: Gliscor
  Level: 1
  Attacks:
  - Info: {fileID: 11400000, guid: ca01dce041bc8be4388de60089b1933c, type: 2}
    UnlockLevel: 1
  - Info: {fileID: 11400000, guid: b5cb2411209bd0f48abab70e355b829e, type: 2}
    UnlockLevel: 1
  - Info: {fileID: 11400000, guid: c066bed003ca19b4297618a3bdcf500e, type: 2}
    UnlockLevel: 1
  - Info: {fileID: 11400000, guid: 3922935ef5fc05c49ae3c99ce6b70bf7, type: 2}
    UnlockLevel: 1
  - Info: {fileID: 11400000, guid: d016d087343ec804eaffb31b88e20c8f, type: 2}
    UnlockLevel: 1
  - Info: {fileID: 11400000, guid: 6eab2f1a18e675c4f8d8bb28fda59603, type: 2}
    UnlockLevel: 1
  - Info: {fileID: 11400000, guid: 624bb10375fc74e439e9e39bd6b4cd0f, type: 2}
    UnlockLevel: 1
  - Info: {fileID: 11400000, guid: fc856e4c06e76414ea716c2eea2fb4fd, type: 2}
    UnlockLevel: 1
  - Info: {fileID: 11400000, guid: 6eab2f1a18e675c4f8d8bb28fda59603, type: 2}
    UnlockLevel: 4
  - Info: {fileID: 11400000, guid: 624bb10375fc74e439e9e39bd6b4cd0f, type: 2}
    UnlockLevel: 7
  - Info: {fileID: 11400000, guid: fc856e4c06e76414ea716c2eea2fb4fd, type: 2}
    UnlockLevel: 10
  - Info: {fileID: 11400000, guid: 3f22a5e8b79f95d4791e16260dfea1bf, type: 2}
    UnlockLevel: 13
  - Info: {fileID: 11400000, guid: 06cf5ef60e19e88418a5936bf3cb78f1, type: 2}
    UnlockLevel: 16
  - Info: {fileID: 11400000, guid: f4aea1b9c7ff7d64da97d8e765f743df, type: 2}
    UnlockLevel: 19
  - Info: {fileID: 11400000, guid: f055271202a75ea458d50c9139480c4f, type: 2}
    UnlockLevel: 22
  - Info: {fileID: 11400000, guid: 760c7ab60c563a44c8438cdaf60f447c, type: 2}
    UnlockLevel: 27
  - Info: {fileID: 11400000, guid: fa1aff8d905796d468d89d6c6fd2cc9e, type: 2}
    UnlockLevel: 30
  - Info: {fileID: 11400000, guid: 7f3ca70281d87284d9f41c54d620cc36, type: 2}
    UnlockLevel: 35
  - Info: {fileID: 11400000, guid: 50537587665f6594f80bf0fccab8f1fe, type: 2}
    UnlockLevel: 40
  - Info: {fileID: 11400000, guid: 222c67cc52874604e957a3b1968eaf06, type: 2}
    UnlockLevel: 45
  - Info: {fileID: 11400000, guid: c13d046460698e9449d0e67277d874fe, type: 2}
    UnlockLevel: 50
  - Info: {fileID: 11400000, guid: ca01dce041bc8be4388de60089b1933c, type: 2}
    UnlockLevel: 55
  Types:
  - {fileID: 11400000, guid: 9bce953606501074f95fb811ea470131, type: 2}
  - {fileID: 11400000, guid: 0973b6dbda6985f49a4dacdef07c9047, type: 2}
  Health: 75
  Attack: 95
  Defense: 125
  SPAttack: 45
  SPDefense: 75
  Speed: 95
  Experience: 179
  IsShiny: 0
  Front: {fileID: 0}
  Back: {fileID: 0}
  Nature: {fileID: 0}
