%YAML 1.1
%TAG !u! tag:unity3d.com,2011:
--- !u!114 &11400000
MonoBehaviour:
  m_ObjectHideFlags: 0
  m_PrefabParentObject: {fileID: 0}
  m_PrefabInternal: {fileID: 0}
  m_GameObject: {fileID: 0}
  m_Enabled: 1
  m_EditorHideFlags: 0
  m_Script: {fileID: 11500000, guid: f7a371d3c077b734e8c6a79283f76ce1, type: 3}
  m_Name: Golbat
  m_EditorClassIdentifier: 
  FighterIDName: GOLBAT
  FighterShowName: Golbat
  Level: 1
  Attacks:
  - Info: {fileID: 11400000, guid: 7f3ca70281d87284d9f41c54d620cc36, type: 2}
    UnlockLevel: 1
  - Info: {fileID: 11400000, guid: 3972a483fdfd9c14db6c59d54d696618, type: 2}
    UnlockLevel: 1
  - Info: {fileID: 11400000, guid: 01f80047b83f7154a918473a8634b266, type: 2}
    UnlockLevel: 1
  - Info: {fileID: 11400000, guid: bc077637c71f39c42b46de9a6ea9ce1f, type: 2}
    UnlockLevel: 1
  - Info: {fileID: 11400000, guid: 78d6565e4587cf546a56fccf771a17f2, type: 2}
    UnlockLevel: 1
  - Info: {fileID: 11400000, guid: 01f80047b83f7154a918473a8634b266, type: 2}
    UnlockLevel: 5
  - Info: {fileID: 11400000, guid: bc077637c71f39c42b46de9a6ea9ce1f, type: 2}
    UnlockLevel: 7
  - Info: {fileID: 11400000, guid: 78d6565e4587cf546a56fccf771a17f2, type: 2}
    UnlockLevel: 11
  - Info: {fileID: 11400000, guid: 29a966ad6d12b734ab3d9305c90ab321, type: 2}
    UnlockLevel: 13
  - Info: {fileID: 11400000, guid: 9a89875c161a90c42a05fd50718af534, type: 2}
    UnlockLevel: 17
  - Info: {fileID: 11400000, guid: be186cb0cecc436499b7819f638c25ff, type: 2}
    UnlockLevel: 19
  - Info: {fileID: 11400000, guid: 1b37625e5b522f543adcfba6cb99ea13, type: 2}
    UnlockLevel: 24
  - Info: {fileID: 11400000, guid: 9f3bcf332ff853a44943596445c25e31, type: 2}
    UnlockLevel: 27
  - Info: {fileID: 11400000, guid: 6f8e0fb8063fcff499e0491757402159, type: 2}
    UnlockLevel: 32
  - Info: {fileID: 11400000, guid: f055271202a75ea458d50c9139480c4f, type: 2}
    UnlockLevel: 35
  - Info: {fileID: 11400000, guid: 2b783edb940338845b69819bde3bb28a, type: 2}
    UnlockLevel: 40
  - Info: {fileID: 11400000, guid: c93e916ac1f2e1841af4544d8191af94, type: 2}
    UnlockLevel: 43
  - Info: {fileID: 11400000, guid: 3e63cc0a05a1b3849879f10e7fe6683c, type: 2}
    UnlockLevel: 48
  - Info: {fileID: 11400000, guid: dc1ff5f5fce920a4199924d0835c0584, type: 2}
    UnlockLevel: 51
  Types:
  - {fileID: 11400000, guid: 59f2fca58cea2e4459ec19299719ad21, type: 2}
  - {fileID: 11400000, guid: 0973b6dbda6985f49a4dacdef07c9047, type: 2}
  Health: 75
  Attack: 80
  Defense: 70
  SPAttack: 65
  SPDefense: 75
  Speed: 90
  Experience: 159
  IsShiny: 0
  Front: {fileID: 0}
  Back: {fileID: 0}
  Nature: {fileID: 0}
