%YAML 1.1
%TAG !u! tag:unity3d.com,2011:
--- !u!114 &11400000
MonoBehaviour:
  m_ObjectHideFlags: 0
  m_PrefabParentObject: {fileID: 0}
  m_PrefabInternal: {fileID: 0}
  m_GameObject: {fileID: 0}
  m_Enabled: 1
  m_EditorHideFlags: 0
  m_Script: {fileID: 11500000, guid: f7a371d3c077b734e8c6a79283f76ce1, type: 3}
  m_Name: Goodra
  m_EditorClassIdentifier: 
  FighterIDName: GOODRA
  FighterShowName: Goodra
  Level: 1
  Attacks:
  - Info: {fileID: 11400000, guid: 534a5895d1d360547b23e6790fff91ef, type: 2}
    UnlockLevel: 1
  - Info: {fileID: 11400000, guid: 53d997675664cef4397cd6882c316c9f, type: 2}
    UnlockLevel: 1
  - Info: {fileID: 11400000, guid: f2eafcc30bd3f47418faaca7f81f0ad2, type: 2}
    UnlockLevel: 1
  - Info: {fileID: 11400000, guid: 13de6f2a10560bc4eb3b08553d811b66, type: 2}
    UnlockLevel: 1
  - Info: {fileID: 11400000, guid: 5a91db60a93684b49808e3f388382a57, type: 2}
    UnlockLevel: 5
  - Info: {fileID: 11400000, guid: d04276be4bd800c46aba359a8062fc4c, type: 2}
    UnlockLevel: 9
  - Info: {fileID: 11400000, guid: 34bbaf062002eac41b3fc44e81e80d9e, type: 2}
    UnlockLevel: 13
  - Info: {fileID: 11400000, guid: 936aaf852c9b190499471814e171709a, type: 2}
    UnlockLevel: 18
  - Info: {fileID: 11400000, guid: 68fb658e6a249404b925505fd4842034, type: 2}
    UnlockLevel: 25
  - Info: {fileID: 11400000, guid: 7f8f41d987e8f4049925abea1e720837, type: 2}
    UnlockLevel: 28
  - Info: {fileID: 11400000, guid: 0cce87ed7f79d694ca8c0b8ef3b46b8c, type: 2}
    UnlockLevel: 32
  - Info: {fileID: 11400000, guid: b386253ed8ff41e4897b033c7937589c, type: 2}
    UnlockLevel: 38
  - Info: {fileID: 11400000, guid: e683d916313124f4892999bbb3a3d7fa, type: 2}
    UnlockLevel: 47
  - Info: {fileID: 11400000, guid: aa7cf8e261f912349962c8f1b70ef99e, type: 2}
    UnlockLevel: 50
  - Info: {fileID: 11400000, guid: 5fbac050da2cd4f4a888d5e6220acf77, type: 2}
    UnlockLevel: 55
  - Info: {fileID: 11400000, guid: 534a5895d1d360547b23e6790fff91ef, type: 2}
    UnlockLevel: 63
  Types:
  - {fileID: 11400000, guid: cf3c2b8d4f9e9024eb1fd88942a18bf9, type: 2}
  Health: 90
  Attack: 100
  Defense: 70
  SPAttack: 110
  SPDefense: 150
  Speed: 80
  Experience: 270
  IsShiny: 0
  Front: {fileID: 0}
  Back: {fileID: 0}
  Nature: {fileID: 0}
