%YAML 1.1
%TAG !u! tag:unity3d.com,2011:
--- !u!114 &11400000
MonoBehaviour:
  m_ObjectHideFlags: 0
  m_PrefabParentObject: {fileID: 0}
  m_PrefabInternal: {fileID: 0}
  m_GameObject: {fileID: 0}
  m_Enabled: 1
  m_EditorHideFlags: 0
  m_Script: {fileID: 11500000, guid: f7a371d3c077b734e8c6a79283f76ce1, type: 3}
  m_Name: Hariyama
  m_EditorClassIdentifier: 
  FighterIDName: HARIYAMA
  FighterShowName: Hariyama
  Level: 1
  Attacks:
  - Info: {fileID: 11400000, guid: af8b5056fadcd39429232050c9dad5d0, type: 2}
    UnlockLevel: 1
  - Info: {fileID: 11400000, guid: f2eafcc30bd3f47418faaca7f81f0ad2, type: 2}
    UnlockLevel: 1
  - Info: {fileID: 11400000, guid: 08c60fe3d93c6d04c9f9d6ae0089cefc, type: 2}
    UnlockLevel: 1
  - Info: {fileID: 11400000, guid: 6eab2f1a18e675c4f8d8bb28fda59603, type: 2}
    UnlockLevel: 1
  - Info: {fileID: 11400000, guid: 1347ba356173f9043a896b2d747f7b57, type: 2}
    UnlockLevel: 1
  - Info: {fileID: 11400000, guid: 6eab2f1a18e675c4f8d8bb28fda59603, type: 2}
    UnlockLevel: 4
  - Info: {fileID: 11400000, guid: 1347ba356173f9043a896b2d747f7b57, type: 2}
    UnlockLevel: 7
  - Info: {fileID: 11400000, guid: 317b3372a2e3e4a43aed106c8f82e517, type: 2}
    UnlockLevel: 10
  - Info: {fileID: 11400000, guid: b10257dd00e48af4d8d9690fadd73c94, type: 2}
    UnlockLevel: 13
  - Info: {fileID: 11400000, guid: c3408aedc7cf2ee4ab4efe7434ce8211, type: 2}
    UnlockLevel: 16
  - Info: {fileID: 11400000, guid: fc856e4c06e76414ea716c2eea2fb4fd, type: 2}
    UnlockLevel: 19
  - Info: {fileID: 11400000, guid: 047932a3f2c82fe49a0e565f0c3b9199, type: 2}
    UnlockLevel: 22
  - Info: {fileID: 11400000, guid: 9e11d355d2dd3cd43a5c280a5b7408d6, type: 2}
    UnlockLevel: 26
  - Info: {fileID: 11400000, guid: 653d726be64c7b04e802bc756ea51e5e, type: 2}
    UnlockLevel: 30
  - Info: {fileID: 11400000, guid: d243fbaf11c3a8344acecba0fd1a72ba, type: 2}
    UnlockLevel: 34
  - Info: {fileID: 11400000, guid: a4138997270927a4fab10bb5575c480e, type: 2}
    UnlockLevel: 38
  - Info: {fileID: 11400000, guid: 4742cdee267eae445bb554a6fcd648c9, type: 2}
    UnlockLevel: 42
  - Info: {fileID: 11400000, guid: 41dd270ed2b6b2c45bd57873bdffbb71, type: 2}
    UnlockLevel: 46
  - Info: {fileID: 11400000, guid: e3854331a8c010344a9ae427629705f2, type: 2}
    UnlockLevel: 50
  - Info: {fileID: 11400000, guid: 133544841a2f2f446b7c21c95c336c03, type: 2}
    UnlockLevel: 54
  Types:
  - {fileID: 11400000, guid: f70898c0189222a4091ee9f0c6037fe5, type: 2}
  Health: 144
  Attack: 120
  Defense: 60
  SPAttack: 40
  SPDefense: 60
  Speed: 50
  Experience: 166
  IsShiny: 0
  Front: {fileID: 0}
  Back: {fileID: 0}
  Nature: {fileID: 0}
