%YAML 1.1
%TAG !u! tag:unity3d.com,2011:
--- !u!114 &11400000
MonoBehaviour:
  m_ObjectHideFlags: 0
  m_PrefabParentObject: {fileID: 0}
  m_PrefabInternal: {fileID: 0}
  m_GameObject: {fileID: 0}
  m_Enabled: 1
  m_EditorHideFlags: 0
  m_Script: {fileID: 11500000, guid: f7a371d3c077b734e8c6a79283f76ce1, type: 3}
  m_Name: Heatran
  m_EditorClassIdentifier: 
  FighterIDName: HEATRAN
  FighterShowName: Heatran
  Level: 1
  Attacks:
  - Info: {fileID: 11400000, guid: 6fdf16c2293b83a44b0b829560255230, type: 2}
    UnlockLevel: 1
  - Info: {fileID: 11400000, guid: e21478649702a1c4fa71373c3b1c3eb4, type: 2}
    UnlockLevel: 1
  - Info: {fileID: 11400000, guid: 72b2f2ad91103fa489e088ff93822cee, type: 2}
    UnlockLevel: 1
  - Info: {fileID: 11400000, guid: e59fbb56c445ac64c9b1dfb8e121b5de, type: 2}
    UnlockLevel: 1
  - Info: {fileID: 11400000, guid: ee37fc9e57a85bb479a4ec19717d29e7, type: 2}
    UnlockLevel: 1
  - Info: {fileID: 11400000, guid: ca6c940bfb9054b40b65235800b926f4, type: 2}
    UnlockLevel: 1
  - Info: {fileID: 11400000, guid: ff9a619b72c64b34bbd0e7cd74afda71, type: 2}
    UnlockLevel: 9
  - Info: {fileID: 11400000, guid: 3922935ef5fc05c49ae3c99ce6b70bf7, type: 2}
    UnlockLevel: 17
  - Info: {fileID: 11400000, guid: d2c098d5952df4347bb8371ad6b1433d, type: 2}
    UnlockLevel: 25
  - Info: {fileID: 11400000, guid: 96cda4380aa0cc748add614e7e69f874, type: 2}
    UnlockLevel: 33
  - Info: {fileID: 11400000, guid: 9dff449eb4e23724c8fac7e303e86fb7, type: 2}
    UnlockLevel: 41
  - Info: {fileID: 11400000, guid: 1c70ebcf4e7ceee4390094714432c949, type: 2}
    UnlockLevel: 49
  - Info: {fileID: 11400000, guid: ee37fc9e57a85bb479a4ec19717d29e7, type: 2}
    UnlockLevel: 57
  - Info: {fileID: 11400000, guid: e59fbb56c445ac64c9b1dfb8e121b5de, type: 2}
    UnlockLevel: 65
  - Info: {fileID: 11400000, guid: 72b2f2ad91103fa489e088ff93822cee, type: 2}
    UnlockLevel: 73
  - Info: {fileID: 11400000, guid: e21478649702a1c4fa71373c3b1c3eb4, type: 2}
    UnlockLevel: 81
  - Info: {fileID: 11400000, guid: 392b5043e1b75a8449bc29e1b814f5d6, type: 2}
    UnlockLevel: 88
  - Info: {fileID: 11400000, guid: 6fdf16c2293b83a44b0b829560255230, type: 2}
    UnlockLevel: 96
  Types:
  - {fileID: 11400000, guid: b2263d3942d9cee40b27a6d5ead1297d, type: 2}
  - {fileID: 11400000, guid: 937a21aa05fa8254283297d7a575da5c, type: 2}
  Health: 91
  Attack: 90
  Defense: 106
  SPAttack: 130
  SPDefense: 106
  Speed: 77
  Experience: 270
  IsShiny: 0
  Front: {fileID: 0}
  Back: {fileID: 0}
  Nature: {fileID: 0}
