%YAML 1.1
%TAG !u! tag:unity3d.com,2011:
--- !u!114 &11400000
MonoBehaviour:
  m_ObjectHideFlags: 0
  m_PrefabParentObject: {fileID: 0}
  m_PrefabInternal: {fileID: 0}
  m_GameObject: {fileID: 0}
  m_Enabled: 1
  m_EditorHideFlags: 0
  m_Script: {fileID: 11500000, guid: f7a371d3c077b734e8c6a79283f76ce1, type: 3}
  m_Name: Heracross
  m_EditorClassIdentifier: 
  FighterIDName: HERACROSS
  FighterShowName: Heracross
  Level: 1
  Attacks:
  - Info: {fileID: 11400000, guid: 1347ba356173f9043a896b2d747f7b57, type: 2}
    UnlockLevel: 1
  - Info: {fileID: 11400000, guid: 77f770e1ce2dd1b42ba50c4651afeb68, type: 2}
    UnlockLevel: 1
  - Info: {fileID: 11400000, guid: 760c7ab60c563a44c8438cdaf60f447c, type: 2}
    UnlockLevel: 1
  - Info: {fileID: 11400000, guid: f2eafcc30bd3f47418faaca7f81f0ad2, type: 2}
    UnlockLevel: 1
  - Info: {fileID: 11400000, guid: ff9a619b72c64b34bbd0e7cd74afda71, type: 2}
    UnlockLevel: 1
  - Info: {fileID: 11400000, guid: 384a82e660c40244881b4a891ad60576, type: 2}
    UnlockLevel: 1
  - Info: {fileID: 11400000, guid: 4742cdee267eae445bb554a6fcd648c9, type: 2}
    UnlockLevel: 1
  - Info: {fileID: 11400000, guid: 53d997675664cef4397cd6882c316c9f, type: 2}
    UnlockLevel: 7
  - Info: {fileID: 11400000, guid: c4cc27a74148229499bfeeb0b284e540, type: 2}
    UnlockLevel: 10
  - Info: {fileID: 11400000, guid: 2d074f351474345449c430890490004a, type: 2}
    UnlockLevel: 16
  - Info: {fileID: 11400000, guid: df0b0e776f7208b44935ea8f6a45bdf9, type: 2}
    UnlockLevel: 25
  - Info: {fileID: 11400000, guid: 4051c64b21bc2e747b3bb752556f2360, type: 2}
    UnlockLevel: 28
  - Info: {fileID: 11400000, guid: 3a8f071911e567e479d5b30346ad6c5c, type: 2}
    UnlockLevel: 31
  - Info: {fileID: 11400000, guid: b6405890855b9df4993647366ae6467b, type: 2}
    UnlockLevel: 34
  - Info: {fileID: 11400000, guid: 22d1eaac97d589848a28a70935739df7, type: 2}
    UnlockLevel: 37
  - Info: {fileID: 11400000, guid: 41dd270ed2b6b2c45bd57873bdffbb71, type: 2}
    UnlockLevel: 43
  - Info: {fileID: 11400000, guid: e3854331a8c010344a9ae427629705f2, type: 2}
    UnlockLevel: 46
  Types:
  - {fileID: 11400000, guid: 0f07cb8f52a4e464fa188043a8de5605, type: 2}
  - {fileID: 11400000, guid: f70898c0189222a4091ee9f0c6037fe5, type: 2}
  Health: 80
  Attack: 125
  Defense: 75
  SPAttack: 40
  SPDefense: 95
  Speed: 85
  Experience: 175
  IsShiny: 0
  Front: {fileID: 0}
  Back: {fileID: 0}
  Nature: {fileID: 0}
