%YAML 1.1
%TAG !u! tag:unity3d.com,2011:
--- !u!114 &11400000
MonoBehaviour:
  m_ObjectHideFlags: 0
  m_PrefabParentObject: {fileID: 0}
  m_PrefabInternal: {fileID: 0}
  m_GameObject: {fileID: 0}
  m_Enabled: 1
  m_EditorHideFlags: 0
  m_Script: {fileID: 11500000, guid: f7a371d3c077b734e8c6a79283f76ce1, type: 3}
  m_Name: Igglybuff
  m_EditorClassIdentifier: 
  FighterIDName: IGGLYBUFF
  FighterShowName: Igglybuff
  Level: 1
  Attacks:
  - Info: {fileID: 11400000, guid: c3c9abdec16e2ec47b690829cb5649b0, type: 2}
    UnlockLevel: 1
  - Info: {fileID: 11400000, guid: 5a9e071dd6a4c9842826114be48624d2, type: 2}
    UnlockLevel: 1
  - Info: {fileID: 11400000, guid: 9bfe42524092c6945b53a1d4fafb376f, type: 2}
    UnlockLevel: 3
  - Info: {fileID: 11400000, guid: 606c2bcb526fed143972e7c91f810132, type: 2}
    UnlockLevel: 5
  - Info: {fileID: 11400000, guid: 821a2bbe53b32a044bdc7af6861e0583, type: 2}
    UnlockLevel: 9
  - Info: {fileID: 11400000, guid: 5bdd031051f98d2429073a9a2e4b183a, type: 2}
    UnlockLevel: 11
  Types:
  - {fileID: 11400000, guid: 3e51a82ce5c89e94ba1a2824788016d3, type: 2}
  - {fileID: 11400000, guid: 57d5c332bc212a047a73d3810bd3f7cb, type: 2}
  Health: 90
  Attack: 30
  Defense: 15
  SPAttack: 40
  SPDefense: 20
  Speed: 15
  Experience: 42
  IsShiny: 0
  Front: {fileID: 0}
  Back: {fileID: 0}
  Nature: {fileID: 0}
