%YAML 1.1
%TAG !u! tag:unity3d.com,2011:
--- !u!114 &11400000
MonoBehaviour:
  m_ObjectHideFlags: 0
  m_PrefabParentObject: {fileID: 0}
  m_PrefabInternal: {fileID: 0}
  m_GameObject: {fileID: 0}
  m_Enabled: 1
  m_EditorHideFlags: 0
  m_Script: {fileID: 11500000, guid: f7a371d3c077b734e8c6a79283f76ce1, type: 3}
  m_Name: Joltik
  m_EditorClassIdentifier: 
  FighterIDName: JOLTIK
  FighterShowName: Joltik
  Level: 1
  Attacks:
  - Info: {fileID: 11400000, guid: 9a018f5c29c036c468d84ac7a5826fe5, type: 2}
    UnlockLevel: 1
  - Info: {fileID: 11400000, guid: 3972a483fdfd9c14db6c59d54d696618, type: 2}
    UnlockLevel: 1
  - Info: {fileID: 11400000, guid: 0eb5b5a27932697469dcde84d3cb337d, type: 2}
    UnlockLevel: 1
  - Info: {fileID: 11400000, guid: fbbf1f1988f10bf41830d1001347a9cd, type: 2}
    UnlockLevel: 4
  - Info: {fileID: 11400000, guid: 7f3ca70281d87284d9f41c54d620cc36, type: 2}
    UnlockLevel: 7
  - Info: {fileID: 11400000, guid: 06cf5ef60e19e88418a5936bf3cb78f1, type: 2}
    UnlockLevel: 12
  - Info: {fileID: 11400000, guid: 4dbce328cdc91ab4ab63a4d3c392d3a2, type: 2}
    UnlockLevel: 15
  - Info: {fileID: 11400000, guid: 0728a4a563798e442b112f6a45d5c079, type: 2}
    UnlockLevel: 18
  - Info: {fileID: 11400000, guid: c0b43cc67a68bcc41adac477b9b6186d, type: 2}
    UnlockLevel: 23
  - Info: {fileID: 11400000, guid: f431e5480eb00184790591673c2f18e3, type: 2}
    UnlockLevel: 26
  - Info: {fileID: 11400000, guid: 41456f78be0c2794d8bcfc3535bdf268, type: 2}
    UnlockLevel: 29
  - Info: {fileID: 11400000, guid: 996c745730cde6f40811a4121293194a, type: 2}
    UnlockLevel: 34
  - Info: {fileID: 11400000, guid: 9670989c9e32e4d41b527fcf211cb072, type: 2}
    UnlockLevel: 37
  - Info: {fileID: 11400000, guid: 03b3bbf99d3c9044fa94d2c23c9145cd, type: 2}
    UnlockLevel: 40
  - Info: {fileID: 11400000, guid: ffdb8aed3df87a041a843278db837b9d, type: 2}
    UnlockLevel: 45
  - Info: {fileID: 11400000, guid: 3eba455177a634e43ae5519f840abb6b, type: 2}
    UnlockLevel: 48
  Types:
  - {fileID: 11400000, guid: 0f07cb8f52a4e464fa188043a8de5605, type: 2}
  - {fileID: 11400000, guid: eb1f61bfedf02c847ac8f80212573502, type: 2}
  Health: 50
  Attack: 47
  Defense: 50
  SPAttack: 57
  SPDefense: 50
  Speed: 65
  Experience: 64
  IsShiny: 0
  Front: {fileID: 0}
  Back: {fileID: 0}
  Nature: {fileID: 0}
