%YAML 1.1
%TAG !u! tag:unity3d.com,2011:
--- !u!114 &11400000
MonoBehaviour:
  m_ObjectHideFlags: 0
  m_PrefabParentObject: {fileID: 0}
  m_PrefabInternal: {fileID: 0}
  m_GameObject: {fileID: 0}
  m_Enabled: 1
  m_EditorHideFlags: 0
  m_Script: {fileID: 11500000, guid: f7a371d3c077b734e8c6a79283f76ce1, type: 3}
  m_Name: Kabutops
  m_EditorClassIdentifier: 
  FighterIDName: KABUTOPS
  FighterShowName: Kabutops
  Level: 1
  Attacks:
  - Info: {fileID: 11400000, guid: 760c7ab60c563a44c8438cdaf60f447c, type: 2}
    UnlockLevel: 1
  - Info: {fileID: 11400000, guid: 53d997675664cef4397cd6882c316c9f, type: 2}
    UnlockLevel: 1
  - Info: {fileID: 11400000, guid: 617336879215d7c4789d9ecc335218bd, type: 2}
    UnlockLevel: 1
  - Info: {fileID: 11400000, guid: 624bb10375fc74e439e9e39bd6b4cd0f, type: 2}
    UnlockLevel: 1
  - Info: {fileID: 11400000, guid: 5a91db60a93684b49808e3f388382a57, type: 2}
    UnlockLevel: 1
  - Info: {fileID: 11400000, guid: ff9a619b72c64b34bbd0e7cd74afda71, type: 2}
    UnlockLevel: 1
  - Info: {fileID: 11400000, guid: 5a91db60a93684b49808e3f388382a57, type: 2}
    UnlockLevel: 6
  - Info: {fileID: 11400000, guid: ff9a619b72c64b34bbd0e7cd74afda71, type: 2}
    UnlockLevel: 11
  - Info: {fileID: 11400000, guid: 0f8d8507da587424aaf084f5d113e2ba, type: 2}
    UnlockLevel: 16
  - Info: {fileID: 11400000, guid: 6eab2f1a18e675c4f8d8bb28fda59603, type: 2}
    UnlockLevel: 21
  - Info: {fileID: 11400000, guid: 4742cdee267eae445bb554a6fcd648c9, type: 2}
    UnlockLevel: 26
  - Info: {fileID: 11400000, guid: 924aa533dc9b350418c3321cc0fd75f5, type: 2}
    UnlockLevel: 31
  - Info: {fileID: 11400000, guid: 0cc110c3a64ae8048b3617510f609261, type: 2}
    UnlockLevel: 36
  - Info: {fileID: 11400000, guid: f431e5480eb00184790591673c2f18e3, type: 2}
    UnlockLevel: 40
  - Info: {fileID: 11400000, guid: d2c098d5952df4347bb8371ad6b1433d, type: 2}
    UnlockLevel: 45
  - Info: {fileID: 11400000, guid: ca6c940bfb9054b40b65235800b926f4, type: 2}
    UnlockLevel: 54
  - Info: {fileID: 11400000, guid: 23ab76adb40106649bb1d112b5855f8c, type: 2}
    UnlockLevel: 63
  - Info: {fileID: 11400000, guid: 760c7ab60c563a44c8438cdaf60f447c, type: 2}
    UnlockLevel: 72
  Types:
  - {fileID: 11400000, guid: d5e8e99b7eae6e14e916633b02b73558, type: 2}
  - {fileID: 11400000, guid: 892e55384fa4038429488b25a0004457, type: 2}
  Health: 60
  Attack: 115
  Defense: 105
  SPAttack: 65
  SPDefense: 70
  Speed: 80
  Experience: 173
  IsShiny: 0
  Front: {fileID: 0}
  Back: {fileID: 0}
  Nature: {fileID: 0}
