%YAML 1.1
%TAG !u! tag:unity3d.com,2011:
--- !u!114 &11400000
MonoBehaviour:
  m_ObjectHideFlags: 0
  m_PrefabParentObject: {fileID: 0}
  m_PrefabInternal: {fileID: 0}
  m_GameObject: {fileID: 0}
  m_Enabled: 1
  m_EditorHideFlags: 0
  m_Script: {fileID: 11500000, guid: f7a371d3c077b734e8c6a79283f76ce1, type: 3}
  m_Name: Lamana
  m_EditorClassIdentifier: 
  FighterIDName: LAMANA
  FighterShowName: Lamana
  Level: 1
  Attacks:
  - Info: {fileID: 11400000, guid: 9997a858cb2c5494db807406f3e0136f, type: 2}
    UnlockLevel: 1
  - Info: {fileID: 11400000, guid: b3a14834b6b97ad47ab7b38aa380c1f0, type: 2}
    UnlockLevel: 1
  - Info: {fileID: 11400000, guid: dc1ff5f5fce920a4199924d0835c0584, type: 2}
    UnlockLevel: 1
  - Info: {fileID: 11400000, guid: b5a5d675056ee8e4f8eb2e403859ca3a, type: 2}
    UnlockLevel: 8
  - Info: {fileID: 11400000, guid: 1802e5a851521474eb86f533df4bc7ed, type: 2}
    UnlockLevel: 15
  - Info: {fileID: 11400000, guid: 5e18ae890890e094e894e38a37330229, type: 2}
    UnlockLevel: 22
  - Info: {fileID: 11400000, guid: 9462993250d68e04e936d4add0f893d0, type: 2}
    UnlockLevel: 29
  - Info: {fileID: 11400000, guid: bebca3770cf753d429b1e29ae6f5194e, type: 2}
    UnlockLevel: 36
  - Info: {fileID: 11400000, guid: 51ecf903005b91e4fbac7168e1be41c4, type: 2}
    UnlockLevel: 43
  - Info: {fileID: 11400000, guid: 9826ff173c489e24385a61d4da65082f, type: 2}
    UnlockLevel: 50
  - Info: {fileID: 11400000, guid: 41dd270ed2b6b2c45bd57873bdffbb71, type: 2}
    UnlockLevel: 57
  - Info: {fileID: 11400000, guid: 08c60fe3d93c6d04c9f9d6ae0089cefc, type: 2}
    UnlockLevel: 64
  - Info: {fileID: 11400000, guid: aac6ac945a8f5e247b882440941a9440, type: 2}
    UnlockLevel: 69
  - Info: {fileID: 11400000, guid: 82fdd003398d1754ba3bcd36169809d0, type: 2}
    UnlockLevel: 73
  - Info: {fileID: 11400000, guid: 9670989c9e32e4d41b527fcf211cb072, type: 2}
    UnlockLevel: 79
  - Info: {fileID: 11400000, guid: 028371f4a74389c4bbfe79008bf38879, type: 2}
    UnlockLevel: 86
  - Info: {fileID: 11400000, guid: 5c950bd5ad7678d4892a0408ab45a3b7, type: 2}
    UnlockLevel: 93
  - Info: {fileID: 11400000, guid: 7c19f28982a051045a9ce8371a33b18f, type: 2}
    UnlockLevel: 100
  Types:
  - {fileID: 11400000, guid: f70898c0189222a4091ee9f0c6037fe5, type: 2}
  Health: 135
  Attack: 80
  Defense: 80
  SPAttack: 175
  SPDefense: 80
  Speed: 130
  Experience: 300
  IsShiny: 0
  Front: {fileID: 0}
  Back: {fileID: 0}
  Nature: {fileID: 0}
