%YAML 1.1
%TAG !u! tag:unity3d.com,2011:
--- !u!114 &11400000
MonoBehaviour:
  m_ObjectHideFlags: 0
  m_PrefabParentObject: {fileID: 0}
  m_PrefabInternal: {fileID: 0}
  m_GameObject: {fileID: 0}
  m_Enabled: 1
  m_EditorHideFlags: 0
  m_Script: {fileID: 11500000, guid: f7a371d3c077b734e8c6a79283f76ce1, type: 3}
  m_Name: Lanturn
  m_EditorClassIdentifier: 
  FighterIDName: LANTURN
  FighterShowName: Lanturn
  Level: 1
  Attacks:
  - Info: {fileID: 11400000, guid: c01f3ab9df4bda24f95a7ce12db9ed63, type: 2}
    UnlockLevel: 1
  - Info: {fileID: 11400000, guid: 13de6f2a10560bc4eb3b08553d811b66, type: 2}
    UnlockLevel: 1
  - Info: {fileID: 11400000, guid: 01f80047b83f7154a918473a8634b266, type: 2}
    UnlockLevel: 1
  - Info: {fileID: 11400000, guid: fbbf1f1988f10bf41830d1001347a9cd, type: 2}
    UnlockLevel: 1
  - Info: {fileID: 11400000, guid: 41456f78be0c2794d8bcfc3535bdf268, type: 2}
    UnlockLevel: 1
  - Info: {fileID: 11400000, guid: fbbf1f1988f10bf41830d1001347a9cd, type: 2}
    UnlockLevel: 6
  - Info: {fileID: 11400000, guid: 41456f78be0c2794d8bcfc3535bdf268, type: 2}
    UnlockLevel: 9
  - Info: {fileID: 11400000, guid: 02d15518f762bc144aad19195dbbad73, type: 2}
    UnlockLevel: 12
  - Info: {fileID: 11400000, guid: 9a89875c161a90c42a05fd50718af534, type: 2}
    UnlockLevel: 17
  - Info: {fileID: 11400000, guid: e5b18e8ddd80ff240823d697f5903d5c, type: 2}
    UnlockLevel: 20
  - Info: {fileID: 11400000, guid: 141eac624dffdcb4699720c8790a2713, type: 2}
    UnlockLevel: 23
  - Info: {fileID: 11400000, guid: dd5e94ce206ee2f479d67bf5a7b8a45d, type: 2}
    UnlockLevel: 27
  - Info: {fileID: 11400000, guid: aeee9d13d0601774d8fadf4cb02489b7, type: 2}
    UnlockLevel: 27
  - Info: {fileID: 11400000, guid: a564d5e0924ad8343a6575c6e093c807, type: 2}
    UnlockLevel: 27
  - Info: {fileID: 11400000, guid: 996c745730cde6f40811a4121293194a, type: 2}
    UnlockLevel: 29
  - Info: {fileID: 11400000, guid: 7f8f41d987e8f4049925abea1e720837, type: 2}
    UnlockLevel: 33
  - Info: {fileID: 11400000, guid: ffdb8aed3df87a041a843278db837b9d, type: 2}
    UnlockLevel: 37
  - Info: {fileID: 11400000, guid: b6405890855b9df4993647366ae6467b, type: 2}
    UnlockLevel: 43
  - Info: {fileID: 11400000, guid: fb846cdfeb666f04788ca6a39226e9c4, type: 2}
    UnlockLevel: 47
  - Info: {fileID: 11400000, guid: 1f3162798bc51bd47ab87c9c09526297, type: 2}
    UnlockLevel: 51
  - Info: {fileID: 11400000, guid: 1204eb5fc4cc06c47ab1d2ee814bcda8, type: 2}
    UnlockLevel: 54
  - Info: {fileID: 11400000, guid: 90a8665de1fe69f45a7ab49c2c6d4092, type: 2}
    UnlockLevel: 58
  Types:
  - {fileID: 11400000, guid: 892e55384fa4038429488b25a0004457, type: 2}
  - {fileID: 11400000, guid: eb1f61bfedf02c847ac8f80212573502, type: 2}
  Health: 125
  Attack: 58
  Defense: 58
  SPAttack: 76
  SPDefense: 76
  Speed: 67
  Experience: 161
  IsShiny: 0
  Front: {fileID: 0}
  Back: {fileID: 0}
  Nature: {fileID: 0}
