%YAML 1.1
%TAG !u! tag:unity3d.com,2011:
--- !u!114 &11400000
MonoBehaviour:
  m_ObjectHideFlags: 0
  m_PrefabParentObject: {fileID: 0}
  m_PrefabInternal: {fileID: 0}
  m_GameObject: {fileID: 0}
  m_Enabled: 1
  m_EditorHideFlags: 0
  m_Script: {fileID: 11500000, guid: f7a371d3c077b734e8c6a79283f76ce1, type: 3}
  m_Name: Lotad
  m_EditorClassIdentifier: 
  FighterIDName: LOTAD
  FighterShowName: Lotad
  Level: 1
  Attacks:
  - Info: {fileID: 11400000, guid: bc077637c71f39c42b46de9a6ea9ce1f, type: 2}
    UnlockLevel: 1
  - Info: {fileID: 11400000, guid: b5f0c5fa15024ab4f887c0948f682d1c, type: 2}
    UnlockLevel: 3
  - Info: {fileID: 11400000, guid: 5a91db60a93684b49808e3f388382a57, type: 2}
    UnlockLevel: 6
  - Info: {fileID: 11400000, guid: 13de6f2a10560bc4eb3b08553d811b66, type: 2}
    UnlockLevel: 9
  - Info: {fileID: 11400000, guid: 618bf9c9bdb4cd44f8ce0cf78f2e4fbe, type: 2}
    UnlockLevel: 12
  - Info: {fileID: 11400000, guid: 93120418ded562b47831eb5867052e69, type: 2}
    UnlockLevel: 15
  - Info: {fileID: 11400000, guid: 0cc110c3a64ae8048b3617510f609261, type: 2}
    UnlockLevel: 18
  - Info: {fileID: 11400000, guid: e5b18e8ddd80ff240823d697f5903d5c, type: 2}
    UnlockLevel: 21
  - Info: {fileID: 11400000, guid: a86e337bd4e4a704694bba22815e5f57, type: 2}
    UnlockLevel: 24
  - Info: {fileID: 11400000, guid: 68fb658e6a249404b925505fd4842034, type: 2}
    UnlockLevel: 27
  - Info: {fileID: 11400000, guid: ec7583be9fa06d14184a8407c0608283, type: 2}
    UnlockLevel: 30
  - Info: {fileID: 11400000, guid: 23528101c326c0f47b0ea2b9a05a3464, type: 2}
    UnlockLevel: 33
  - Info: {fileID: 11400000, guid: a9317de618151b4469c78aa0ebbcf42a, type: 2}
    UnlockLevel: 36
  Types:
  - {fileID: 11400000, guid: 892e55384fa4038429488b25a0004457, type: 2}
  - {fileID: 11400000, guid: 9013aa9c388209e498c7cc40001c20b9, type: 2}
  Health: 40
  Attack: 30
  Defense: 30
  SPAttack: 40
  SPDefense: 50
  Speed: 30
  Experience: 44
  IsShiny: 0
  Front: {fileID: 0}
  Back: {fileID: 0}
  Nature: {fileID: 0}
