%YAML 1.1
%TAG !u! tag:unity3d.com,2011:
--- !u!114 &11400000
MonoBehaviour:
  m_ObjectHideFlags: 0
  m_PrefabParentObject: {fileID: 0}
  m_PrefabInternal: {fileID: 0}
  m_GameObject: {fileID: 0}
  m_Enabled: 1
  m_EditorHideFlags: 0
  m_Script: {fileID: 11500000, guid: f7a371d3c077b734e8c6a79283f76ce1, type: 3}
  m_Name: Magcargo
  m_EditorClassIdentifier: 
  FighterIDName: MAGCARGO
  FighterShowName: Magcargo
  Level: 1
  Attacks:
  - Info: {fileID: 11400000, guid: 72b2f2ad91103fa489e088ff93822cee, type: 2}
    UnlockLevel: 1
  - Info: {fileID: 11400000, guid: dd9d7d707c128904d93aab80e5c5cc47, type: 2}
    UnlockLevel: 1
  - Info: {fileID: 11400000, guid: 879df14887535ad45b704f5f10786ad0, type: 2}
    UnlockLevel: 1
  - Info: {fileID: 11400000, guid: 7df3b6dc573d0974c8e8433313d63e73, type: 2}
    UnlockLevel: 1
  - Info: {fileID: 11400000, guid: 2684866907368d747a8cf43b903709cc, type: 2}
    UnlockLevel: 1
  - Info: {fileID: 11400000, guid: 7df3b6dc573d0974c8e8433313d63e73, type: 2}
    UnlockLevel: 6
  - Info: {fileID: 11400000, guid: 2684866907368d747a8cf43b903709cc, type: 2}
    UnlockLevel: 8
  - Info: {fileID: 11400000, guid: 624bb10375fc74e439e9e39bd6b4cd0f, type: 2}
    UnlockLevel: 13
  - Info: {fileID: 11400000, guid: c4373cfbac9a5fd43a1b923ff9b257d8, type: 2}
    UnlockLevel: 15
  - Info: {fileID: 11400000, guid: ba455a4740784324fbbaf00ba934eb73, type: 2}
    UnlockLevel: 20
  - Info: {fileID: 11400000, guid: ca6c940bfb9054b40b65235800b926f4, type: 2}
    UnlockLevel: 22
  - Info: {fileID: 11400000, guid: 5663cb52451bdf846a253ef3b9e54a4b, type: 2}
    UnlockLevel: 27
  - Info: {fileID: 11400000, guid: 8c639a55a7e50e540a4c05a3b0f7c8d4, type: 2}
    UnlockLevel: 29
  - Info: {fileID: 11400000, guid: 1c70ebcf4e7ceee4390094714432c949, type: 2}
    UnlockLevel: 34
  - Info: {fileID: 11400000, guid: 4bfebfd887e1b5b4da190dddfb1b9c3d, type: 2}
    UnlockLevel: 36
  - Info: {fileID: 11400000, guid: de8027d6d2a10fb4ab08fdc98257a158, type: 2}
    UnlockLevel: 38
  - Info: {fileID: 11400000, guid: 0cce87ed7f79d694ca8c0b8ef3b46b8c, type: 2}
    UnlockLevel: 43
  - Info: {fileID: 11400000, guid: 9826ff173c489e24385a61d4da65082f, type: 2}
    UnlockLevel: 47
  - Info: {fileID: 11400000, guid: 583f0f699db4531478a8952cfd6b5957, type: 2}
    UnlockLevel: 54
  - Info: {fileID: 11400000, guid: 72b2f2ad91103fa489e088ff93822cee, type: 2}
    UnlockLevel: 58
  Types:
  - {fileID: 11400000, guid: b2263d3942d9cee40b27a6d5ead1297d, type: 2}
  - {fileID: 11400000, guid: d5e8e99b7eae6e14e916633b02b73558, type: 2}
  Health: 60
  Attack: 50
  Defense: 120
  SPAttack: 90
  SPDefense: 80
  Speed: 30
  Experience: 144
  IsShiny: 0
  Front: {fileID: 0}
  Back: {fileID: 0}
  Nature: {fileID: 0}
