%YAML 1.1
%TAG !u! tag:unity3d.com,2011:
--- !u!114 &11400000
MonoBehaviour:
  m_ObjectHideFlags: 0
  m_PrefabParentObject: {fileID: 0}
  m_PrefabInternal: {fileID: 0}
  m_GameObject: {fileID: 0}
  m_Enabled: 1
  m_EditorHideFlags: 0
  m_Script: {fileID: 11500000, guid: f7a371d3c077b734e8c6a79283f76ce1, type: 3}
  m_Name: Mawile
  m_EditorClassIdentifier: 
  FighterIDName: MAWILE
  FighterShowName: Mawile
  Level: 1
  Attacks:
  - Info: {fileID: 11400000, guid: cd292a6fb9943ae4b931ffb424e9593b, type: 2}
    UnlockLevel: 1
  - Info: {fileID: 11400000, guid: e59fbb56c445ac64c9b1dfb8e121b5de, type: 2}
    UnlockLevel: 1
  - Info: {fileID: 11400000, guid: 8f4bdc757ba4a904a805d11d67a6bef3, type: 2}
    UnlockLevel: 1
  - Info: {fileID: 11400000, guid: b5f0c5fa15024ab4f887c0948f682d1c, type: 2}
    UnlockLevel: 1
  - Info: {fileID: 11400000, guid: df3e27159641382499f177aaf98ecd1d, type: 2}
    UnlockLevel: 1
  - Info: {fileID: 11400000, guid: bc077637c71f39c42b46de9a6ea9ce1f, type: 2}
    UnlockLevel: 1
  - Info: {fileID: 11400000, guid: a187f2c6573ea6043b0f5c2dd0f4a552, type: 2}
    UnlockLevel: 5
  - Info: {fileID: 11400000, guid: 78d6565e4587cf546a56fccf771a17f2, type: 2}
    UnlockLevel: 9
  - Info: {fileID: 11400000, guid: 698e1dc8f492f4c4cb35c5be64319e81, type: 2}
    UnlockLevel: 13
  - Info: {fileID: 11400000, guid: 18aa17e52d352ca49ab8e2be31f0738c, type: 2}
    UnlockLevel: 17
  - Info: {fileID: 11400000, guid: f4aea1b9c7ff7d64da97d8e765f743df, type: 2}
    UnlockLevel: 21
  - Info: {fileID: 11400000, guid: 75c58c550cf77ae4abb66f9f4d976f88, type: 2}
    UnlockLevel: 25
  - Info: {fileID: 11400000, guid: 96cda4380aa0cc748add614e7e69f874, type: 2}
    UnlockLevel: 29
  - Info: {fileID: 11400000, guid: c06b5fc43f8c26f4a98788cf49c70281, type: 2}
    UnlockLevel: 33
  - Info: {fileID: 11400000, guid: 03b3bbf99d3c9044fa94d2c23c9145cd, type: 2}
    UnlockLevel: 37
  - Info: {fileID: 11400000, guid: dd5e94ce206ee2f479d67bf5a7b8a45d, type: 2}
    UnlockLevel: 41
  - Info: {fileID: 11400000, guid: aeee9d13d0601774d8fadf4cb02489b7, type: 2}
    UnlockLevel: 41
  - Info: {fileID: 11400000, guid: a564d5e0924ad8343a6575c6e093c807, type: 2}
    UnlockLevel: 41
  - Info: {fileID: 11400000, guid: e59fbb56c445ac64c9b1dfb8e121b5de, type: 2}
    UnlockLevel: 45
  - Info: {fileID: 11400000, guid: cd292a6fb9943ae4b931ffb424e9593b, type: 2}
    UnlockLevel: 49
  Types:
  - {fileID: 11400000, guid: 937a21aa05fa8254283297d7a575da5c, type: 2}
  - {fileID: 11400000, guid: 57d5c332bc212a047a73d3810bd3f7cb, type: 2}
  Health: 50
  Attack: 85
  Defense: 85
  SPAttack: 55
  SPDefense: 55
  Speed: 50
  Experience: 133
  IsShiny: 0
  Front: {fileID: 0}
  Back: {fileID: 0}
  Nature: {fileID: 0}
