%YAML 1.1
%TAG !u! tag:unity3d.com,2011:
--- !u!114 &11400000
MonoBehaviour:
  m_ObjectHideFlags: 0
  m_PrefabParentObject: {fileID: 0}
  m_PrefabInternal: {fileID: 0}
  m_GameObject: {fileID: 0}
  m_Enabled: 1
  m_EditorHideFlags: 0
  m_Script: {fileID: 11500000, guid: f7a371d3c077b734e8c6a79283f76ce1, type: 3}
  m_Name: Meganium
  m_EditorClassIdentifier: 
  FighterIDName: MEGANIUM
  FighterShowName: Meganium
  Level: 1
  Attacks:
  - Info: {fileID: 11400000, guid: dfcd4052b2ea5b94fbabc2d3fe6a0076, type: 2}
    UnlockLevel: 1
  - Info: {fileID: 11400000, guid: f2eafcc30bd3f47418faaca7f81f0ad2, type: 2}
    UnlockLevel: 1
  - Info: {fileID: 11400000, guid: b5f0c5fa15024ab4f887c0948f682d1c, type: 2}
    UnlockLevel: 1
  - Info: {fileID: 11400000, guid: 26e96eeecdd6eef44bd58a4ce436d67d, type: 2}
    UnlockLevel: 1
  - Info: {fileID: 11400000, guid: 60ed829df0987f5498bd3e4a150c91b7, type: 2}
    UnlockLevel: 1
  - Info: {fileID: 11400000, guid: 26e96eeecdd6eef44bd58a4ce436d67d, type: 2}
    UnlockLevel: 6
  - Info: {fileID: 11400000, guid: 60ed829df0987f5498bd3e4a150c91b7, type: 2}
    UnlockLevel: 9
  - Info: {fileID: 11400000, guid: 2e95953a8fce44b478f019df820e31e0, type: 2}
    UnlockLevel: 12
  - Info: {fileID: 11400000, guid: ad16e83f042264642a2f22a3379ac18d, type: 2}
    UnlockLevel: 18
  - Info: {fileID: 11400000, guid: 1c7ea99f3fb29dd49986cdb06b6f8562, type: 2}
    UnlockLevel: 22
  - Info: {fileID: 11400000, guid: 618bf9c9bdb4cd44f8ce0cf78f2e4fbe, type: 2}
    UnlockLevel: 26
  - Info: {fileID: 11400000, guid: 0b07a0f1e4018a241954d73c3912c161, type: 2}
    UnlockLevel: 32
  - Info: {fileID: 11400000, guid: 698e1dc8f492f4c4cb35c5be64319e81, type: 2}
    UnlockLevel: 34
  - Info: {fileID: 11400000, guid: ac6daa9c5a01d4949b2fb9a67a0bd190, type: 2}
    UnlockLevel: 40
  - Info: {fileID: 11400000, guid: 0cce87ed7f79d694ca8c0b8ef3b46b8c, type: 2}
    UnlockLevel: 46
  - Info: {fileID: 11400000, guid: 6cd4d2fdec43d4a4383e3058f7679ab0, type: 2}
    UnlockLevel: 54
  - Info: {fileID: 11400000, guid: 09bbbc5be2cbda24c95f243e40208a71, type: 2}
    UnlockLevel: 60
  - Info: {fileID: 11400000, guid: ec10853d60102274db7543ce21f38b4c, type: 2}
    UnlockLevel: 66
  - Info: {fileID: 11400000, guid: dfcd4052b2ea5b94fbabc2d3fe6a0076, type: 2}
    UnlockLevel: 70
  Types:
  - {fileID: 11400000, guid: 9013aa9c388209e498c7cc40001c20b9, type: 2}
  Health: 80
  Attack: 82
  Defense: 100
  SPAttack: 83
  SPDefense: 100
  Speed: 80
  Experience: 236
  IsShiny: 0
  Front: {fileID: 0}
  Back: {fileID: 0}
  Nature: {fileID: 0}
