%YAML 1.1
%TAG !u! tag:unity3d.com,2011:
--- !u!114 &11400000
MonoBehaviour:
  m_ObjectHideFlags: 0
  m_PrefabParentObject: {fileID: 0}
  m_PrefabInternal: {fileID: 0}
  m_GameObject: {fileID: 0}
  m_Enabled: 1
  m_EditorHideFlags: 0
  m_Script: {fileID: 11500000, guid: f7a371d3c077b734e8c6a79283f76ce1, type: 3}
  m_Name: Metang
  m_EditorClassIdentifier: 
  FighterIDName: METANG
  FighterShowName: Metang
  Level: 1
  Attacks:
  - Info: {fileID: 11400000, guid: 3a16caf8f57bd2348aa36fb0f36c1aff, type: 2}
    UnlockLevel: 1
  - Info: {fileID: 11400000, guid: b6405890855b9df4993647366ae6467b, type: 2}
    UnlockLevel: 1
  - Info: {fileID: 11400000, guid: a2f353ca478a3ab409ab868c224dc481, type: 2}
    UnlockLevel: 1
  - Info: {fileID: 11400000, guid: 43d305e340d009549b5374163014532b, type: 2}
    UnlockLevel: 1
  - Info: {fileID: 11400000, guid: a2f353ca478a3ab409ab868c224dc481, type: 2}
    UnlockLevel: 20
  - Info: {fileID: 11400000, guid: 43d305e340d009549b5374163014532b, type: 2}
    UnlockLevel: 20
  - Info: {fileID: 11400000, guid: ac27f4ed62e5b5049b5edfe302614f5c, type: 2}
    UnlockLevel: 23
  - Info: {fileID: 11400000, guid: 80b255c5273ab8d409fca75d81426316, type: 2}
    UnlockLevel: 26
  - Info: {fileID: 11400000, guid: f61c77af7d34e4142a8d9f4cf176128d, type: 2}
    UnlockLevel: 29
  - Info: {fileID: 11400000, guid: 23528101c326c0f47b0ea2b9a05a3464, type: 2}
    UnlockLevel: 32
  - Info: {fileID: 11400000, guid: 9dff449eb4e23724c8fac7e303e86fb7, type: 2}
    UnlockLevel: 35
  - Info: {fileID: 11400000, guid: fb7b7fe6af6cb964ea0e6e9b932b389c, type: 2}
    UnlockLevel: 38
  - Info: {fileID: 11400000, guid: 9670989c9e32e4d41b527fcf211cb072, type: 2}
    UnlockLevel: 41
  - Info: {fileID: 11400000, guid: 37ffec2926fbc7a4484a595d9ed6867d, type: 2}
    UnlockLevel: 44
  - Info: {fileID: 11400000, guid: c06b5fc43f8c26f4a98788cf49c70281, type: 2}
    UnlockLevel: 47
  - Info: {fileID: 11400000, guid: da0a4d7e5178daf4d81f7439f2af6bea, type: 2}
    UnlockLevel: 50
  Types:
  - {fileID: 11400000, guid: 937a21aa05fa8254283297d7a575da5c, type: 2}
  - {fileID: 11400000, guid: 6ab104ed0fffb2949b3b296c5c7eb603, type: 2}
  Health: 60
  Attack: 75
  Defense: 100
  SPAttack: 55
  SPDefense: 80
  Speed: 50
  Experience: 147
  IsShiny: 0
  Front: {fileID: 0}
  Back: {fileID: 0}
  Nature: {fileID: 0}
