%YAML 1.1
%TAG !u! tag:unity3d.com,2011:
--- !u!114 &11400000
MonoBehaviour:
  m_ObjectHideFlags: 0
  m_PrefabParentObject: {fileID: 0}
  m_PrefabInternal: {fileID: 0}
  m_GameObject: {fileID: 0}
  m_Enabled: 1
  m_EditorHideFlags: 0
  m_Script: {fileID: 11500000, guid: f7a371d3c077b734e8c6a79283f76ce1, type: 3}
  m_Name: Musharna
  m_EditorClassIdentifier: 
  FighterIDName: MUSHARNA
  FighterShowName: Musharna
  Level: 1
  Attacks:
  - Info: {fileID: 11400000, guid: 9bfe42524092c6945b53a1d4fafb376f, type: 2}
    UnlockLevel: 1
  - Info: {fileID: 11400000, guid: 9b9397f6a83f9eb498534660a9ec27fa, type: 2}
    UnlockLevel: 1
  - Info: {fileID: 11400000, guid: 55361eb20ed5df44fa76b49f1359e70d, type: 2}
    UnlockLevel: 1
  - Info: {fileID: 11400000, guid: 2af2f53b70656584aa9bc8719435fe6b, type: 2}
    UnlockLevel: 1
  Types:
  - {fileID: 11400000, guid: 6ab104ed0fffb2949b3b296c5c7eb603, type: 2}
  Health: 116
  Attack: 55
  Defense: 85
  SPAttack: 107
  SPDefense: 95
  Speed: 29
  Experience: 170
  IsShiny: 0
  Front: {fileID: 0}
  Back: {fileID: 0}
  Nature: {fileID: 0}
