%YAML 1.1
%TAG !u! tag:unity3d.com,2011:
--- !u!114 &11400000
MonoBehaviour:
  m_ObjectHideFlags: 0
  m_PrefabParentObject: {fileID: 0}
  m_PrefabInternal: {fileID: 0}
  m_GameObject: {fileID: 0}
  m_Enabled: 1
  m_EditorHideFlags: 0
  m_Script: {fileID: 11500000, guid: f7a371d3c077b734e8c6a79283f76ce1, type: 3}
  m_Name: Nidorino
  m_EditorClassIdentifier: 
  FighterIDName: NIDORINO
  FighterShowName: Nidorino
  Level: 1
  Attacks:
  - Info: {fileID: 11400000, guid: ff9a619b72c64b34bbd0e7cd74afda71, type: 2}
    UnlockLevel: 1
  - Info: {fileID: 11400000, guid: 4915ebb5dc88dda4692ea608f3342b7f, type: 2}
    UnlockLevel: 1
  - Info: {fileID: 11400000, guid: 08c60fe3d93c6d04c9f9d6ae0089cefc, type: 2}
    UnlockLevel: 7
  - Info: {fileID: 11400000, guid: f5c46577eec07644891195c6789a7ef4, type: 2}
    UnlockLevel: 9
  - Info: {fileID: 11400000, guid: 8b5bc5bc5e80fd3428791efaadd1d33c, type: 2}
    UnlockLevel: 13
  - Info: {fileID: 11400000, guid: df0b0e776f7208b44935ea8f6a45bdf9, type: 2}
    UnlockLevel: 20
  - Info: {fileID: 11400000, guid: 384a82e660c40244881b4a891ad60576, type: 2}
    UnlockLevel: 23
  - Info: {fileID: 11400000, guid: 7f2228723f639d24995d6a8e59a9599c, type: 2}
    UnlockLevel: 28
  - Info: {fileID: 11400000, guid: ef18844515e5ea2409d96fd3f27c7fba, type: 2}
    UnlockLevel: 35
  - Info: {fileID: 11400000, guid: 0de65c3239c6d074c82cc2de3b0f292d, type: 2}
    UnlockLevel: 38
  - Info: {fileID: 11400000, guid: d016d087343ec804eaffb31b88e20c8f, type: 2}
    UnlockLevel: 43
  - Info: {fileID: 11400000, guid: 7f11761a2faee9e4cbd994e4b3864d07, type: 2}
    UnlockLevel: 50
  - Info: {fileID: 11400000, guid: 324b2616e14d87b44a9863827ded136d, type: 2}
    UnlockLevel: 58
  Types:
  - {fileID: 11400000, guid: 59f2fca58cea2e4459ec19299719ad21, type: 2}
  Health: 61
  Attack: 72
  Defense: 57
  SPAttack: 55
  SPDefense: 55
  Speed: 65
  Experience: 128
  IsShiny: 0
  Front: {fileID: 0}
  Back: {fileID: 0}
  Nature: {fileID: 0}
