%YAML 1.1
%TAG !u! tag:unity3d.com,2011:
--- !u!114 &11400000
MonoBehaviour:
  m_ObjectHideFlags: 0
  m_PrefabParentObject: {fileID: 0}
  m_PrefabInternal: {fileID: 0}
  m_GameObject: {fileID: 0}
  m_Enabled: 1
  m_EditorHideFlags: 0
  m_Script: {fileID: 11500000, guid: f7a371d3c077b734e8c6a79283f76ce1, type: 3}
  m_Name: Oshawott
  m_EditorClassIdentifier: 
  FighterIDName: OSHAWOTT
  FighterShowName: Oshawott
  Level: 1
  Attacks:
  - Info: {fileID: 11400000, guid: f2eafcc30bd3f47418faaca7f81f0ad2, type: 2}
    UnlockLevel: 1
  - Info: {fileID: 11400000, guid: d51902e7be2d7a145b1e4ef7fb23bbe5, type: 2}
    UnlockLevel: 5
  - Info: {fileID: 11400000, guid: 02d15518f762bc144aad19195dbbad73, type: 2}
    UnlockLevel: 7
  - Info: {fileID: 11400000, guid: e90550dfdb5749e479b5dc29239cb4d2, type: 2}
    UnlockLevel: 11
  - Info: {fileID: 11400000, guid: 08c60fe3d93c6d04c9f9d6ae0089cefc, type: 2}
    UnlockLevel: 13
  - Info: {fileID: 11400000, guid: 32275f04c93c6794cab85bf3a3e2de53, type: 2}
    UnlockLevel: 17
  - Info: {fileID: 11400000, guid: 06cf5ef60e19e88418a5936bf3cb78f1, type: 2}
    UnlockLevel: 19
  - Info: {fileID: 11400000, guid: f2153a9a81374f84f9d4f6f9010749e2, type: 2}
    UnlockLevel: 23
  - Info: {fileID: 11400000, guid: f6f147d6b33424b4abf6da6d4c4dd169, type: 2}
    UnlockLevel: 25
  - Info: {fileID: 11400000, guid: 924aa533dc9b350418c3321cc0fd75f5, type: 2}
    UnlockLevel: 29
  - Info: {fileID: 11400000, guid: 2f47cefd6769fcc45b79aab46c452fbf, type: 2}
    UnlockLevel: 31
  - Info: {fileID: 11400000, guid: aa7cf8e261f912349962c8f1b70ef99e, type: 2}
    UnlockLevel: 35
  - Info: {fileID: 11400000, guid: f8314c92a2491d34fb7d454a03f29e67, type: 2}
    UnlockLevel: 37
  - Info: {fileID: 11400000, guid: c13d046460698e9449d0e67277d874fe, type: 2}
    UnlockLevel: 41
  - Info: {fileID: 11400000, guid: 1f3162798bc51bd47ab87c9c09526297, type: 2}
    UnlockLevel: 43
  Types:
  - {fileID: 11400000, guid: 892e55384fa4038429488b25a0004457, type: 2}
  Health: 55
  Attack: 55
  Defense: 45
  SPAttack: 63
  SPDefense: 45
  Speed: 45
  Experience: 28
  IsShiny: 0
  Front: {fileID: 0}
  Back: {fileID: 0}
  Nature: {fileID: 0}
