%YAML 1.1
%TAG !u! tag:unity3d.com,2011:
--- !u!114 &11400000
MonoBehaviour:
  m_ObjectHideFlags: 0
  m_PrefabParentObject: {fileID: 0}
  m_PrefabInternal: {fileID: 0}
  m_GameObject: {fileID: 0}
  m_Enabled: 1
  m_EditorHideFlags: 0
  m_Script: {fileID: 11500000, guid: f7a371d3c077b734e8c6a79283f76ce1, type: 3}
  m_Name: Packtain
  m_EditorClassIdentifier: 
  FighterIDName: PACKTAIN
  FighterShowName: Packtain
  Level: 1
  Attacks:
  - Info: {fileID: 11400000, guid: a276e66a3af8d1945b5a53ad0817b9ec, type: 2}
    UnlockLevel: 1
  - Info: {fileID: 11400000, guid: f2eafcc30bd3f47418faaca7f81f0ad2, type: 2}
    UnlockLevel: 1
  - Info: {fileID: 11400000, guid: b5f0c5fa15024ab4f887c0948f682d1c, type: 2}
    UnlockLevel: 1
  - Info: {fileID: 11400000, guid: 85cd5625801a7b04a91603d852adf3f8, type: 2}
    UnlockLevel: 5
  - Info: {fileID: 11400000, guid: 536b554402f04ff46814b1f7cdd6215b, type: 2}
    UnlockLevel: 8
  - Info: {fileID: 11400000, guid: 3f22a5e8b79f95d4791e16260dfea1bf, type: 2}
    UnlockLevel: 11
  - Info: {fileID: 11400000, guid: a35088441d3ee09418434c7689a68584, type: 2}
    UnlockLevel: 15
  - Info: {fileID: 11400000, guid: 9670989c9e32e4d41b527fcf211cb072, type: 2}
    UnlockLevel: 22
  - Info: {fileID: 11400000, guid: ce1a3e17e46972949a27701ac879297c, type: 2}
    UnlockLevel: 33
  - Info: {fileID: 11400000, guid: 5fbac050da2cd4f4a888d5e6220acf77, type: 2}
    UnlockLevel: 40
  - Info: {fileID: 11400000, guid: 342af2369edbb4f4cb304a96cdca6410, type: 2}
    UnlockLevel: 48
  - Info: {fileID: 11400000, guid: 41fbeeba8e502ed4e8afe995af206029, type: 2}
    UnlockLevel: 55
  - Info: {fileID: 11400000, guid: 4ecc2c167badbb44a93379d71ec65993, type: 2}
    UnlockLevel: 64
  Types:
  - {fileID: 11400000, guid: 9013aa9c388209e498c7cc40001c20b9, type: 2}
  - {fileID: 11400000, guid: d5e8e99b7eae6e14e916633b02b73558, type: 2}
  Health: 65
  Attack: 95
  Defense: 70
  SPAttack: 60
  SPDefense: 60
  Speed: 95
  Experience: 142
  IsShiny: 0
  Front: {fileID: 0}
  Back: {fileID: 0}
  Nature: {fileID: 0}
