%YAML 1.1
%TAG !u! tag:unity3d.com,2011:
--- !u!114 &11400000
MonoBehaviour:
  m_ObjectHideFlags: 0
  m_PrefabParentObject: {fileID: 0}
  m_PrefabInternal: {fileID: 0}
  m_GameObject: {fileID: 0}
  m_Enabled: 1
  m_EditorHideFlags: 0
  m_Script: {fileID: 11500000, guid: f7a371d3c077b734e8c6a79283f76ce1, type: 3}
  m_Name: Pandisma
  m_EditorClassIdentifier: 
  FighterIDName: PANDISMA
  FighterShowName: Pandisma
  Level: 1
  Attacks:
  - Info: {fileID: 11400000, guid: a501fabf27ed09f4d97df3b5a3361f42, type: 2}
    UnlockLevel: 1
  - Info: {fileID: 11400000, guid: cf45930ab60b0fd4e8a3a0ea06ad8025, type: 2}
    UnlockLevel: 1
  - Info: {fileID: 11400000, guid: d51902e7be2d7a145b1e4ef7fb23bbe5, type: 2}
    UnlockLevel: 1
  - Info: {fileID: 11400000, guid: 6abe9ab13845b6a4cb8ccc1c08899a8d, type: 2}
    UnlockLevel: 5
  - Info: {fileID: 11400000, guid: b3a14834b6b97ad47ab7b38aa380c1f0, type: 2}
    UnlockLevel: 8
  - Info: {fileID: 11400000, guid: a2f353ca478a3ab409ab868c224dc481, type: 2}
    UnlockLevel: 12
  - Info: {fileID: 11400000, guid: 2af2f53b70656584aa9bc8719435fe6b, type: 2}
    UnlockLevel: 16
  - Info: {fileID: 11400000, guid: bebca3770cf753d429b1e29ae6f5194e, type: 2}
    UnlockLevel: 20
  - Info: {fileID: 11400000, guid: f61c77af7d34e4142a8d9f4cf176128d, type: 2}
    UnlockLevel: 24
  - Info: {fileID: 11400000, guid: e5020a4a4a9cc6049ac6106e364139d6, type: 2}
    UnlockLevel: 29
  - Info: {fileID: 11400000, guid: ac6daa9c5a01d4949b2fb9a67a0bd190, type: 2}
    UnlockLevel: 34
  - Info: {fileID: 11400000, guid: ad16e83f042264642a2f22a3379ac18d, type: 2}
    UnlockLevel: 34
  - Info: {fileID: 11400000, guid: daa7cdcd3b0aec84ca1a5cb819de846e, type: 2}
    UnlockLevel: 38
  - Info: {fileID: 11400000, guid: b483d4e9f9c578c45a07da248ff2bc9e, type: 2}
    UnlockLevel: 45
  - Info: {fileID: 11400000, guid: b5abdc41e66ed5e449a7680523f9488b, type: 2}
    UnlockLevel: 50
  - Info: {fileID: 11400000, guid: 36a88772c7ca48a4d9cebca23167e24c, type: 2}
    UnlockLevel: 56
  - Info: {fileID: 11400000, guid: 2b8d1d151a7f20d49a405a018592f6cb, type: 2}
    UnlockLevel: 61
  - Info: {fileID: 11400000, guid: 650e44288e6d5e349a33558e541cc14b, type: 2}
    UnlockLevel: 66
  Types:
  - {fileID: 11400000, guid: 6ab104ed0fffb2949b3b296c5c7eb603, type: 2}
  - {fileID: 11400000, guid: 57d5c332bc212a047a73d3810bd3f7cb, type: 2}
  Health: 90
  Attack: 70
  Defense: 56
  SPAttack: 114
  SPDefense: 56
  Speed: 25
  Experience: 142
  IsShiny: 0
  Front: {fileID: 0}
  Back: {fileID: 0}
  Nature: {fileID: 0}
