%YAML 1.1
%TAG !u! tag:unity3d.com,2011:
--- !u!114 &11400000
MonoBehaviour:
  m_ObjectHideFlags: 0
  m_PrefabParentObject: {fileID: 0}
  m_PrefabInternal: {fileID: 0}
  m_GameObject: {fileID: 0}
  m_Enabled: 1
  m_EditorHideFlags: 0
  m_Script: {fileID: 11500000, guid: f7a371d3c077b734e8c6a79283f76ce1, type: 3}
  m_Name: Pangoro
  m_EditorClassIdentifier: 
  FighterIDName: PANGORO
  FighterShowName: Pangoro
  Level: 1
  Attacks:
  - Info: {fileID: 11400000, guid: 8998fd29c8d1ebe47a203c34b9d8eebc, type: 2}
    UnlockLevel: 1
  - Info: {fileID: 11400000, guid: 1a077ae8b6d40854291439dff847376f, type: 2}
    UnlockLevel: 1
  - Info: {fileID: 11400000, guid: f2eafcc30bd3f47418faaca7f81f0ad2, type: 2}
    UnlockLevel: 1
  - Info: {fileID: 11400000, guid: ff9a619b72c64b34bbd0e7cd74afda71, type: 2}
    UnlockLevel: 1
  - Info: {fileID: 11400000, guid: 1347ba356173f9043a896b2d747f7b57, type: 2}
    UnlockLevel: 7
  - Info: {fileID: 11400000, guid: bd8cc3d843f116b42867beec6fd15f2e, type: 2}
    UnlockLevel: 10
  - Info: {fileID: 11400000, guid: 23256bb00c2259e4f9b329ba8937ef61, type: 2}
    UnlockLevel: 12
  - Info: {fileID: 11400000, guid: 0f7f2940e5287c643a034e306d141a50, type: 2}
    UnlockLevel: 15
  - Info: {fileID: 11400000, guid: f431e5480eb00184790591673c2f18e3, type: 2}
    UnlockLevel: 20
  - Info: {fileID: 11400000, guid: 053c2587b2c7e2148be1d93c9dc886f4, type: 2}
    UnlockLevel: 25
  - Info: {fileID: 11400000, guid: 047932a3f2c82fe49a0e565f0c3b9199, type: 2}
    UnlockLevel: 27
  - Info: {fileID: 11400000, guid: 0cce87ed7f79d694ca8c0b8ef3b46b8c, type: 2}
    UnlockLevel: 35
  - Info: {fileID: 11400000, guid: 96cda4380aa0cc748add614e7e69f874, type: 2}
    UnlockLevel: 42
  - Info: {fileID: 11400000, guid: 8998fd29c8d1ebe47a203c34b9d8eebc, type: 2}
    UnlockLevel: 45
  - Info: {fileID: 11400000, guid: 8cf80a384af66ab4ca529e276b40b5fa, type: 2}
    UnlockLevel: 48
  - Info: {fileID: 11400000, guid: 222c67cc52874604e957a3b1968eaf06, type: 2}
    UnlockLevel: 52
  - Info: {fileID: 11400000, guid: 1a077ae8b6d40854291439dff847376f, type: 2}
    UnlockLevel: 57
  - Info: {fileID: 11400000, guid: 8f4bdc757ba4a904a805d11d67a6bef3, type: 2}
    UnlockLevel: 65
  - Info: {fileID: 11400000, guid: 5f447c610a98c1748bf9c6348e627d04, type: 2}
    UnlockLevel: 70
  Types:
  - {fileID: 11400000, guid: f70898c0189222a4091ee9f0c6037fe5, type: 2}
  - {fileID: 11400000, guid: 9034d3dd3086cdc41af1e7173855452f, type: 2}
  Health: 95
  Attack: 124
  Defense: 78
  SPAttack: 69
  SPDefense: 71
  Speed: 58
  Experience: 173
  IsShiny: 0
  Front: {fileID: 0}
  Back: {fileID: 0}
  Nature: {fileID: 0}
