%YAML 1.1
%TAG !u! tag:unity3d.com,2011:
--- !u!114 &11400000
MonoBehaviour:
  m_ObjectHideFlags: 0
  m_PrefabParentObject: {fileID: 0}
  m_PrefabInternal: {fileID: 0}
  m_GameObject: {fileID: 0}
  m_Enabled: 1
  m_EditorHideFlags: 0
  m_Script: {fileID: 11500000, guid: f7a371d3c077b734e8c6a79283f76ce1, type: 3}
  m_Name: Pinsir
  m_EditorClassIdentifier: 
  FighterIDName: PINSIR
  FighterShowName: Pinsir
  Level: 1
  Attacks:
  - Info: {fileID: 11400000, guid: 18aa17e52d352ca49ab8e2be31f0738c, type: 2}
    UnlockLevel: 1
  - Info: {fileID: 11400000, guid: 08c60fe3d93c6d04c9f9d6ae0089cefc, type: 2}
    UnlockLevel: 1
  - Info: {fileID: 11400000, guid: 894d809d1523a014480ceffe9825802d, type: 2}
    UnlockLevel: 4
  - Info: {fileID: 11400000, guid: d243fbaf11c3a8344acecba0fd1a72ba, type: 2}
    UnlockLevel: 8
  - Info: {fileID: 11400000, guid: 624bb10375fc74e439e9e39bd6b4cd0f, type: 2}
    UnlockLevel: 11
  - Info: {fileID: 11400000, guid: f6f147d6b33424b4abf6da6d4c4dd169, type: 2}
    UnlockLevel: 15
  - Info: {fileID: 11400000, guid: 047932a3f2c82fe49a0e565f0c3b9199, type: 2}
    UnlockLevel: 18
  - Info: {fileID: 11400000, guid: 2d9a8ed04c5b15e419e500a746b10f1e, type: 2}
    UnlockLevel: 22
  - Info: {fileID: 11400000, guid: 4051c64b21bc2e747b3bb752556f2360, type: 2}
    UnlockLevel: 26
  - Info: {fileID: 11400000, guid: f57b515bbc3824b43ba04e4b5a6f7334, type: 2}
    UnlockLevel: 29
  - Info: {fileID: 11400000, guid: 50537587665f6594f80bf0fccab8f1fe, type: 2}
    UnlockLevel: 33
  - Info: {fileID: 11400000, guid: 4bd4aa34b10f283468b5690c7639b358, type: 2}
    UnlockLevel: 36
  - Info: {fileID: 11400000, guid: c13d046460698e9449d0e67277d874fe, type: 2}
    UnlockLevel: 40
  - Info: {fileID: 11400000, guid: 5cb5bfb9790d81c42ab0fc91fbe97dfc, type: 2}
    UnlockLevel: 43
  - Info: {fileID: 11400000, guid: a64f4b4c99d030b4f90bd1f820282fd1, type: 2}
    UnlockLevel: 47
  - Info: {fileID: 11400000, guid: ca01dce041bc8be4388de60089b1933c, type: 2}
    UnlockLevel: 50
  Types:
  - {fileID: 11400000, guid: 0f07cb8f52a4e464fa188043a8de5605, type: 2}
  Health: 65
  Attack: 125
  Defense: 100
  SPAttack: 55
  SPDefense: 70
  Speed: 85
  Experience: 175
  IsShiny: 0
  Front: {fileID: 0}
  Back: {fileID: 0}
  Nature: {fileID: 0}
