%YAML 1.1
%TAG !u! tag:unity3d.com,2011:
--- !u!114 &11400000
MonoBehaviour:
  m_ObjectHideFlags: 0
  m_PrefabParentObject: {fileID: 0}
  m_PrefabInternal: {fileID: 0}
  m_GameObject: {fileID: 0}
  m_Enabled: 1
  m_EditorHideFlags: 0
  m_Script: {fileID: 11500000, guid: f7a371d3c077b734e8c6a79283f76ce1, type: 3}
  m_Name: Raichu
  m_EditorClassIdentifier: 
  FighterIDName: RAICHU
  FighterShowName: Raichu
  Level: 1
  Attacks:
  - Info: {fileID: 11400000, guid: 07abe9e26f3f5d947a0987a002f8c813, type: 2}
    UnlockLevel: 1
  - Info: {fileID: 11400000, guid: d51902e7be2d7a145b1e4ef7fb23bbe5, type: 2}
    UnlockLevel: 1
  - Info: {fileID: 11400000, guid: 3f22a5e8b79f95d4791e16260dfea1bf, type: 2}
    UnlockLevel: 1
  - Info: {fileID: 11400000, guid: a5c3147cc5f6a7f4ea9a5b097c7cdfe9, type: 2}
    UnlockLevel: 1
  Types:
  - {fileID: 11400000, guid: eb1f61bfedf02c847ac8f80212573502, type: 2}
  Health: 60
  Attack: 90
  Defense: 55
  SPAttack: 90
  SPDefense: 80
  Speed: 110
  Experience: 214
  IsShiny: 0
  Front: {fileID: 0}
  Back: {fileID: 0}
  Nature: {fileID: 0}
