%YAML 1.1
%TAG !u! tag:unity3d.com,2011:
--- !u!114 &11400000
MonoBehaviour:
  m_ObjectHideFlags: 0
  m_PrefabParentObject: {fileID: 0}
  m_PrefabInternal: {fileID: 0}
  m_GameObject: {fileID: 0}
  m_Enabled: 1
  m_EditorHideFlags: 0
  m_Script: {fileID: 11500000, guid: f7a371d3c077b734e8c6a79283f76ce1, type: 3}
  m_Name: Ralts
  m_EditorClassIdentifier: 
  FighterIDName: RALTS
  FighterShowName: Ralts
  Level: 1
  Attacks:
  - Info: {fileID: 11400000, guid: b5f0c5fa15024ab4f887c0948f682d1c, type: 2}
    UnlockLevel: 1
  - Info: {fileID: 11400000, guid: a2f353ca478a3ab409ab868c224dc481, type: 2}
    UnlockLevel: 4
  - Info: {fileID: 11400000, guid: 950d58be627d1444688d1c1c45a8e210, type: 2}
    UnlockLevel: 6
  - Info: {fileID: 11400000, guid: b3a14834b6b97ad47ab7b38aa380c1f0, type: 2}
    UnlockLevel: 9
  - Info: {fileID: 11400000, guid: 2d638d2ad42a8704a9a768b819e92de0, type: 2}
    UnlockLevel: 11
  - Info: {fileID: 11400000, guid: 9b9397f6a83f9eb498534660a9ec27fa, type: 2}
    UnlockLevel: 14
  - Info: {fileID: 11400000, guid: 1c7ea99f3fb29dd49986cdb06b6f8562, type: 2}
    UnlockLevel: 17
  - Info: {fileID: 11400000, guid: 61f85625ead4b3e4ebec97c64bbe220e, type: 2}
    UnlockLevel: 19
  - Info: {fileID: 11400000, guid: 99ffc8c09dda3724ba1d5e310bf76b58, type: 2}
    UnlockLevel: 22
  - Info: {fileID: 11400000, guid: 5e18ae890890e094e894e38a37330229, type: 2}
    UnlockLevel: 24
  - Info: {fileID: 11400000, guid: fb7b7fe6af6cb964ea0e6e9b932b389c, type: 2}
    UnlockLevel: 27
  - Info: {fileID: 11400000, guid: fe82db13d5fdbd34c91a7c45bd74d844, type: 2}
    UnlockLevel: 29
  - Info: {fileID: 11400000, guid: c562a55de5b57e841939caac7c276ddb, type: 2}
    UnlockLevel: 32
  - Info: {fileID: 11400000, guid: 5a9e071dd6a4c9842826114be48624d2, type: 2}
    UnlockLevel: 34
  - Info: {fileID: 11400000, guid: 2af2f53b70656584aa9bc8719435fe6b, type: 2}
    UnlockLevel: 37
  - Info: {fileID: 11400000, guid: 38765fda499b4874a97d609987e1b991, type: 2}
    UnlockLevel: 39
  - Info: {fileID: 11400000, guid: 36a88772c7ca48a4d9cebca23167e24c, type: 2}
    UnlockLevel: 42
  Types:
  - {fileID: 11400000, guid: 6ab104ed0fffb2949b3b296c5c7eb603, type: 2}
  - {fileID: 11400000, guid: 57d5c332bc212a047a73d3810bd3f7cb, type: 2}
  Health: 28
  Attack: 25
  Defense: 25
  SPAttack: 45
  SPDefense: 35
  Speed: 40
  Experience: 40
  IsShiny: 0
  Front: {fileID: 0}
  Back: {fileID: 0}
  Nature: {fileID: 0}
