%YAML 1.1
%TAG !u! tag:unity3d.com,2011:
--- !u!114 &11400000
MonoBehaviour:
  m_ObjectHideFlags: 0
  m_PrefabParentObject: {fileID: 0}
  m_PrefabInternal: {fileID: 0}
  m_GameObject: {fileID: 0}
  m_Enabled: 1
  m_EditorHideFlags: 0
  m_Script: {fileID: 11500000, guid: f7a371d3c077b734e8c6a79283f76ce1, type: 3}
  m_Name: Rayquaza
  m_EditorClassIdentifier: 
  FighterIDName: RAYQUAZA
  FighterShowName: Rayquaza
  Level: 1
  Attacks:
  - Info: {fileID: 11400000, guid: 336d1db7475d6ec4990c3725dc381029, type: 2}
    UnlockLevel: 1
  - Info: {fileID: 11400000, guid: 9dff449eb4e23724c8fac7e303e86fb7, type: 2}
    UnlockLevel: 5
  - Info: {fileID: 11400000, guid: ca6c940bfb9054b40b65235800b926f4, type: 2}
    UnlockLevel: 15
  - Info: {fileID: 11400000, guid: 96cda4380aa0cc748add614e7e69f874, type: 2}
    UnlockLevel: 20
  - Info: {fileID: 11400000, guid: 3e63cc0a05a1b3849879f10e7fe6683c, type: 2}
    UnlockLevel: 30
  - Info: {fileID: 11400000, guid: 870ca5b2611656848a734636f34c7259, type: 2}
    UnlockLevel: 35
  - Info: {fileID: 11400000, guid: 4ecc2c167badbb44a93379d71ec65993, type: 2}
    UnlockLevel: 45
  - Info: {fileID: 11400000, guid: e683d916313124f4892999bbb3a3d7fa, type: 2}
    UnlockLevel: 50
  - Info: {fileID: 11400000, guid: 301c2550ed8a2bf439d5345090f2fab2, type: 2}
    UnlockLevel: 60
  - Info: {fileID: 11400000, guid: 1c48dd422639eef4883a58afd0528abf, type: 2}
    UnlockLevel: 65
  - Info: {fileID: 11400000, guid: 7c1d4e753d6aad24da38d4f3e0fe68d5, type: 2}
    UnlockLevel: 75
  - Info: {fileID: 11400000, guid: 534a5895d1d360547b23e6790fff91ef, type: 2}
    UnlockLevel: 80
  - Info: {fileID: 11400000, guid: da0a4d7e5178daf4d81f7439f2af6bea, type: 2}
    UnlockLevel: 90
  Types:
  - {fileID: 11400000, guid: cf3c2b8d4f9e9024eb1fd88942a18bf9, type: 2}
  - {fileID: 11400000, guid: 0973b6dbda6985f49a4dacdef07c9047, type: 2}
  Health: 105
  Attack: 150
  Defense: 90
  SPAttack: 150
  SPDefense: 90
  Speed: 95
  Experience: 306
  IsShiny: 0
  Front: {fileID: 0}
  Back: {fileID: 0}
  Nature: {fileID: 0}
