%YAML 1.1
%TAG !u! tag:unity3d.com,2011:
--- !u!114 &11400000
MonoBehaviour:
  m_ObjectHideFlags: 0
  m_PrefabParentObject: {fileID: 0}
  m_PrefabInternal: {fileID: 0}
  m_GameObject: {fileID: 0}
  m_Enabled: 1
  m_EditorHideFlags: 0
  m_Script: {fileID: 11500000, guid: f7a371d3c077b734e8c6a79283f76ce1, type: 3}
  m_Name: Regice
  m_EditorClassIdentifier: 
  FighterIDName: REGICE
  FighterShowName: Regice
  Level: 1
  Attacks:
  - Info: {fileID: 11400000, guid: 5da1432516df1c648bc70c96f2da58a4, type: 2}
    UnlockLevel: 1
  - Info: {fileID: 11400000, guid: 01bc17fd70695054ba4c8b7a915ad2cb, type: 2}
    UnlockLevel: 1
  - Info: {fileID: 11400000, guid: 514928b27d47c944c8a76de429e78827, type: 2}
    UnlockLevel: 1
  - Info: {fileID: 11400000, guid: c1e05e7ff24674b4c8cd6e8d04f182b5, type: 2}
    UnlockLevel: 1
  - Info: {fileID: 11400000, guid: 46ccef657aa70df4fa19e2c84452e30c, type: 2}
    UnlockLevel: 1
  - Info: {fileID: 11400000, guid: 514928b27d47c944c8a76de429e78827, type: 2}
    UnlockLevel: 7
  - Info: {fileID: 11400000, guid: c1e05e7ff24674b4c8cd6e8d04f182b5, type: 2}
    UnlockLevel: 13
  - Info: {fileID: 11400000, guid: 46ccef657aa70df4fa19e2c84452e30c, type: 2}
    UnlockLevel: 19
  - Info: {fileID: 11400000, guid: 88ecf3dfd77886e418d444726cf209fa, type: 2}
    UnlockLevel: 25
  - Info: {fileID: 11400000, guid: ca6c940bfb9054b40b65235800b926f4, type: 2}
    UnlockLevel: 31
  - Info: {fileID: 11400000, guid: 4bfebfd887e1b5b4da190dddfb1b9c3d, type: 2}
    UnlockLevel: 37
  - Info: {fileID: 11400000, guid: 2613e24817b1dba4f8125629bb2b06a5, type: 2}
    UnlockLevel: 43
  - Info: {fileID: 11400000, guid: 1a077ae8b6d40854291439dff847376f, type: 2}
    UnlockLevel: 49
  - Info: {fileID: 11400000, guid: 7c22ff5beb1d0ce4cb256ae812e028dc, type: 2}
    UnlockLevel: 55
  - Info: {fileID: 11400000, guid: b8c54a5565d8a9b469f804dbb641299b, type: 2}
    UnlockLevel: 55
  - Info: {fileID: 11400000, guid: a64f4b4c99d030b4f90bd1f820282fd1, type: 2}
    UnlockLevel: 61
  - Info: {fileID: 11400000, guid: da0a4d7e5178daf4d81f7439f2af6bea, type: 2}
    UnlockLevel: 67
  Types:
  - {fileID: 11400000, guid: 498eb535236adbf4aafda6c97768c2b7, type: 2}
  Health: 80
  Attack: 50
  Defense: 100
  SPAttack: 100
  SPDefense: 200
  Speed: 50
  Experience: 261
  IsShiny: 0
  Front: {fileID: 0}
  Back: {fileID: 0}
  Nature: {fileID: 0}
