%YAML 1.1
%TAG !u! tag:unity3d.com,2011:
--- !u!114 &11400000
MonoBehaviour:
  m_ObjectHideFlags: 0
  m_PrefabParentObject: {fileID: 0}
  m_PrefabInternal: {fileID: 0}
  m_GameObject: {fileID: 0}
  m_Enabled: 1
  m_EditorHideFlags: 0
  m_Script: {fileID: 11500000, guid: f7a371d3c077b734e8c6a79283f76ce1, type: 3}
  m_Name: Rhyhorn
  m_EditorClassIdentifier: 
  FighterIDName: RHYHORN
  FighterShowName: Rhyhorn
  Level: 1
  Attacks:
  - Info: {fileID: 11400000, guid: 384a82e660c40244881b4a891ad60576, type: 2}
    UnlockLevel: 1
  - Info: {fileID: 11400000, guid: d51902e7be2d7a145b1e4ef7fb23bbe5, type: 2}
    UnlockLevel: 1
  - Info: {fileID: 11400000, guid: df0b0e776f7208b44935ea8f6a45bdf9, type: 2}
    UnlockLevel: 5
  - Info: {fileID: 11400000, guid: 9dff449eb4e23724c8fac7e303e86fb7, type: 2}
    UnlockLevel: 9
  - Info: {fileID: 11400000, guid: a35088441d3ee09418434c7689a68584, type: 2}
    UnlockLevel: 13
  - Info: {fileID: 11400000, guid: 01bc17fd70695054ba4c8b7a915ad2cb, type: 2}
    UnlockLevel: 17
  - Info: {fileID: 11400000, guid: 46ccef657aa70df4fa19e2c84452e30c, type: 2}
    UnlockLevel: 21
  - Info: {fileID: 11400000, guid: 2d074f351474345449c430890490004a, type: 2}
    UnlockLevel: 25
  - Info: {fileID: 11400000, guid: a276e66a3af8d1945b5a53ad0817b9ec, type: 2}
    UnlockLevel: 29
  - Info: {fileID: 11400000, guid: aa93790af2eaeda47ae78923ec4727c1, type: 2}
    UnlockLevel: 33
  - Info: {fileID: 11400000, guid: b6405890855b9df4993647366ae6467b, type: 2}
    UnlockLevel: 37
  - Info: {fileID: 11400000, guid: 392b5043e1b75a8449bc29e1b814f5d6, type: 2}
    UnlockLevel: 41
  - Info: {fileID: 11400000, guid: 6e868e7b2d08bf74dae70b4717f380ac, type: 2}
    UnlockLevel: 45
  - Info: {fileID: 11400000, guid: 22d1eaac97d589848a28a70935739df7, type: 2}
    UnlockLevel: 49
  - Info: {fileID: 11400000, guid: 324b2616e14d87b44a9863827ded136d, type: 2}
    UnlockLevel: 53
  Types:
  - {fileID: 11400000, guid: 9bce953606501074f95fb811ea470131, type: 2}
  - {fileID: 11400000, guid: d5e8e99b7eae6e14e916633b02b73558, type: 2}
  Health: 80
  Attack: 85
  Defense: 95
  SPAttack: 30
  SPDefense: 30
  Speed: 25
  Experience: 69
  IsShiny: 0
  Front: {fileID: 0}
  Back: {fileID: 0}
  Nature: {fileID: 0}
