%YAML 1.1
%TAG !u! tag:unity3d.com,2011:
--- !u!114 &11400000
MonoBehaviour:
  m_ObjectHideFlags: 0
  m_PrefabParentObject: {fileID: 0}
  m_PrefabInternal: {fileID: 0}
  m_GameObject: {fileID: 0}
  m_Enabled: 1
  m_EditorHideFlags: 0
  m_Script: {fileID: 11500000, guid: f7a371d3c077b734e8c6a79283f76ce1, type: 3}
  m_Name: Riolu
  m_EditorClassIdentifier: 
  FighterIDName: RIOLU
  FighterShowName: Riolu
  Level: 1
  Attacks:
  - Info: {fileID: 11400000, guid: 536b554402f04ff46814b1f7cdd6215b, type: 2}
    UnlockLevel: 1
  - Info: {fileID: 11400000, guid: 3f22a5e8b79f95d4791e16260dfea1bf, type: 2}
    UnlockLevel: 1
  - Info: {fileID: 11400000, guid: 4742cdee267eae445bb554a6fcd648c9, type: 2}
    UnlockLevel: 1
  - Info: {fileID: 11400000, guid: 53d997675664cef4397cd6882c316c9f, type: 2}
    UnlockLevel: 11
  - Info: {fileID: 11400000, guid: b10257dd00e48af4d8d9690fadd73c94, type: 2}
    UnlockLevel: 15
  - Info: {fileID: 11400000, guid: 5bdd031051f98d2429073a9a2e4b183a, type: 2}
    UnlockLevel: 19
  - Info: {fileID: 11400000, guid: 7f3ca70281d87284d9f41c54d620cc36, type: 2}
    UnlockLevel: 24
  - Info: {fileID: 11400000, guid: e3854331a8c010344a9ae427629705f2, type: 2}
    UnlockLevel: 29
  - Info: {fileID: 11400000, guid: abf311c9f8da9bd4180f7fa9e71c2926, type: 2}
    UnlockLevel: 47
  - Info: {fileID: 11400000, guid: 4be843e87a210b74ba9e6bbbb8c36dc8, type: 2}
    UnlockLevel: 50
  Types:
  - {fileID: 11400000, guid: f70898c0189222a4091ee9f0c6037fe5, type: 2}
  Health: 40
  Attack: 70
  Defense: 40
  SPAttack: 35
  SPDefense: 40
  Speed: 60
  Experience: 57
  IsShiny: 0
  Front: {fileID: 0}
  Back: {fileID: 0}
  Nature: {fileID: 0}
