%YAML 1.1
%TAG !u! tag:unity3d.com,2011:
--- !u!114 &11400000
MonoBehaviour:
  m_ObjectHideFlags: 0
  m_PrefabParentObject: {fileID: 0}
  m_PrefabInternal: {fileID: 0}
  m_GameObject: {fileID: 0}
  m_Enabled: 1
  m_EditorHideFlags: 0
  m_Script: {fileID: 11500000, guid: f7a371d3c077b734e8c6a79283f76ce1, type: 3}
  m_Name: Scaramun
  m_EditorClassIdentifier: 
  FighterIDName: SCARAMUN
  FighterShowName: Scaramun
  Level: 1
  Attacks:
  - Info: {fileID: 11400000, guid: 3972a483fdfd9c14db6c59d54d696618, type: 2}
    UnlockLevel: 1
  - Info: {fileID: 11400000, guid: 624bb10375fc74e439e9e39bd6b4cd0f, type: 2}
    UnlockLevel: 1
  - Info: {fileID: 11400000, guid: 65a0a7a9626066f43bc905988f2aa625, type: 2}
    UnlockLevel: 1
  - Info: {fileID: 11400000, guid: 7df3b6dc573d0974c8e8433313d63e73, type: 2}
    UnlockLevel: 8
  - Info: {fileID: 11400000, guid: bc5691d0d1adc0e449480c363ec21299, type: 2}
    UnlockLevel: 11
  - Info: {fileID: 11400000, guid: ca6c940bfb9054b40b65235800b926f4, type: 2}
    UnlockLevel: 14
  - Info: {fileID: 11400000, guid: b69e63923e723104caaef3d0a61acd3f, type: 2}
    UnlockLevel: 17
  - Info: {fileID: 11400000, guid: 8711f7b778b07cf4cb8db20aaa852edc, type: 2}
    UnlockLevel: 20
  - Info: {fileID: 11400000, guid: 48e27dd5170f77f4aa9898b933931956, type: 2}
    UnlockLevel: 23
  - Info: {fileID: 11400000, guid: a0a150537e3ab3f4ba4efb47da68d8df, type: 2}
    UnlockLevel: 26
  - Info: {fileID: 11400000, guid: eff3f6a6d7f8fba428512940ddd4ff40, type: 2}
    UnlockLevel: 29
  - Info: {fileID: 11400000, guid: 8a596f9a223e76f458c0489e4fd8e310, type: 2}
    UnlockLevel: 32
  - Info: {fileID: 11400000, guid: de8027d6d2a10fb4ab08fdc98257a158, type: 2}
    UnlockLevel: 35
  - Info: {fileID: 11400000, guid: e21478649702a1c4fa71373c3b1c3eb4, type: 2}
    UnlockLevel: 39
  - Info: {fileID: 11400000, guid: 41ef57400d234894fbeccf4bf82d02f1, type: 2}
    UnlockLevel: 43
  - Info: {fileID: 11400000, guid: 3eba455177a634e43ae5519f840abb6b, type: 2}
    UnlockLevel: 47
  - Info: {fileID: 11400000, guid: e467c3f05a19cff458add6ffbe2037a9, type: 2}
    UnlockLevel: 51
  - Info: {fileID: 11400000, guid: 705fd7c974c46c64eada0aabe4a1ac79, type: 2}
    UnlockLevel: 55
  - Info: {fileID: 11400000, guid: ec10853d60102274db7543ce21f38b4c, type: 2}
    UnlockLevel: 60
  - Info: {fileID: 11400000, guid: 08b0b64754b551147aac2486737499c4, type: 2}
    UnlockLevel: 65
  Types:
  - {fileID: 11400000, guid: 937a21aa05fa8254283297d7a575da5c, type: 2}
  - {fileID: 11400000, guid: b2263d3942d9cee40b27a6d5ead1297d, type: 2}
  Health: 120
  Attack: 45
  Defense: 60
  SPAttack: 90
  SPDefense: 120
  Speed: 85
  Experience: 71
  IsShiny: 0
  Front: {fileID: 0}
  Back: {fileID: 0}
  Nature: {fileID: 0}
