%YAML 1.1
%TAG !u! tag:unity3d.com,2011:
--- !u!114 &11400000
MonoBehaviour:
  m_ObjectHideFlags: 0
  m_PrefabParentObject: {fileID: 0}
  m_PrefabInternal: {fileID: 0}
  m_GameObject: {fileID: 0}
  m_Enabled: 1
  m_EditorHideFlags: 0
  m_Script: {fileID: 11500000, guid: f7a371d3c077b734e8c6a79283f76ce1, type: 3}
  m_Name: Seedot
  m_EditorClassIdentifier: 
  FighterIDName: SEEDOT
  FighterShowName: Seedot
  Level: 1
  Attacks:
  - Info: {fileID: 11400000, guid: 34bbaf062002eac41b3fc44e81e80d9e, type: 2}
    UnlockLevel: 1
  - Info: {fileID: 11400000, guid: 624bb10375fc74e439e9e39bd6b4cd0f, type: 2}
    UnlockLevel: 3
  - Info: {fileID: 11400000, guid: b125a41387c352646805f9b67236e4e7, type: 2}
    UnlockLevel: 9
  - Info: {fileID: 11400000, guid: a86e337bd4e4a704694bba22815e5f57, type: 2}
    UnlockLevel: 15
  - Info: {fileID: 11400000, guid: 2e95953a8fce44b478f019df820e31e0, type: 2}
    UnlockLevel: 21
  - Info: {fileID: 11400000, guid: 8711f7b778b07cf4cb8db20aaa852edc, type: 2}
    UnlockLevel: 27
  - Info: {fileID: 11400000, guid: 5da1432516df1c648bc70c96f2da58a4, type: 2}
    UnlockLevel: 33
  Types:
  - {fileID: 11400000, guid: 9013aa9c388209e498c7cc40001c20b9, type: 2}
  Health: 40
  Attack: 40
  Defense: 50
  SPAttack: 30
  SPDefense: 30
  Speed: 30
  Experience: 44
  IsShiny: 0
  Front: {fileID: 0}
  Back: {fileID: 0}
  Nature: {fileID: 0}
