%YAML 1.1
%TAG !u! tag:unity3d.com,2011:
--- !u!114 &11400000
MonoBehaviour:
  m_ObjectHideFlags: 0
  m_PrefabParentObject: {fileID: 0}
  m_PrefabInternal: {fileID: 0}
  m_GameObject: {fileID: 0}
  m_Enabled: 1
  m_EditorHideFlags: 0
  m_Script: {fileID: 11500000, guid: f7a371d3c077b734e8c6a79283f76ce1, type: 3}
  m_Name: Servine
  m_EditorClassIdentifier: 
  FighterIDName: SERVINE
  FighterShowName: Servine
  Level: 1
  Attacks:
  - Info: {fileID: 11400000, guid: f2eafcc30bd3f47418faaca7f81f0ad2, type: 2}
    UnlockLevel: 1
  - Info: {fileID: 11400000, guid: ff9a619b72c64b34bbd0e7cd74afda71, type: 2}
    UnlockLevel: 1
  - Info: {fileID: 11400000, guid: 85cd5625801a7b04a91603d852adf3f8, type: 2}
    UnlockLevel: 1
  - Info: {fileID: 11400000, guid: 02d6cb038b063634b9ad03c91f224206, type: 2}
    UnlockLevel: 1
  - Info: {fileID: 11400000, guid: ff9a619b72c64b34bbd0e7cd74afda71, type: 2}
    UnlockLevel: 4
  - Info: {fileID: 11400000, guid: 85cd5625801a7b04a91603d852adf3f8, type: 2}
    UnlockLevel: 7
  - Info: {fileID: 11400000, guid: 02d6cb038b063634b9ad03c91f224206, type: 2}
    UnlockLevel: 10
  - Info: {fileID: 11400000, guid: b125a41387c352646805f9b67236e4e7, type: 2}
    UnlockLevel: 13
  - Info: {fileID: 11400000, guid: a0b12fe22886ff643942f77ceab41fb9, type: 2}
    UnlockLevel: 16
  - Info: {fileID: 11400000, guid: 81c5eb9cedf61544a8e47812a46ebdc8, type: 2}
    UnlockLevel: 20
  - Info: {fileID: 11400000, guid: 0cc110c3a64ae8048b3617510f609261, type: 2}
    UnlockLevel: 24
  - Info: {fileID: 11400000, guid: 73a0bfe4b673cef44b5585606995855b, type: 2}
    UnlockLevel: 28
  - Info: {fileID: 11400000, guid: 7bbbb383eb0c73a468bc35f6fbf78319, type: 2}
    UnlockLevel: 32
  - Info: {fileID: 11400000, guid: 8815c69ec9867d241803ec78194afc14, type: 2}
    UnlockLevel: 36
  - Info: {fileID: 11400000, guid: ec7583be9fa06d14184a8407c0608283, type: 2}
    UnlockLevel: 40
  - Info: {fileID: 11400000, guid: 23ab76adb40106649bb1d112b5855f8c, type: 2}
    UnlockLevel: 44
  - Info: {fileID: 11400000, guid: c0b43cc67a68bcc41adac477b9b6186d, type: 2}
    UnlockLevel: 48
  - Info: {fileID: 11400000, guid: 7619cc947695090439b6d8ef1c177795, type: 2}
    UnlockLevel: 52
  Types:
  - {fileID: 11400000, guid: 9013aa9c388209e498c7cc40001c20b9, type: 2}
  Health: 60
  Attack: 60
  Defense: 75
  SPAttack: 60
  SPDefense: 75
  Speed: 83
  Experience: 145
  IsShiny: 0
  Front: {fileID: 0}
  Back: {fileID: 0}
  Nature: {fileID: 0}
