%YAML 1.1
%TAG !u! tag:unity3d.com,2011:
--- !u!114 &11400000
MonoBehaviour:
  m_ObjectHideFlags: 0
  m_PrefabParentObject: {fileID: 0}
  m_PrefabInternal: {fileID: 0}
  m_GameObject: {fileID: 0}
  m_Enabled: 1
  m_EditorHideFlags: 0
  m_Script: {fileID: 11500000, guid: f7a371d3c077b734e8c6a79283f76ce1, type: 3}
  m_Name: Simisear
  m_EditorClassIdentifier: 
  FighterIDName: SIMISEAR
  FighterShowName: Simisear
  Level: 1
  Attacks:
  - Info: {fileID: 11400000, guid: ff9a619b72c64b34bbd0e7cd74afda71, type: 2}
    UnlockLevel: 1
  - Info: {fileID: 11400000, guid: f27e1d6c11295624d8f4d2c8e7818d9e, type: 2}
    UnlockLevel: 1
  - Info: {fileID: 11400000, guid: cf5abc1e28d8604408c380f4e3478d91, type: 2}
    UnlockLevel: 1
  - Info: {fileID: 11400000, guid: 5663cb52451bdf846a253ef3b9e54a4b, type: 2}
    UnlockLevel: 1
  Types:
  - {fileID: 11400000, guid: b2263d3942d9cee40b27a6d5ead1297d, type: 2}
  Health: 75
  Attack: 98
  Defense: 63
  SPAttack: 98
  SPDefense: 63
  Speed: 101
  Experience: 174
  IsShiny: 0
  Front: {fileID: 0}
  Back: {fileID: 0}
  Nature: {fileID: 0}
