%YAML 1.1
%TAG !u! tag:unity3d.com,2011:
--- !u!114 &11400000
MonoBehaviour:
  m_ObjectHideFlags: 0
  m_PrefabParentObject: {fileID: 0}
  m_PrefabInternal: {fileID: 0}
  m_GameObject: {fileID: 0}
  m_Enabled: 1
  m_EditorHideFlags: 0
  m_Script: {fileID: 11500000, guid: f7a371d3c077b734e8c6a79283f76ce1, type: 3}
  m_Name: Smoochum
  m_EditorClassIdentifier: 
  FighterIDName: SMOOCHUM
  FighterShowName: Smoochum
  Level: 1
  Attacks:
  - Info: {fileID: 11400000, guid: 606c2bcb526fed143972e7c91f810132, type: 2}
    UnlockLevel: 1
  - Info: {fileID: 11400000, guid: f27e1d6c11295624d8f4d2c8e7818d9e, type: 2}
    UnlockLevel: 5
  - Info: {fileID: 11400000, guid: 821a2bbe53b32a044bdc7af6861e0583, type: 2}
    UnlockLevel: 8
  - Info: {fileID: 11400000, guid: c9b5c238c7d026e409d84fc698d87934, type: 2}
    UnlockLevel: 11
  - Info: {fileID: 11400000, guid: a2f353ca478a3ab409ab868c224dc481, type: 2}
    UnlockLevel: 15
  - Info: {fileID: 11400000, guid: c3c9abdec16e2ec47b690829cb5649b0, type: 2}
    UnlockLevel: 18
  - Info: {fileID: 11400000, guid: f8af5121616a920458ad35ad85bd6069, type: 2}
    UnlockLevel: 21
  - Info: {fileID: 11400000, guid: 6f8e0fb8063fcff499e0491757402159, type: 2}
    UnlockLevel: 25
  - Info: {fileID: 11400000, guid: a187f2c6573ea6043b0f5c2dd0f4a552, type: 2}
    UnlockLevel: 28
  - Info: {fileID: 11400000, guid: 9b9397f6a83f9eb498534660a9ec27fa, type: 2}
    UnlockLevel: 31
  - Info: {fileID: 11400000, guid: 8f1da667d2294194c9e8b4dce45590d7, type: 2}
    UnlockLevel: 35
  - Info: {fileID: 11400000, guid: fb7b7fe6af6cb964ea0e6e9b932b389c, type: 2}
    UnlockLevel: 38
  - Info: {fileID: 11400000, guid: 5bdd031051f98d2429073a9a2e4b183a, type: 2}
    UnlockLevel: 41
  - Info: {fileID: 11400000, guid: 7b5ebab77985a5d45ab799d71bfa951a, type: 2}
    UnlockLevel: 45
  - Info: {fileID: 11400000, guid: 04259924d7392f848a2a15c9c8b694ab, type: 2}
    UnlockLevel: 48
  Types:
  - {fileID: 11400000, guid: 498eb535236adbf4aafda6c97768c2b7, type: 2}
  - {fileID: 11400000, guid: 6ab104ed0fffb2949b3b296c5c7eb603, type: 2}
  Health: 45
  Attack: 30
  Defense: 15
  SPAttack: 85
  SPDefense: 65
  Speed: 65
  Experience: 61
  IsShiny: 0
  Front: {fileID: 0}
  Back: {fileID: 0}
  Nature: {fileID: 0}
