%YAML 1.1
%TAG !u! tag:unity3d.com,2011:
--- !u!114 &11400000
MonoBehaviour:
  m_ObjectHideFlags: 0
  m_PrefabParentObject: {fileID: 0}
  m_PrefabInternal: {fileID: 0}
  m_GameObject: {fileID: 0}
  m_Enabled: 1
  m_EditorHideFlags: 0
  m_Script: {fileID: 11500000, guid: f7a371d3c077b734e8c6a79283f76ce1, type: 3}
  m_Name: Snorunt
  m_EditorClassIdentifier: 
  FighterIDName: SNORUNT
  FighterShowName: Snorunt
  Level: 1
  Attacks:
  - Info: {fileID: 11400000, guid: c9b5c238c7d026e409d84fc698d87934, type: 2}
    UnlockLevel: 1
  - Info: {fileID: 11400000, guid: ff9a619b72c64b34bbd0e7cd74afda71, type: 2}
    UnlockLevel: 1
  - Info: {fileID: 11400000, guid: 950d58be627d1444688d1c1c45a8e210, type: 2}
    UnlockLevel: 5
  - Info: {fileID: 11400000, guid: 81033c31ad1de9b4495fa4a654cf33e8, type: 2}
    UnlockLevel: 10
  - Info: {fileID: 11400000, guid: 514928b27d47c944c8a76de429e78827, type: 2}
    UnlockLevel: 14
  - Info: {fileID: 11400000, guid: 78d6565e4587cf546a56fccf771a17f2, type: 2}
    UnlockLevel: 19
  - Info: {fileID: 11400000, guid: c066bed003ca19b4297618a3bdcf500e, type: 2}
    UnlockLevel: 23
  - Info: {fileID: 11400000, guid: ce1a3e17e46972949a27701ac879297c, type: 2}
    UnlockLevel: 28
  - Info: {fileID: 11400000, guid: d04276be4bd800c46aba359a8062fc4c, type: 2}
    UnlockLevel: 32
  - Info: {fileID: 11400000, guid: 1585923e777235e4f9c267eba1ca0427, type: 2}
    UnlockLevel: 37
  - Info: {fileID: 11400000, guid: 96cda4380aa0cc748add614e7e69f874, type: 2}
    UnlockLevel: 41
  - Info: {fileID: 11400000, guid: 04259924d7392f848a2a15c9c8b694ab, type: 2}
    UnlockLevel: 46
  - Info: {fileID: 11400000, guid: 292437369c95b70458dba5e65f3e01aa, type: 2}
    UnlockLevel: 50
  Types:
  - {fileID: 11400000, guid: 498eb535236adbf4aafda6c97768c2b7, type: 2}
  Health: 50
  Attack: 50
  Defense: 50
  SPAttack: 50
  SPDefense: 50
  Speed: 50
  Experience: 60
  IsShiny: 0
  Front: {fileID: 0}
  Back: {fileID: 0}
  Nature: {fileID: 0}
