%YAML 1.1
%TAG !u! tag:unity3d.com,2011:
--- !u!114 &11400000
MonoBehaviour:
  m_ObjectHideFlags: 0
  m_PrefabParentObject: {fileID: 0}
  m_PrefabInternal: {fileID: 0}
  m_GameObject: {fileID: 0}
  m_Enabled: 1
  m_EditorHideFlags: 0
  m_Script: {fileID: 11500000, guid: f7a371d3c077b734e8c6a79283f76ce1, type: 3}
  m_Name: Spoink
  m_EditorClassIdentifier: 
  FighterIDName: SPOINK
  FighterShowName: Spoink
  Level: 1
  Attacks:
  - Info: {fileID: 11400000, guid: 63bbdf4baa0b0e247b1e86bc58ea6d7d, type: 2}
    UnlockLevel: 1
  - Info: {fileID: 11400000, guid: 6abe9ab13845b6a4cb8ccc1c08899a8d, type: 2}
    UnlockLevel: 7
  - Info: {fileID: 11400000, guid: bc56a9074e1067646b352b0f60cf20f0, type: 2}
    UnlockLevel: 10
  - Info: {fileID: 11400000, guid: 55361eb20ed5df44fa76b49f1359e70d, type: 2}
    UnlockLevel: 14
  - Info: {fileID: 11400000, guid: f419aabc484eee7498915419cc5f07be, type: 2}
    UnlockLevel: 15
  - Info: {fileID: 11400000, guid: 9a89875c161a90c42a05fd50718af534, type: 2}
    UnlockLevel: 18
  - Info: {fileID: 11400000, guid: 6a4b70019263d6440846663fe7d2143b, type: 2}
    UnlockLevel: 21
  - Info: {fileID: 11400000, guid: 23528101c326c0f47b0ea2b9a05a3464, type: 2}
    UnlockLevel: 26
  - Info: {fileID: 11400000, guid: 82a23c9108da75d409ad644443c4fe7e, type: 2}
    UnlockLevel: 29
  - Info: {fileID: 11400000, guid: 870ca5b2611656848a734636f34c7259, type: 2}
    UnlockLevel: 29
  - Info: {fileID: 11400000, guid: 2082bf1a77e655d4390aa47f8ea77f57, type: 2}
    UnlockLevel: 33
  - Info: {fileID: 11400000, guid: daa7cdcd3b0aec84ca1a5cb819de846e, type: 2}
    UnlockLevel: 38
  - Info: {fileID: 11400000, guid: 851a8959fc4db65459905ad693655be2, type: 2}
    UnlockLevel: 40
  - Info: {fileID: 11400000, guid: fb7b7fe6af6cb964ea0e6e9b932b389c, type: 2}
    UnlockLevel: 44
  - Info: {fileID: 11400000, guid: 5459e779804fc0146ba0d5e9f5921571, type: 2}
    UnlockLevel: 50
  Types:
  - {fileID: 11400000, guid: 6ab104ed0fffb2949b3b296c5c7eb603, type: 2}
  Health: 60
  Attack: 25
  Defense: 35
  SPAttack: 70
  SPDefense: 80
  Speed: 60
  Experience: 66
  IsShiny: 0
  Front: {fileID: 0}
  Back: {fileID: 0}
  Nature: {fileID: 0}
