%YAML 1.1
%TAG !u! tag:unity3d.com,2011:
--- !u!114 &11400000
MonoBehaviour:
  m_ObjectHideFlags: 0
  m_PrefabParentObject: {fileID: 0}
  m_PrefabInternal: {fileID: 0}
  m_GameObject: {fileID: 0}
  m_Enabled: 1
  m_EditorHideFlags: 0
  m_Script: {fileID: 11500000, guid: f7a371d3c077b734e8c6a79283f76ce1, type: 3}
  m_Name: Swampert
  m_EditorClassIdentifier: 
  FighterIDName: SWAMPERT
  FighterShowName: Swampert
  Level: 1
  Attacks:
  - Info: {fileID: 11400000, guid: 1a077ae8b6d40854291439dff847376f, type: 2}
    UnlockLevel: 1
  - Info: {fileID: 11400000, guid: f2eafcc30bd3f47418faaca7f81f0ad2, type: 2}
    UnlockLevel: 1
  - Info: {fileID: 11400000, guid: b5f0c5fa15024ab4f887c0948f682d1c, type: 2}
    UnlockLevel: 1
  - Info: {fileID: 11400000, guid: 8129c89ff1b66524e960913cf3688c46, type: 2}
    UnlockLevel: 1
  - Info: {fileID: 11400000, guid: 02d15518f762bc144aad19195dbbad73, type: 2}
    UnlockLevel: 1
  - Info: {fileID: 11400000, guid: 02d15518f762bc144aad19195dbbad73, type: 2}
    UnlockLevel: 4
  - Info: {fileID: 11400000, guid: 8129c89ff1b66524e960913cf3688c46, type: 2}
    UnlockLevel: 9
  - Info: {fileID: 11400000, guid: 536b554402f04ff46814b1f7cdd6215b, type: 2}
    UnlockLevel: 12
  - Info: {fileID: 11400000, guid: 0f8d8507da587424aaf084f5d113e2ba, type: 2}
    UnlockLevel: 16
  - Info: {fileID: 11400000, guid: 34bbaf062002eac41b3fc44e81e80d9e, type: 2}
    UnlockLevel: 18
  - Info: {fileID: 11400000, guid: 4f13755efd9dacf4980a885d4fe36c93, type: 2}
    UnlockLevel: 22
  - Info: {fileID: 11400000, guid: 8c639a55a7e50e540a4c05a3b0f7c8d4, type: 2}
    UnlockLevel: 28
  - Info: {fileID: 11400000, guid: d04276be4bd800c46aba359a8062fc4c, type: 2}
    UnlockLevel: 32
  - Info: {fileID: 11400000, guid: b386253ed8ff41e4897b033c7937589c, type: 2}
    UnlockLevel: 39
  - Info: {fileID: 11400000, guid: b6405890855b9df4993647366ae6467b, type: 2}
    UnlockLevel: 44
  - Info: {fileID: 11400000, guid: 6e868e7b2d08bf74dae70b4717f380ac, type: 2}
    UnlockLevel: 51
  - Info: {fileID: 11400000, guid: fda2eb59fc5bee44e808bdaed4ca69fc, type: 2}
    UnlockLevel: 56
  - Info: {fileID: 11400000, guid: 1a077ae8b6d40854291439dff847376f, type: 2}
    UnlockLevel: 63
  Types:
  - {fileID: 11400000, guid: 892e55384fa4038429488b25a0004457, type: 2}
  - {fileID: 11400000, guid: 9bce953606501074f95fb811ea470131, type: 2}
  Health: 100
  Attack: 110
  Defense: 90
  SPAttack: 85
  SPDefense: 90
  Speed: 60
  Experience: 241
  IsShiny: 0
  Front: {fileID: 0}
  Back: {fileID: 0}
  Nature: {fileID: 0}
