%YAML 1.1
%TAG !u! tag:unity3d.com,2011:
--- !u!114 &11400000
MonoBehaviour:
  m_ObjectHideFlags: 0
  m_PrefabParentObject: {fileID: 0}
  m_PrefabInternal: {fileID: 0}
  m_GameObject: {fileID: 0}
  m_Enabled: 1
  m_EditorHideFlags: 0
  m_Script: {fileID: 11500000, guid: f7a371d3c077b734e8c6a79283f76ce1, type: 3}
  m_Name: Swinub
  m_EditorClassIdentifier: 
  FighterIDName: SWINUB
  FighterShowName: Swinub
  Level: 1
  Attacks:
  - Info: {fileID: 11400000, guid: f2eafcc30bd3f47418faaca7f81f0ad2, type: 2}
    UnlockLevel: 1
  - Info: {fileID: 11400000, guid: bc56a9074e1067646b352b0f60cf20f0, type: 2}
    UnlockLevel: 1
  - Info: {fileID: 11400000, guid: 47efa6a7107dc634289c735cfa955e72, type: 2}
    UnlockLevel: 5
  - Info: {fileID: 11400000, guid: c9b5c238c7d026e409d84fc698d87934, type: 2}
    UnlockLevel: 8
  - Info: {fileID: 11400000, guid: 8129c89ff1b66524e960913cf3688c46, type: 2}
    UnlockLevel: 11
  - Info: {fileID: 11400000, guid: 4742cdee267eae445bb554a6fcd648c9, type: 2}
    UnlockLevel: 14
  - Info: {fileID: 11400000, guid: 4f13755efd9dacf4980a885d4fe36c93, type: 2}
    UnlockLevel: 18
  - Info: {fileID: 11400000, guid: 514928b27d47c944c8a76de429e78827, type: 2}
    UnlockLevel: 21
  - Info: {fileID: 11400000, guid: 81033c31ad1de9b4495fa4a654cf33e8, type: 2}
    UnlockLevel: 24
  - Info: {fileID: 11400000, guid: b6405890855b9df4993647366ae6467b, type: 2}
    UnlockLevel: 28
  - Info: {fileID: 11400000, guid: 93120418ded562b47831eb5867052e69, type: 2}
    UnlockLevel: 35
  - Info: {fileID: 11400000, guid: 6e868e7b2d08bf74dae70b4717f380ac, type: 2}
    UnlockLevel: 37
  - Info: {fileID: 11400000, guid: 7f8f41d987e8f4049925abea1e720837, type: 2}
    UnlockLevel: 40
  - Info: {fileID: 11400000, guid: 04259924d7392f848a2a15c9c8b694ab, type: 2}
    UnlockLevel: 44
  - Info: {fileID: 11400000, guid: 4bfebfd887e1b5b4da190dddfb1b9c3d, type: 2}
    UnlockLevel: 48
  Types:
  - {fileID: 11400000, guid: 498eb535236adbf4aafda6c97768c2b7, type: 2}
  - {fileID: 11400000, guid: 9bce953606501074f95fb811ea470131, type: 2}
  Health: 50
  Attack: 50
  Defense: 40
  SPAttack: 30
  SPDefense: 30
  Speed: 50
  Experience: 50
  IsShiny: 0
  Front: {fileID: 0}
  Back: {fileID: 0}
  Nature: {fileID: 0}
