%YAML 1.1
%TAG !u! tag:unity3d.com,2011:
--- !u!114 &11400000
MonoBehaviour:
  m_ObjectHideFlags: 0
  m_PrefabParentObject: {fileID: 0}
  m_PrefabInternal: {fileID: 0}
  m_GameObject: {fileID: 0}
  m_Enabled: 1
  m_EditorHideFlags: 0
  m_Script: {fileID: 11500000, guid: f7a371d3c077b734e8c6a79283f76ce1, type: 3}
  m_Name: Taillow
  m_EditorClassIdentifier: 
  FighterIDName: TAILLOW
  FighterShowName: Taillow
  Level: 1
  Attacks:
  - Info: {fileID: 11400000, guid: 4915ebb5dc88dda4692ea608f3342b7f, type: 2}
    UnlockLevel: 1
  - Info: {fileID: 11400000, guid: b5f0c5fa15024ab4f887c0948f682d1c, type: 2}
    UnlockLevel: 1
  - Info: {fileID: 11400000, guid: 08c60fe3d93c6d04c9f9d6ae0089cefc, type: 2}
    UnlockLevel: 5
  - Info: {fileID: 11400000, guid: 3f22a5e8b79f95d4791e16260dfea1bf, type: 2}
    UnlockLevel: 9
  - Info: {fileID: 11400000, guid: 29a966ad6d12b734ab3d9305c90ab321, type: 2}
    UnlockLevel: 13
  - Info: {fileID: 11400000, guid: 950d58be627d1444688d1c1c45a8e210, type: 2}
    UnlockLevel: 17
  - Info: {fileID: 11400000, guid: c4cc27a74148229499bfeeb0b284e540, type: 2}
    UnlockLevel: 21
  - Info: {fileID: 11400000, guid: dc1ff5f5fce920a4199924d0835c0584, type: 2}
    UnlockLevel: 25
  - Info: {fileID: 11400000, guid: 9670989c9e32e4d41b527fcf211cb072, type: 2}
    UnlockLevel: 29
  - Info: {fileID: 11400000, guid: 3e63cc0a05a1b3849879f10e7fe6683c, type: 2}
    UnlockLevel: 33
  - Info: {fileID: 11400000, guid: fda2eb59fc5bee44e808bdaed4ca69fc, type: 2}
    UnlockLevel: 37
  - Info: {fileID: 11400000, guid: df3f46602f2f7a3458e02bc1547ba37f, type: 2}
    UnlockLevel: 41
  Types:
  - {fileID: 11400000, guid: 3e51a82ce5c89e94ba1a2824788016d3, type: 2}
  - {fileID: 11400000, guid: 0973b6dbda6985f49a4dacdef07c9047, type: 2}
  Health: 40
  Attack: 55
  Defense: 30
  SPAttack: 30
  SPDefense: 30
  Speed: 85
  Experience: 54
  IsShiny: 0
  Front: {fileID: 0}
  Back: {fileID: 0}
  Nature: {fileID: 0}
