%YAML 1.1
%TAG !u! tag:unity3d.com,2011:
--- !u!114 &11400000
MonoBehaviour:
  m_ObjectHideFlags: 0
  m_PrefabParentObject: {fileID: 0}
  m_PrefabInternal: {fileID: 0}
  m_GameObject: {fileID: 0}
  m_Enabled: 1
  m_EditorHideFlags: 0
  m_Script: {fileID: 11500000, guid: f7a371d3c077b734e8c6a79283f76ce1, type: 3}
  m_Name: Togetic
  m_EditorClassIdentifier: 
  FighterIDName: TOGETIC
  FighterShowName: Togetic
  Level: 1
  Attacks:
  - Info: {fileID: 11400000, guid: 1c7ea99f3fb29dd49986cdb06b6f8562, type: 2}
    UnlockLevel: 1
  - Info: {fileID: 11400000, guid: b5f0c5fa15024ab4f887c0948f682d1c, type: 2}
    UnlockLevel: 1
  - Info: {fileID: 11400000, guid: 5a9e071dd6a4c9842826114be48624d2, type: 2}
    UnlockLevel: 1
  - Info: {fileID: 11400000, guid: 3a59974215f40204ca4d05d970aa724b, type: 2}
    UnlockLevel: 1
  - Info: {fileID: 11400000, guid: 821a2bbe53b32a044bdc7af6861e0583, type: 2}
    UnlockLevel: 1
  - Info: {fileID: 11400000, guid: 3a59974215f40204ca4d05d970aa724b, type: 2}
    UnlockLevel: 5
  - Info: {fileID: 11400000, guid: 821a2bbe53b32a044bdc7af6861e0583, type: 2}
    UnlockLevel: 9
  - Info: {fileID: 11400000, guid: dd9d7d707c128904d93aab80e5c5cc47, type: 2}
    UnlockLevel: 13
  - Info: {fileID: 11400000, guid: df3e27159641382499f177aaf98ecd1d, type: 2}
    UnlockLevel: 14
  - Info: {fileID: 11400000, guid: 2f47cefd6769fcc45b79aab46c452fbf, type: 2}
    UnlockLevel: 17
  - Info: {fileID: 11400000, guid: 0f24810630f61f942806b0a05c0e7269, type: 2}
    UnlockLevel: 21
  - Info: {fileID: 11400000, guid: 09bee3afb03b65f4a941aefc11485f9c, type: 2}
    UnlockLevel: 25
  - Info: {fileID: 11400000, guid: a501fabf27ed09f4d97df3b5a3361f42, type: 2}
    UnlockLevel: 29
  - Info: {fileID: 11400000, guid: ca6c940bfb9054b40b65235800b926f4, type: 2}
    UnlockLevel: 33
  - Info: {fileID: 11400000, guid: 6cd4d2fdec43d4a4383e3058f7679ab0, type: 2}
    UnlockLevel: 37
  - Info: {fileID: 11400000, guid: 75c58c550cf77ae4abb66f9f4d976f88, type: 2}
    UnlockLevel: 41
  - Info: {fileID: 11400000, guid: 73b36bf5b1878fb4b9a6b88cbbcd4833, type: 2}
    UnlockLevel: 45
  - Info: {fileID: 11400000, guid: 5a58b8e69afe4a94a9e29fcb52aff4c4, type: 2}
    UnlockLevel: 49
  - Info: {fileID: 11400000, guid: 5cdb640cab8a7c948bf585ea1c8e9e2d, type: 2}
    UnlockLevel: 53
  Types:
  - {fileID: 11400000, guid: 57d5c332bc212a047a73d3810bd3f7cb, type: 2}
  - {fileID: 11400000, guid: 0973b6dbda6985f49a4dacdef07c9047, type: 2}
  Health: 55
  Attack: 40
  Defense: 85
  SPAttack: 80
  SPDefense: 105
  Speed: 40
  Experience: 142
  IsShiny: 0
  Front: {fileID: 0}
  Back: {fileID: 0}
  Nature: {fileID: 0}
