%YAML 1.1
%TAG !u! tag:unity3d.com,2011:
--- !u!114 &11400000
MonoBehaviour:
  m_ObjectHideFlags: 0
  m_PrefabParentObject: {fileID: 0}
  m_PrefabInternal: {fileID: 0}
  m_GameObject: {fileID: 0}
  m_Enabled: 1
  m_EditorHideFlags: 0
  m_Script: {fileID: 11500000, guid: f7a371d3c077b734e8c6a79283f76ce1, type: 3}
  m_Name: Vanilluxe
  m_EditorClassIdentifier: 
  FighterIDName: VANILLUXE
  FighterShowName: Vanilluxe
  Level: 1
  Attacks:
  - Info: {fileID: 11400000, guid: 6302b8269a7dd9445aa416ac69259723, type: 2}
    UnlockLevel: 1
  - Info: {fileID: 11400000, guid: c49eb990b502c9e4883b98d9c347a893, type: 2}
    UnlockLevel: 1
  - Info: {fileID: 11400000, guid: e467c3f05a19cff458add6ffbe2037a9, type: 2}
    UnlockLevel: 1
  - Info: {fileID: 11400000, guid: 6728ff0e00a9d494a8963f017234e016, type: 2}
    UnlockLevel: 1
  - Info: {fileID: 11400000, guid: 624bb10375fc74e439e9e39bd6b4cd0f, type: 2}
    UnlockLevel: 1
  - Info: {fileID: 11400000, guid: bc077637c71f39c42b46de9a6ea9ce1f, type: 2}
    UnlockLevel: 1
  - Info: {fileID: 11400000, guid: 772fd8b20f2344441aefef7d40ad0d7e, type: 2}
    UnlockLevel: 1
  - Info: {fileID: 11400000, guid: 624bb10375fc74e439e9e39bd6b4cd0f, type: 2}
    UnlockLevel: 4
  - Info: {fileID: 11400000, guid: bc077637c71f39c42b46de9a6ea9ce1f, type: 2}
    UnlockLevel: 7
  - Info: {fileID: 11400000, guid: 772fd8b20f2344441aefef7d40ad0d7e, type: 2}
    UnlockLevel: 10
  - Info: {fileID: 11400000, guid: 514928b27d47c944c8a76de429e78827, type: 2}
    UnlockLevel: 13
  - Info: {fileID: 11400000, guid: 93120418ded562b47831eb5867052e69, type: 2}
    UnlockLevel: 16
  - Info: {fileID: 11400000, guid: 8f1da667d2294194c9e8b4dce45590d7, type: 2}
    UnlockLevel: 19
  - Info: {fileID: 11400000, guid: 8f4bdc757ba4a904a805d11d67a6bef3, type: 2}
    UnlockLevel: 22
  - Info: {fileID: 11400000, guid: 48e27dd5170f77f4aa9898b933931956, type: 2}
    UnlockLevel: 26
  - Info: {fileID: 11400000, guid: 74a9f7ab02f8ff2498fc35d334fbd88a, type: 2}
    UnlockLevel: 31
  - Info: {fileID: 11400000, guid: 2613e24817b1dba4f8125629bb2b06a5, type: 2}
    UnlockLevel: 36
  - Info: {fileID: 11400000, guid: 292437369c95b70458dba5e65f3e01aa, type: 2}
    UnlockLevel: 42
  - Info: {fileID: 11400000, guid: c5f84c112e68a404992bbf522ee943d0, type: 2}
    UnlockLevel: 50
  - Info: {fileID: 11400000, guid: 04259924d7392f848a2a15c9c8b694ab, type: 2}
    UnlockLevel: 59
  - Info: {fileID: 11400000, guid: 6302b8269a7dd9445aa416ac69259723, type: 2}
    UnlockLevel: 67
  Types:
  - {fileID: 11400000, guid: 498eb535236adbf4aafda6c97768c2b7, type: 2}
  Health: 71
  Attack: 95
  Defense: 85
  SPAttack: 110
  SPDefense: 95
  Speed: 79
  Experience: 241
  IsShiny: 0
  Front: {fileID: 0}
  Back: {fileID: 0}
  Nature: {fileID: 0}
