%YAML 1.1
%TAG !u! tag:unity3d.com,2011:
--- !u!114 &11400000
MonoBehaviour:
  m_ObjectHideFlags: 0
  m_PrefabParentObject: {fileID: 0}
  m_PrefabInternal: {fileID: 0}
  m_GameObject: {fileID: 0}
  m_Enabled: 1
  m_EditorHideFlags: 0
  m_Script: {fileID: 11500000, guid: f7a371d3c077b734e8c6a79283f76ce1, type: 3}
  m_Name: Venusaur
  m_EditorClassIdentifier: 
  FighterIDName: VENUSAUR
  FighterShowName: Venusaur
  Level: 1
  Attacks:
  - Info: {fileID: 11400000, guid: f2eafcc30bd3f47418faaca7f81f0ad2, type: 2}
    UnlockLevel: 1
  - Info: {fileID: 11400000, guid: b5f0c5fa15024ab4f887c0948f682d1c, type: 2}
    UnlockLevel: 1
  - Info: {fileID: 11400000, guid: 81c5eb9cedf61544a8e47812a46ebdc8, type: 2}
    UnlockLevel: 1
  - Info: {fileID: 11400000, guid: 85cd5625801a7b04a91603d852adf3f8, type: 2}
    UnlockLevel: 1
  - Info: {fileID: 11400000, guid: b5f0c5fa15024ab4f887c0948f682d1c, type: 2}
    UnlockLevel: 3
  - Info: {fileID: 11400000, guid: 81c5eb9cedf61544a8e47812a46ebdc8, type: 2}
    UnlockLevel: 7
  - Info: {fileID: 11400000, guid: 85cd5625801a7b04a91603d852adf3f8, type: 2}
    UnlockLevel: 9
  - Info: {fileID: 11400000, guid: 60ed829df0987f5498bd3e4a150c91b7, type: 2}
    UnlockLevel: 13
  - Info: {fileID: 11400000, guid: 46c94381842393448a69452d1c6b93ca, type: 2}
    UnlockLevel: 13
  - Info: {fileID: 11400000, guid: b6405890855b9df4993647366ae6467b, type: 2}
    UnlockLevel: 15
  - Info: {fileID: 11400000, guid: 26e96eeecdd6eef44bd58a4ce436d67d, type: 2}
    UnlockLevel: 20
  - Info: {fileID: 11400000, guid: 698e1dc8f492f4c4cb35c5be64319e81, type: 2}
    UnlockLevel: 23
  - Info: {fileID: 11400000, guid: b125a41387c352646805f9b67236e4e7, type: 2}
    UnlockLevel: 28
  - Info: {fileID: 11400000, guid: 73b36bf5b1878fb4b9a6b88cbbcd4833, type: 2}
    UnlockLevel: 31
  - Info: {fileID: 11400000, guid: 0b07a0f1e4018a241954d73c3912c161, type: 2}
    UnlockLevel: 32
  - Info: {fileID: 11400000, guid: c3854942ad9038f4988efe138a8d2edb, type: 2}
    UnlockLevel: 39
  - Info: {fileID: 11400000, guid: 2e95953a8fce44b478f019df820e31e0, type: 2}
    UnlockLevel: 45
  - Info: {fileID: 11400000, guid: dfcd4052b2ea5b94fbabc2d3fe6a0076, type: 2}
    UnlockLevel: 50
  - Info: {fileID: 11400000, guid: ec10853d60102274db7543ce21f38b4c, type: 2}
    UnlockLevel: 53
  Types:
  - {fileID: 11400000, guid: 9013aa9c388209e498c7cc40001c20b9, type: 2}
  - {fileID: 11400000, guid: 59f2fca58cea2e4459ec19299719ad21, type: 2}
  Health: 80
  Attack: 82
  Defense: 83
  SPAttack: 100
  SPDefense: 100
  Speed: 80
  Experience: 236
  IsShiny: 0
  Front: {fileID: 0}
  Back: {fileID: 0}
  Nature: {fileID: 0}
