%YAML 1.1
%TAG !u! tag:unity3d.com,2011:
--- !u!114 &11400000
MonoBehaviour:
  m_ObjectHideFlags: 0
  m_PrefabParentObject: {fileID: 0}
  m_PrefabInternal: {fileID: 0}
  m_GameObject: {fileID: 0}
  m_Enabled: 1
  m_EditorHideFlags: 0
  m_Script: {fileID: 11500000, guid: f7a371d3c077b734e8c6a79283f76ce1, type: 3}
  m_Name: Vespiquen
  m_EditorClassIdentifier: 
  FighterIDName: VESPIQUEN
  FighterShowName: Vespiquen
  Level: 1
  Attacks:
  - Info: {fileID: 11400000, guid: 306ba74bdbcda314ca047e46a77e96f9, type: 2}
    UnlockLevel: 1
  - Info: {fileID: 11400000, guid: 73a759fa359ba53449d82172bf4fa0ab, type: 2}
    UnlockLevel: 1
  - Info: {fileID: 11400000, guid: 698e1dc8f492f4c4cb35c5be64319e81, type: 2}
    UnlockLevel: 1
  - Info: {fileID: 11400000, guid: 1ac48ebe31abf364e9daf8ac276f0b18, type: 2}
    UnlockLevel: 1
  - Info: {fileID: 11400000, guid: 8b5bc5bc5e80fd3428791efaadd1d33c, type: 2}
    UnlockLevel: 1
  - Info: {fileID: 11400000, guid: 9a89875c161a90c42a05fd50718af534, type: 2}
    UnlockLevel: 1
  - Info: {fileID: 11400000, guid: 06cf5ef60e19e88418a5936bf3cb78f1, type: 2}
    UnlockLevel: 5
  - Info: {fileID: 11400000, guid: ac27f4ed62e5b5049b5edfe302614f5c, type: 2}
    UnlockLevel: 9
  - Info: {fileID: 11400000, guid: cf5abc1e28d8604408c380f4e3478d91, type: 2}
    UnlockLevel: 13
  - Info: {fileID: 11400000, guid: 292c53522b3bb7b4eb146fbd22b13e20, type: 2}
    UnlockLevel: 17
  - Info: {fileID: 11400000, guid: f431e5480eb00184790591673c2f18e3, type: 2}
    UnlockLevel: 21
  - Info: {fileID: 11400000, guid: 82a23c9108da75d409ad644443c4fe7e, type: 2}
    UnlockLevel: 25
  - Info: {fileID: 11400000, guid: 1d59009c4bbd14d4fb8e34f259afc5fa, type: 2}
    UnlockLevel: 29
  - Info: {fileID: 11400000, guid: a6c93f356d3c02e4d812085da4160dc6, type: 2}
    UnlockLevel: 33
  - Info: {fileID: 11400000, guid: 3e63cc0a05a1b3849879f10e7fe6683c, type: 2}
    UnlockLevel: 37
  - Info: {fileID: 11400000, guid: 7f11761a2faee9e4cbd994e4b3864d07, type: 2}
    UnlockLevel: 41
  - Info: {fileID: 11400000, guid: 568e26df8916bdf47b8a268ff9e76b90, type: 2}
    UnlockLevel: 45
  - Info: {fileID: 11400000, guid: f88f80f02174765408533e13a8d07ff0, type: 2}
    UnlockLevel: 49
  - Info: {fileID: 11400000, guid: 73a759fa359ba53449d82172bf4fa0ab, type: 2}
    UnlockLevel: 53
  - Info: {fileID: 11400000, guid: 306ba74bdbcda314ca047e46a77e96f9, type: 2}
    UnlockLevel: 57
  Types:
  - {fileID: 11400000, guid: 0f07cb8f52a4e464fa188043a8de5605, type: 2}
  - {fileID: 11400000, guid: 0973b6dbda6985f49a4dacdef07c9047, type: 2}
  Health: 70
  Attack: 80
  Defense: 102
  SPAttack: 80
  SPDefense: 102
  Speed: 40
  Experience: 166
  IsShiny: 0
  Front: {fileID: 0}
  Back: {fileID: 0}
  Nature: {fileID: 0}
