%YAML 1.1
%TAG !u! tag:unity3d.com,2011:
--- !u!114 &11400000
MonoBehaviour:
  m_ObjectHideFlags: 0
  m_PrefabParentObject: {fileID: 0}
  m_PrefabInternal: {fileID: 0}
  m_GameObject: {fileID: 0}
  m_Enabled: 1
  m_EditorHideFlags: 0
  m_Script: {fileID: 11500000, guid: f7a371d3c077b734e8c6a79283f76ce1, type: 3}
  m_Name: Wartortle
  m_EditorClassIdentifier: 
  FighterIDName: WARTORTLE
  FighterShowName: Wartortle
  Level: 1
  Attacks:
  - Info: {fileID: 11400000, guid: f2eafcc30bd3f47418faaca7f81f0ad2, type: 2}
    UnlockLevel: 1
  - Info: {fileID: 11400000, guid: d51902e7be2d7a145b1e4ef7fb23bbe5, type: 2}
    UnlockLevel: 1
  - Info: {fileID: 11400000, guid: 02d15518f762bc144aad19195dbbad73, type: 2}
    UnlockLevel: 1
  - Info: {fileID: 11400000, guid: d51902e7be2d7a145b1e4ef7fb23bbe5, type: 2}
    UnlockLevel: 4
  - Info: {fileID: 11400000, guid: 02d15518f762bc144aad19195dbbad73, type: 2}
    UnlockLevel: 7
  - Info: {fileID: 11400000, guid: b8247f930d181294e96ac8667ba95cb9, type: 2}
    UnlockLevel: 10
  - Info: {fileID: 11400000, guid: 13de6f2a10560bc4eb3b08553d811b66, type: 2}
    UnlockLevel: 13
  - Info: {fileID: 11400000, guid: 78d6565e4587cf546a56fccf771a17f2, type: 2}
    UnlockLevel: 16
  - Info: {fileID: 11400000, guid: c743836096577064082a5528b9429dfe, type: 2}
    UnlockLevel: 20
  - Info: {fileID: 11400000, guid: d04276be4bd800c46aba359a8062fc4c, type: 2}
    UnlockLevel: 24
  - Info: {fileID: 11400000, guid: f2153a9a81374f84f9d4f6f9010749e2, type: 2}
    UnlockLevel: 28
  - Info: {fileID: 11400000, guid: aa7cf8e261f912349962c8f1b70ef99e, type: 2}
    UnlockLevel: 32
  - Info: {fileID: 11400000, guid: 7a18f6ff1d3d0fa47a660c06bb551d78, type: 2}
    UnlockLevel: 36
  - Info: {fileID: 11400000, guid: c06b5fc43f8c26f4a98788cf49c70281, type: 2}
    UnlockLevel: 40
  - Info: {fileID: 11400000, guid: 68fb658e6a249404b925505fd4842034, type: 2}
    UnlockLevel: 44
  - Info: {fileID: 11400000, guid: 1f3162798bc51bd47ab87c9c09526297, type: 2}
    UnlockLevel: 48
  Types:
  - {fileID: 11400000, guid: 892e55384fa4038429488b25a0004457, type: 2}
  Health: 59
  Attack: 63
  Defense: 80
  SPAttack: 65
  SPDefense: 80
  Speed: 58
  Experience: 142
  IsShiny: 0
  Front: {fileID: 0}
  Back: {fileID: 0}
  Nature: {fileID: 0}
