%YAML 1.1
%TAG !u! tag:unity3d.com,2011:
--- !u!114 &11400000
MonoBehaviour:
  m_ObjectHideFlags: 0
  m_PrefabParentObject: {fileID: 0}
  m_PrefabInternal: {fileID: 0}
  m_GameObject: {fileID: 0}
  m_Enabled: 1
  m_EditorHideFlags: 0
  m_Script: {fileID: 11500000, guid: f7a371d3c077b734e8c6a79283f76ce1, type: 3}
  m_Name: Watchog
  m_EditorClassIdentifier: 
  FighterIDName: WATCHOG
  FighterShowName: Watchog
  Level: 1
  Attacks:
  - Info: {fileID: 11400000, guid: a39a61a68ddef564f9106a7913cc5536, type: 2}
    UnlockLevel: 1
  - Info: {fileID: 11400000, guid: f2eafcc30bd3f47418faaca7f81f0ad2, type: 2}
    UnlockLevel: 1
  - Info: {fileID: 11400000, guid: ff9a619b72c64b34bbd0e7cd74afda71, type: 2}
    UnlockLevel: 1
  - Info: {fileID: 11400000, guid: 78d6565e4587cf546a56fccf771a17f2, type: 2}
    UnlockLevel: 1
  - Info: {fileID: 11400000, guid: dd39e7b5b5cddb148988ce9c9664d377, type: 2}
    UnlockLevel: 1
  - Info: {fileID: 11400000, guid: ff9a619b72c64b34bbd0e7cd74afda71, type: 2}
    UnlockLevel: 3
  - Info: {fileID: 11400000, guid: 78d6565e4587cf546a56fccf771a17f2, type: 2}
    UnlockLevel: 6
  - Info: {fileID: 11400000, guid: 34bbaf062002eac41b3fc44e81e80d9e, type: 2}
    UnlockLevel: 8
  - Info: {fileID: 11400000, guid: 9462993250d68e04e936d4add0f893d0, type: 2}
    UnlockLevel: 11
  - Info: {fileID: 11400000, guid: 6eab2f1a18e675c4f8d8bb28fda59603, type: 2}
    UnlockLevel: 13
  - Info: {fileID: 11400000, guid: 96cda4380aa0cc748add614e7e69f874, type: 2}
    UnlockLevel: 16
  - Info: {fileID: 11400000, guid: 2af2f53b70656584aa9bc8719435fe6b, type: 2}
    UnlockLevel: 18
  - Info: {fileID: 11400000, guid: 9a89875c161a90c42a05fd50718af534, type: 2}
    UnlockLevel: 20
  - Info: {fileID: 11400000, guid: d7154cdce69077840b2c2ead7781913b, type: 2}
    UnlockLevel: 22
  - Info: {fileID: 11400000, guid: 5cdb640cab8a7c948bf585ea1c8e9e2d, type: 2}
    UnlockLevel: 25
  - Info: {fileID: 11400000, guid: f419aabc484eee7498915419cc5f07be, type: 2}
    UnlockLevel: 29
  - Info: {fileID: 11400000, guid: 1fdbcb549f2ca1141aacea246248fee6, type: 2}
    UnlockLevel: 32
  - Info: {fileID: 11400000, guid: 6f8e0fb8063fcff499e0491757402159, type: 2}
    UnlockLevel: 36
  - Info: {fileID: 11400000, guid: 75c58c550cf77ae4abb66f9f4d976f88, type: 2}
    UnlockLevel: 39
  - Info: {fileID: 11400000, guid: 73a0bfe4b673cef44b5585606995855b, type: 2}
    UnlockLevel: 43
  Types:
  - {fileID: 11400000, guid: 3e51a82ce5c89e94ba1a2824788016d3, type: 2}
  Health: 60
  Attack: 85
  Defense: 69
  SPAttack: 60
  SPDefense: 69
  Speed: 77
  Experience: 147
  IsShiny: 0
  Front: {fileID: 0}
  Back: {fileID: 0}
  Nature: {fileID: 0}
