%YAML 1.1
%TAG !u! tag:unity3d.com,2011:
--- !u!114 &11400000
MonoBehaviour:
  m_ObjectHideFlags: 0
  m_PrefabParentObject: {fileID: 0}
  m_PrefabInternal: {fileID: 0}
  m_GameObject: {fileID: 0}
  m_Enabled: 1
  m_EditorHideFlags: 0
  m_Script: {fileID: 11500000, guid: f7a371d3c077b734e8c6a79283f76ce1, type: 3}
  m_Name: Whismur
  m_EditorClassIdentifier: 
  FighterIDName: WHISMUR
  FighterShowName: Whismur
  Level: 1
  Attacks:
  - Info: {fileID: 11400000, guid: 606c2bcb526fed143972e7c91f810132, type: 2}
    UnlockLevel: 1
  - Info: {fileID: 11400000, guid: e00c528bd783fbd408df106467929fa5, type: 2}
    UnlockLevel: 4
  - Info: {fileID: 11400000, guid: bc077637c71f39c42b46de9a6ea9ce1f, type: 2}
    UnlockLevel: 8
  - Info: {fileID: 11400000, guid: 88010d42a5b34b6498fb8950b8993777, type: 2}
    UnlockLevel: 11
  - Info: {fileID: 11400000, guid: 7f3ca70281d87284d9f41c54d620cc36, type: 2}
    UnlockLevel: 15
  - Info: {fileID: 11400000, guid: 01f80047b83f7154a918473a8634b266, type: 2}
    UnlockLevel: 18
  - Info: {fileID: 11400000, guid: 01bc17fd70695054ba4c8b7a915ad2cb, type: 2}
    UnlockLevel: 22
  - Info: {fileID: 11400000, guid: 772fd8b20f2344441aefef7d40ad0d7e, type: 2}
    UnlockLevel: 25
  - Info: {fileID: 11400000, guid: 32db2be791f52e14a80ce635023f777d, type: 2}
    UnlockLevel: 29
  - Info: {fileID: 11400000, guid: 870ca5b2611656848a734636f34c7259, type: 2}
    UnlockLevel: 32
  - Info: {fileID: 11400000, guid: d64980bd645cde3429401dca71b9ba36, type: 2}
    UnlockLevel: 36
  - Info: {fileID: 11400000, guid: 7c1d4e753d6aad24da38d4f3e0fe68d5, type: 2}
    UnlockLevel: 39
  - Info: {fileID: 11400000, guid: 81941decc54f9ab4e99954562e9ff7b9, type: 2}
    UnlockLevel: 43
  Types:
  - {fileID: 11400000, guid: 3e51a82ce5c89e94ba1a2824788016d3, type: 2}
  Health: 64
  Attack: 51
  Defense: 23
  SPAttack: 51
  SPDefense: 23
  Speed: 28
  Experience: 48
  IsShiny: 0
  Front: {fileID: 0}
  Back: {fileID: 0}
  Nature: {fileID: 0}
