%YAML 1.1
%TAG !u! tag:unity3d.com,2011:
--- !u!114 &11400000
MonoBehaviour:
  m_ObjectHideFlags: 0
  m_PrefabParentObject: {fileID: 0}
  m_PrefabInternal: {fileID: 0}
  m_GameObject: {fileID: 0}
  m_Enabled: 1
  m_EditorHideFlags: 0
  m_Script: {fileID: 11500000, guid: f7a371d3c077b734e8c6a79283f76ce1, type: 3}
  m_Name: Wigglytuff
  m_EditorClassIdentifier: 
  FighterIDName: WIGGLYTUFF
  FighterShowName: Wigglytuff
  Level: 1
  Attacks:
  - Info: {fileID: 11400000, guid: 73b36bf5b1878fb4b9a6b88cbbcd4833, type: 2}
    UnlockLevel: 1
  - Info: {fileID: 11400000, guid: cd292a6fb9943ae4b931ffb424e9593b, type: 2}
    UnlockLevel: 1
  - Info: {fileID: 11400000, guid: c3c9abdec16e2ec47b690829cb5649b0, type: 2}
    UnlockLevel: 1
  - Info: {fileID: 11400000, guid: 9bfe42524092c6945b53a1d4fafb376f, type: 2}
    UnlockLevel: 1
  - Info: {fileID: 11400000, guid: 73e7714b9fb1a504dbe30a95f529e626, type: 2}
    UnlockLevel: 1
  - Info: {fileID: 11400000, guid: 15938e71a11094449a94d9472d3c46be, type: 2}
    UnlockLevel: 1
  Types:
  - {fileID: 11400000, guid: 3e51a82ce5c89e94ba1a2824788016d3, type: 2}
  - {fileID: 11400000, guid: 57d5c332bc212a047a73d3810bd3f7cb, type: 2}
  Health: 140
  Attack: 70
  Defense: 45
  SPAttack: 85
  SPDefense: 50
  Speed: 45
  Experience: 191
  IsShiny: 0
  Front: {fileID: 0}
  Back: {fileID: 0}
  Nature: {fileID: 0}
