%YAML 1.1
%TAG !u! tag:unity3d.com,2011:
--- !u!114 &11400000
MonoBehaviour:
  m_ObjectHideFlags: 0
  m_PrefabParentObject: {fileID: 0}
  m_PrefabInternal: {fileID: 0}
  m_GameObject: {fileID: 0}
  m_Enabled: 1
  m_EditorHideFlags: 0
  m_Script: {fileID: 11500000, guid: f7a371d3c077b734e8c6a79283f76ce1, type: 3}
  m_Name: Yakara
  m_EditorClassIdentifier: 
  FighterIDName: YAKARA
  FighterShowName: Yakara
  Level: 1
  Attacks:
  - Info: {fileID: 11400000, guid: 77f770e1ce2dd1b42ba50c4651afeb68, type: 2}
    UnlockLevel: 1
  - Info: {fileID: 11400000, guid: 9ca624c53051f6e41b3070f02ba23d96, type: 2}
    UnlockLevel: 1
  - Info: {fileID: 11400000, guid: 3f22a5e8b79f95d4791e16260dfea1bf, type: 2}
    UnlockLevel: 1
  - Info: {fileID: 11400000, guid: 08c60fe3d93c6d04c9f9d6ae0089cefc, type: 2}
    UnlockLevel: 7
  - Info: {fileID: 11400000, guid: 14afecd68481b614299f394fd58da5ba, type: 2}
    UnlockLevel: 13
  - Info: {fileID: 11400000, guid: ec7583be9fa06d14184a8407c0608283, type: 2}
    UnlockLevel: 19
  - Info: {fileID: 11400000, guid: 5b7d4cbd1082b344883bfd5fd706408e, type: 2}
    UnlockLevel: 25
  - Info: {fileID: 11400000, guid: 0e07ce94d95d9ad488000d8d21d92711, type: 2}
    UnlockLevel: 31
  - Info: {fileID: 11400000, guid: 320536285bbca674aac9ead521744e98, type: 2}
    UnlockLevel: 37
  - Info: {fileID: 11400000, guid: f7c9aa2f574091641b34afc064b0ca6f, type: 2}
    UnlockLevel: 43
  - Info: {fileID: 11400000, guid: ac4cab31ab9635746bb7c70979ca732b, type: 2}
    UnlockLevel: 49
  - Info: {fileID: 11400000, guid: 98599bbb42935ae4abc241fa014f11cb, type: 2}
    UnlockLevel: 55
  - Info: {fileID: 11400000, guid: 2e95953a8fce44b478f019df820e31e0, type: 2}
    UnlockLevel: 61
  - Info: {fileID: 11400000, guid: 4ecc2c167badbb44a93379d71ec65993, type: 2}
    UnlockLevel: 68
  - Info: {fileID: 11400000, guid: 6f825dee92531084eaeda439a3f8e7b9, type: 2}
    UnlockLevel: 75
  Types:
  - {fileID: 11400000, guid: 57d5c332bc212a047a73d3810bd3f7cb, type: 2}
  - {fileID: 11400000, guid: 9013aa9c388209e498c7cc40001c20b9, type: 2}
  Health: 80
  Attack: 110
  Defense: 110
  SPAttack: 80
  SPDefense: 70
  Speed: 130
  Experience: 270
  IsShiny: 0
  Front: {fileID: 0}
  Back: {fileID: 0}
  Nature: {fileID: 0}
