%YAML 1.1
%TAG !u! tag:unity3d.com,2011:
--- !u!114 &11400000
MonoBehaviour:
  m_ObjectHideFlags: 0
  m_PrefabParentObject: {fileID: 0}
  m_PrefabInternal: {fileID: 0}
  m_GameObject: {fileID: 0}
  m_Enabled: 1
  m_EditorHideFlags: 0
  m_Script: {fileID: 11500000, guid: f7a371d3c077b734e8c6a79283f76ce1, type: 3}
  m_Name: Zoroark
  m_EditorClassIdentifier: 
  FighterIDName: ZOROARK
  FighterShowName: Zoroark
  Level: 1
  Attacks:
  - Info: {fileID: 11400000, guid: 2a6459908c2f57f4987aa14ed88b1342, type: 2}
    UnlockLevel: 1
  - Info: {fileID: 11400000, guid: fe82db13d5fdbd34c91a7c45bd74d844, type: 2}
    UnlockLevel: 1
  - Info: {fileID: 11400000, guid: fa1aff8d905796d468d89d6c6fd2cc9e, type: 2}
    UnlockLevel: 1
  - Info: {fileID: 11400000, guid: 617336879215d7c4789d9ecc335218bd, type: 2}
    UnlockLevel: 1
  - Info: {fileID: 11400000, guid: ff9a619b72c64b34bbd0e7cd74afda71, type: 2}
    UnlockLevel: 1
  - Info: {fileID: 11400000, guid: ac27f4ed62e5b5049b5edfe302614f5c, type: 2}
    UnlockLevel: 1
  - Info: {fileID: 11400000, guid: c3a468ccc8fc5aa4c9ac3f0cef964f3d, type: 2}
    UnlockLevel: 1
  - Info: {fileID: 11400000, guid: ac27f4ed62e5b5049b5edfe302614f5c, type: 2}
    UnlockLevel: 5
  - Info: {fileID: 11400000, guid: c3a468ccc8fc5aa4c9ac3f0cef964f3d, type: 2}
    UnlockLevel: 9
  - Info: {fileID: 11400000, guid: cf5abc1e28d8604408c380f4e3478d91, type: 2}
    UnlockLevel: 13
  - Info: {fileID: 11400000, guid: f4aea1b9c7ff7d64da97d8e765f743df, type: 2}
    UnlockLevel: 17
  - Info: {fileID: 11400000, guid: 9dff449eb4e23724c8fac7e303e86fb7, type: 2}
    UnlockLevel: 21
  - Info: {fileID: 11400000, guid: 8f4bdc757ba4a904a805d11d67a6bef3, type: 2}
    UnlockLevel: 25
  - Info: {fileID: 11400000, guid: 5cf04e7f0c137bf4389a4c1879e0bd55, type: 2}
    UnlockLevel: 29
  - Info: {fileID: 11400000, guid: 760c7ab60c563a44c8438cdaf60f447c, type: 2}
    UnlockLevel: 30
  - Info: {fileID: 11400000, guid: 46eefedf0c4e8fa43a8e6f3f6c12241b, type: 2}
    UnlockLevel: 34
  - Info: {fileID: 11400000, guid: 9670989c9e32e4d41b527fcf211cb072, type: 2}
    UnlockLevel: 39
  - Info: {fileID: 11400000, guid: 3911ababe87f769449ec0b539ee96ba7, type: 2}
    UnlockLevel: 44
  - Info: {fileID: 11400000, guid: d198e93374bb52343a8aab8c9bd32e37, type: 2}
    UnlockLevel: 49
  - Info: {fileID: 11400000, guid: abf311c9f8da9bd4180f7fa9e71c2926, type: 2}
    UnlockLevel: 54
  - Info: {fileID: 11400000, guid: fe82db13d5fdbd34c91a7c45bd74d844, type: 2}
    UnlockLevel: 59
  - Info: {fileID: 11400000, guid: 2a6459908c2f57f4987aa14ed88b1342, type: 2}
    UnlockLevel: 64
  Types:
  - {fileID: 11400000, guid: 9034d3dd3086cdc41af1e7173855452f, type: 2}
  Health: 60
  Attack: 105
  Defense: 60
  SPAttack: 120
  SPDefense: 60
  Speed: 105
  Experience: 179
  IsShiny: 0
  Front: {fileID: 0}
  Back: {fileID: 0}
  Nature: {fileID: 0}
