%YAML 1.1
%TAG !u! tag:unity3d.com,2011:
--- !u!114 &11400000
MonoBehaviour:
  m_ObjectHideFlags: 0
  m_PrefabParentObject: {fileID: 0}
  m_PrefabInternal: {fileID: 0}
  m_GameObject: {fileID: 0}
  m_Enabled: 1
  m_EditorHideFlags: 0
  m_Script: {fileID: 11500000, guid: f7a371d3c077b734e8c6a79283f76ce1, type: 3}
  m_Name: Zygarde
  m_EditorClassIdentifier: 
  FighterIDName: ZYGARDE
  FighterShowName: Zygarde
  Level: 1
  Attacks:
  - Info: {fileID: 11400000, guid: 988cc3f700f686c4580741db7b6645de, type: 2}
    UnlockLevel: 1
  - Info: {fileID: 11400000, guid: 46ccef657aa70df4fa19e2c84452e30c, type: 2}
    UnlockLevel: 1
  - Info: {fileID: 11400000, guid: 936aaf852c9b190499471814e171709a, type: 2}
    UnlockLevel: 1
  - Info: {fileID: 11400000, guid: 78d6565e4587cf546a56fccf771a17f2, type: 2}
    UnlockLevel: 1
  - Info: {fileID: 11400000, guid: 6cd4d2fdec43d4a4383e3058f7679ab0, type: 2}
    UnlockLevel: 5
  - Info: {fileID: 11400000, guid: 240aba762d9b772449bc523256c28d3a, type: 2}
    UnlockLevel: 10
  - Info: {fileID: 11400000, guid: 894d809d1523a014480ceffe9825802d, type: 2}
    UnlockLevel: 18
  - Info: {fileID: 11400000, guid: e65b9fdd0f4fae847b8b06083c6f99b0, type: 2}
    UnlockLevel: 26
  - Info: {fileID: 11400000, guid: c0a8c5ed8b803a244970ac14ff1144c1, type: 2}
    UnlockLevel: 35
  - Info: {fileID: 11400000, guid: 2b783edb940338845b69819bde3bb28a, type: 2}
    UnlockLevel: 44
  - Info: {fileID: 11400000, guid: 96cda4380aa0cc748add614e7e69f874, type: 2}
    UnlockLevel: 51
  - Info: {fileID: 11400000, guid: 6e868e7b2d08bf74dae70b4717f380ac, type: 2}
    UnlockLevel: 55
  - Info: {fileID: 11400000, guid: fd7f7506702a1f24da4a2edd13d42a26, type: 2}
    UnlockLevel: 59
  - Info: {fileID: 11400000, guid: e683d916313124f4892999bbb3a3d7fa, type: 2}
    UnlockLevel: 63
  - Info: {fileID: 11400000, guid: 301c2550ed8a2bf439d5345090f2fab2, type: 2}
    UnlockLevel: 72
  - Info: {fileID: 11400000, guid: 8815c69ec9867d241803ec78194afc14, type: 2}
    UnlockLevel: 80
  - Info: {fileID: 11400000, guid: 4ecc2c167badbb44a93379d71ec65993, type: 2}
    UnlockLevel: 88
  - Info: {fileID: 11400000, guid: 534a5895d1d360547b23e6790fff91ef, type: 2}
    UnlockLevel: 93
  Types:
  - {fileID: 11400000, guid: cf3c2b8d4f9e9024eb1fd88942a18bf9, type: 2}
  - {fileID: 11400000, guid: 9bce953606501074f95fb811ea470131, type: 2}
  Health: 108
  Attack: 100
  Defense: 121
  SPAttack: 81
  SPDefense: 95
  Speed: 95
  Experience: 302
  IsShiny: 0
  Front: {fileID: 0}
  Back: {fileID: 0}
  Nature: {fileID: 0}
