%YAML 1.1
%TAG !u! tag:unity3d.com,2011:
--- !u!114 &11400000
MonoBehaviour:
  m_ObjectHideFlags: 0
  m_PrefabParentObject: {fileID: 0}
  m_PrefabInternal: {fileID: 0}
  m_GameObject: {fileID: 0}
  m_Enabled: 1
  m_EditorHideFlags: 0
  m_Script: {fileID: 11500000, guid: e896743ef08c70d40a5669e949a3a350, type: 3}
  m_Name: ACIDARMOR
  m_EditorClassIdentifier: 
  AttackIDName: ACIDARMOR
  Priority: 0
  Damage: 0
  Accuracy: 0
  PP: 20
  AdditionalMoveEffectChance: 0
  ElementType: {fileID: 11400000, guid: 59f2fca58cea2e4459ec19299719ad21, type: 2}
  Description: The user alters its cellular structure to liquefy itself, sharply raising
    its Defense stat.
  MoveType: Status
