%YAML 1.1
%TAG !u! tag:unity3d.com,2011:
--- !u!114 &11400000
MonoBehaviour:
  m_ObjectHideFlags: 0
  m_PrefabParentObject: {fileID: 0}
  m_PrefabInternal: {fileID: 0}
  m_GameObject: {fileID: 0}
  m_Enabled: 1
  m_EditorHideFlags: 0
  m_Script: {fileID: 11500000, guid: e896743ef08c70d40a5669e949a3a350, type: 3}
  m_Name: AERIALACE
  m_EditorClassIdentifier: 
  AttackIDName: AERIALACE
  Priority: 0
  Damage: 60
  Accuracy: 0
  PP: 20
  AdditionalMoveEffectChance: 0
  ElementType: {fileID: 11400000, guid: 0973b6dbda6985f49a4dacdef07c9047, type: 2}
  Description: The user confounds the foe with speed, then slashes. The attack lands
    without fail.
  MoveType: Physical
