%YAML 1.1
%TAG !u! tag:unity3d.com,2011:
--- !u!114 &11400000
MonoBehaviour:
  m_ObjectHideFlags: 0
  m_PrefabParentObject: {fileID: 0}
  m_PrefabInternal: {fileID: 0}
  m_GameObject: {fileID: 0}
  m_Enabled: 1
  m_EditorHideFlags: 0
  m_Script: {fileID: 11500000, guid: e896743ef08c70d40a5669e949a3a350, type: 3}
  m_Name: AVALANCHE
  m_EditorClassIdentifier: 
  AttackIDName: AVALANCHE
  Priority: -4
  Damage: 60
  Accuracy: 100
  PP: 10
  AdditionalMoveEffectChance: 0
  ElementType: {fileID: 11400000, guid: 498eb535236adbf4aafda6c97768c2b7, type: 2}
  Description: An attack move that inflicts double the damage if the user has been
    hurt by the foe in the same turn.
  MoveType: Physical
