%YAML 1.1
%TAG !u! tag:unity3d.com,2011:
--- !u!114 &11400000
MonoBehaviour:
  m_ObjectHideFlags: 0
  m_PrefabParentObject: {fileID: 0}
  m_PrefabInternal: {fileID: 0}
  m_GameObject: {fileID: 0}
  m_Enabled: 1
  m_EditorHideFlags: 0
  m_Script: {fileID: 11500000, guid: e896743ef08c70d40a5669e949a3a350, type: 3}
  m_Name: CRAFTYSHIELD
  m_EditorClassIdentifier: 
  AttackIDName: CRAFTYSHIELD
  Priority: 3
  Damage: 0
  Accuracy: 0
  PP: 10
  AdditionalMoveEffectChance: 0
  ElementType: {fileID: 11400000, guid: 57d5c332bc212a047a73d3810bd3f7cb, type: 2}
  Description: The user protects itself and its allies from status moves with a mysterious
    power. This does not stop moves that do damage.
  MoveType: Status
