%YAML 1.1
%TAG !u! tag:unity3d.com,2011:
--- !u!114 &11400000
MonoBehaviour:
  m_ObjectHideFlags: 0
  m_PrefabParentObject: {fileID: 0}
  m_PrefabInternal: {fileID: 0}
  m_GameObject: {fileID: 0}
  m_Enabled: 1
  m_EditorHideFlags: 0
  m_Script: {fileID: 11500000, guid: e896743ef08c70d40a5669e949a3a350, type: 3}
  m_Name: DIAMONDSTORM
  m_EditorClassIdentifier: 
  AttackIDName: DIAMONDSTORM
  Priority: 0
  Damage: 100
  Accuracy: 95
  PP: 5
  AdditionalMoveEffectChance: 50
  ElementType: {fileID: 11400000, guid: d5e8e99b7eae6e14e916633b02b73558, type: 2}
  Description: "The user whips up a storm of diamonds to damage opposing Pok\xE9mon.
    This may also raise the user's Defense stat."
  MoveType: Physical
