%YAML 1.1
%TAG !u! tag:unity3d.com,2011:
--- !u!114 &11400000
MonoBehaviour:
  m_ObjectHideFlags: 0
  m_PrefabParentObject: {fileID: 0}
  m_PrefabInternal: {fileID: 0}
  m_GameObject: {fileID: 0}
  m_Enabled: 1
  m_EditorHideFlags: 0
  m_Script: {fileID: 11500000, guid: e896743ef08c70d40a5669e949a3a350, type: 3}
  m_Name: DRAGONPULSE
  m_EditorClassIdentifier: 
  AttackIDName: DRAGONPULSE
  Priority: 0
  Damage: 85
  Accuracy: 100
  PP: 10
  AdditionalMoveEffectChance: 0
  ElementType: {fileID: 11400000, guid: cf3c2b8d4f9e9024eb1fd88942a18bf9, type: 2}
  Description: The target is attacked with a shock wave generated by the user's gaping
    mouth.
  MoveType: Special
