%YAML 1.1
%TAG !u! tag:unity3d.com,2011:
--- !u!114 &11400000
MonoBehaviour:
  m_ObjectHideFlags: 0
  m_PrefabParentObject: {fileID: 0}
  m_PrefabInternal: {fileID: 0}
  m_GameObject: {fileID: 0}
  m_Enabled: 1
  m_EditorHideFlags: 0
  m_Script: {fileID: 11500000, guid: e896743ef08c70d40a5669e949a3a350, type: 3}
  m_Name: EERIEIMPULSE
  m_EditorClassIdentifier: 
  AttackIDName: EERIEIMPULSE
  Priority: 0
  Damage: 0
  Accuracy: 100
  PP: 15
  AdditionalMoveEffectChance: 0
  ElementType: {fileID: 11400000, guid: eb1f61bfedf02c847ac8f80212573502, type: 2}
  Description: The user's body generates an eerie impulse. Exposing the target to
    it harshly lowers the target's Sp. Atk stat.
  MoveType: Status
