%YAML 1.1
%TAG !u! tag:unity3d.com,2011:
--- !u!114 &11400000
MonoBehaviour:
  m_ObjectHideFlags: 0
  m_PrefabParentObject: {fileID: 0}
  m_PrefabInternal: {fileID: 0}
  m_GameObject: {fileID: 0}
  m_Enabled: 1
  m_EditorHideFlags: 0
  m_Script: {fileID: 11500000, guid: e896743ef08c70d40a5669e949a3a350, type: 3}
  m_Name: FALSESWIPE
  m_EditorClassIdentifier: 
  AttackIDName: FALSESWIPE
  Priority: 0
  Damage: 40
  Accuracy: 100
  PP: 40
  AdditionalMoveEffectChance: 0
  ElementType: {fileID: 11400000, guid: 3e51a82ce5c89e94ba1a2824788016d3, type: 2}
  Description: A restrained attack that prevents the target from fainting. The target
    is left with at least 1 HP.
  MoveType: Physical
