%YAML 1.1
%TAG !u! tag:unity3d.com,2011:
--- !u!114 &11400000
MonoBehaviour:
  m_ObjectHideFlags: 0
  m_PrefabParentObject: {fileID: 0}
  m_PrefabInternal: {fileID: 0}
  m_GameObject: {fileID: 0}
  m_Enabled: 1
  m_EditorHideFlags: 0
  m_Script: {fileID: 11500000, guid: e896743ef08c70d40a5669e949a3a350, type: 3}
  m_Name: FIREPUNCH
  m_EditorClassIdentifier: 
  AttackIDName: FIREPUNCH
  Priority: 0
  Damage: 75
  Accuracy: 100
  PP: 15
  AdditionalMoveEffectChance: 10
  ElementType: {fileID: 11400000, guid: b2263d3942d9cee40b27a6d5ead1297d, type: 2}
  Description: The target is punched with a fiery fist. It may leave the target with
    a burn.
  MoveType: Physical
