%YAML 1.1
%TAG !u! tag:unity3d.com,2011:
--- !u!114 &11400000
MonoBehaviour:
  m_ObjectHideFlags: 0
  m_PrefabParentObject: {fileID: 0}
  m_PrefabInternal: {fileID: 0}
  m_GameObject: {fileID: 0}
  m_Enabled: 1
  m_EditorHideFlags: 0
  m_Script: {fileID: 11500000, guid: e896743ef08c70d40a5669e949a3a350, type: 3}
  m_Name: FOCUSBLAST
  m_EditorClassIdentifier: 
  AttackIDName: FOCUSBLAST
  Priority: 0
  Damage: 120
  Accuracy: 70
  PP: 5
  AdditionalMoveEffectChance: 10
  ElementType: {fileID: 11400000, guid: f70898c0189222a4091ee9f0c6037fe5, type: 2}
  Description: The user heightens its mental focus and unleashes its power. It may
    also lower the target's Sp. Def.
  MoveType: Special
