%YAML 1.1
%TAG !u! tag:unity3d.com,2011:
--- !u!114 &11400000
MonoBehaviour:
  m_ObjectHideFlags: 0
  m_PrefabParentObject: {fileID: 0}
  m_PrefabInternal: {fileID: 0}
  m_GameObject: {fileID: 0}
  m_Enabled: 1
  m_EditorHideFlags: 0
  m_Script: {fileID: 11500000, guid: e896743ef08c70d40a5669e949a3a350, type: 3}
  m_Name: FREEZEDRY
  m_EditorClassIdentifier: 
  AttackIDName: FREEZEDRY
  Priority: 0
  Damage: 70
  Accuracy: 100
  PP: 20
  AdditionalMoveEffectChance: 0
  ElementType: {fileID: 11400000, guid: 498eb535236adbf4aafda6c97768c2b7, type: 2}
  Description: The user rapidly cools the target. This may also leave the target frozen.
    This move is super effective on Water types.
  MoveType: Special
