%YAML 1.1
%TAG !u! tag:unity3d.com,2011:
--- !u!114 &11400000
MonoBehaviour:
  m_ObjectHideFlags: 0
  m_PrefabParentObject: {fileID: 0}
  m_PrefabInternal: {fileID: 0}
  m_GameObject: {fileID: 0}
  m_Enabled: 1
  m_EditorHideFlags: 0
  m_Script: {fileID: 11500000, guid: e896743ef08c70d40a5669e949a3a350, type: 3}
  m_Name: FURYCUTTER
  m_EditorClassIdentifier: 
  AttackIDName: FURYCUTTER
  Priority: 0
  Damage: 40
  Accuracy: 95
  PP: 20
  AdditionalMoveEffectChance: 0
  ElementType: {fileID: 11400000, guid: 0f07cb8f52a4e464fa188043a8de5605, type: 2}
  Description: The target is slashed with scythes or claws. Its power increases if
    it hits in succession.
  MoveType: Physical
