%YAML 1.1
%TAG !u! tag:unity3d.com,2011:
--- !u!114 &11400000
MonoBehaviour:
  m_ObjectHideFlags: 0
  m_PrefabParentObject: {fileID: 0}
  m_PrefabInternal: {fileID: 0}
  m_GameObject: {fileID: 0}
  m_Enabled: 1
  m_EditorHideFlags: 0
  m_Script: {fileID: 11500000, guid: e896743ef08c70d40a5669e949a3a350, type: 3}
  m_Name: GRASSPLEDGE
  m_EditorClassIdentifier: 
  AttackIDName: GRASSPLEDGE
  Priority: 0
  Damage: 80
  Accuracy: 100
  PP: 10
  AdditionalMoveEffectChance: 0
  ElementType: {fileID: 11400000, guid: 9013aa9c388209e498c7cc40001c20b9, type: 2}
  Description: A column of grass hits the foes. When used with its water equivalent,
    it creates a vast swamp.
  MoveType: Special
