%YAML 1.1
%TAG !u! tag:unity3d.com,2011:
--- !u!114 &11400000
MonoBehaviour:
  m_ObjectHideFlags: 0
  m_PrefabParentObject: {fileID: 0}
  m_PrefabInternal: {fileID: 0}
  m_GameObject: {fileID: 0}
  m_Enabled: 1
  m_EditorHideFlags: 0
  m_Script: {fileID: 11500000, guid: e896743ef08c70d40a5669e949a3a350, type: 3}
  m_Name: HEARTSTAMP
  m_EditorClassIdentifier: 
  AttackIDName: HEARTSTAMP
  Priority: 0
  Damage: 60
  Accuracy: 100
  PP: 25
  AdditionalMoveEffectChance: 30
  ElementType: {fileID: 11400000, guid: 6ab104ed0fffb2949b3b296c5c7eb603, type: 2}
  Description: The user unleashes a vicious blow after its cute act makes the foe
    less wary. It may also cause flinching.
  MoveType: Physical
