%YAML 1.1
%TAG !u! tag:unity3d.com,2011:
--- !u!114 &11400000
MonoBehaviour:
  m_ObjectHideFlags: 0
  m_PrefabParentObject: {fileID: 0}
  m_PrefabInternal: {fileID: 0}
  m_GameObject: {fileID: 0}
  m_Enabled: 1
  m_EditorHideFlags: 0
  m_Script: {fileID: 11500000, guid: e896743ef08c70d40a5669e949a3a350, type: 3}
  m_Name: HORNATTACK
  m_EditorClassIdentifier: 
  AttackIDName: HORNATTACK
  Priority: 0
  Damage: 65
  Accuracy: 100
  PP: 25
  AdditionalMoveEffectChance: 0
  ElementType: {fileID: 11400000, guid: 3e51a82ce5c89e94ba1a2824788016d3, type: 2}
  Description: The target is jabbed with a sharply pointed horn to inflict damage.
  MoveType: Physical
