%YAML 1.1
%TAG !u! tag:unity3d.com,2011:
--- !u!114 &11400000
MonoBehaviour:
  m_ObjectHideFlags: 0
  m_PrefabParentObject: {fileID: 0}
  m_PrefabInternal: {fileID: 0}
  m_GameObject: {fileID: 0}
  m_Enabled: 1
  m_EditorHideFlags: 0
  m_Script: {fileID: 11500000, guid: e896743ef08c70d40a5669e949a3a350, type: 3}
  m_Name: IRONTAIL
  m_EditorClassIdentifier: 
  AttackIDName: IRONTAIL
  Priority: 0
  Damage: 100
  Accuracy: 75
  PP: 15
  AdditionalMoveEffectChance: 30
  ElementType: {fileID: 11400000, guid: 937a21aa05fa8254283297d7a575da5c, type: 2}
  Description: The target is slammed with a steel-hard tail. It may also lower the
    target's Defense stat.
  MoveType: Physical
