%YAML 1.1
%TAG !u! tag:unity3d.com,2011:
--- !u!114 &11400000
MonoBehaviour:
  m_ObjectHideFlags: 0
  m_PrefabParentObject: {fileID: 0}
  m_PrefabInternal: {fileID: 0}
  m_GameObject: {fileID: 0}
  m_Enabled: 1
  m_EditorHideFlags: 0
  m_Script: {fileID: 11500000, guid: e896743ef08c70d40a5669e949a3a350, type: 3}
  m_Name: MIRRORCOAT
  m_EditorClassIdentifier: 
  AttackIDName: MIRRORCOAT
  Priority: -5
  Damage: 1
  Accuracy: 100
  PP: 20
  AdditionalMoveEffectChance: 0
  ElementType: {fileID: 11400000, guid: 6ab104ed0fffb2949b3b296c5c7eb603, type: 2}
  Description: A retaliation move that counters any special attack, inflicting double
    the damage taken.
  MoveType: Special
