%YAML 1.1
%TAG !u! tag:unity3d.com,2011:
--- !u!114 &11400000
MonoBehaviour:
  m_ObjectHideFlags: 0
  m_PrefabParentObject: {fileID: 0}
  m_PrefabInternal: {fileID: 0}
  m_GameObject: {fileID: 0}
  m_Enabled: 1
  m_EditorHideFlags: 0
  m_Script: {fileID: 11500000, guid: e896743ef08c70d40a5669e949a3a350, type: 3}
  m_Name: PETRIFY
  m_EditorClassIdentifier: 
  AttackIDName: PETRIFY
  Priority: 0
  Damage: 45
  Accuracy: 85
  PP: 15
  AdditionalMoveEffectChance: 40
  ElementType: {fileID: 11400000, guid: 57d5c332bc212a047a73d3810bd3f7cb, type: 2}
  Description: The user shoots a petrifying stare. It has a high chance to leave the
    target frozen.
  MoveType: Special
