%YAML 1.1
%TAG !u! tag:unity3d.com,2011:
--- !u!114 &11400000
MonoBehaviour:
  m_ObjectHideFlags: 0
  m_PrefabParentObject: {fileID: 0}
  m_PrefabInternal: {fileID: 0}
  m_GameObject: {fileID: 0}
  m_Enabled: 1
  m_EditorHideFlags: 0
  m_Script: {fileID: 11500000, guid: e896743ef08c70d40a5669e949a3a350, type: 3}
  m_Name: POISONSTING
  m_EditorClassIdentifier: 
  AttackIDName: POISONSTING
  Priority: 0
  Damage: 15
  Accuracy: 100
  PP: 35
  AdditionalMoveEffectChance: 30
  ElementType: {fileID: 11400000, guid: 59f2fca58cea2e4459ec19299719ad21, type: 2}
  Description: The user stabs the target with a poisonous stinger. This may also poison
    the target.
  MoveType: Physical
