%YAML 1.1
%TAG !u! tag:unity3d.com,2011:
--- !u!114 &11400000
MonoBehaviour:
  m_ObjectHideFlags: 0
  m_PrefabParentObject: {fileID: 0}
  m_PrefabInternal: {fileID: 0}
  m_GameObject: {fileID: 0}
  m_Enabled: 1
  m_EditorHideFlags: 0
  m_Script: {fileID: 11500000, guid: e896743ef08c70d40a5669e949a3a350, type: 3}
  m_Name: RADIANTSTORM
  m_EditorClassIdentifier: 
  AttackIDName: RADIANTSTORM
  Priority: 0
  Damage: 25
  Accuracy: 90
  PP: 10
  AdditionalMoveEffectChance: 0
  ElementType: {fileID: 11400000, guid: 57d5c332bc212a047a73d3810bd3f7cb, type: 2}
  Description: The user shoots multiple shots of radiant energy. Hits all targets
    2-5 times.
  MoveType: Special
