%YAML 1.1
%TAG !u! tag:unity3d.com,2011:
--- !u!114 &11400000
MonoBehaviour:
  m_ObjectHideFlags: 0
  m_PrefabParentObject: {fileID: 0}
  m_PrefabInternal: {fileID: 0}
  m_GameObject: {fileID: 0}
  m_Enabled: 1
  m_EditorHideFlags: 0
  m_Script: {fileID: 11500000, guid: e896743ef08c70d40a5669e949a3a350, type: 3}
  m_Name: RIFTJUMP
  m_EditorClassIdentifier: 
  AttackIDName: RIFTJUMP
  Priority: 0
  Damage: 80
  Accuracy: 0
  PP: 5
  AdditionalMoveEffectChance: 0
  ElementType: {fileID: 11400000, guid: 9034d3dd3086cdc41af1e7173855452f, type: 2}
  Description: Using a dimension rift, the user jumps through it to strike its target.
    This also hits a target using Protect or Detect.
  MoveType: Special
