%YAML 1.1
%TAG !u! tag:unity3d.com,2011:
--- !u!114 &11400000
MonoBehaviour:
  m_ObjectHideFlags: 0
  m_PrefabParentObject: {fileID: 0}
  m_PrefabInternal: {fileID: 0}
  m_GameObject: {fileID: 0}
  m_Enabled: 1
  m_EditorHideFlags: 0
  m_Script: {fileID: 11500000, guid: e896743ef08c70d40a5669e949a3a350, type: 3}
  m_Name: ROCKTOMB
  m_EditorClassIdentifier: 
  AttackIDName: ROCKTOMB
  Priority: 0
  Damage: 60
  Accuracy: 95
  PP: 15
  AdditionalMoveEffectChance: 100
  ElementType: {fileID: 11400000, guid: d5e8e99b7eae6e14e916633b02b73558, type: 2}
  Description: Boulders are hurled at the target. It also lowers the target's Speed
    by preventing its movement.
  MoveType: Physical
