%YAML 1.1
%TAG !u! tag:unity3d.com,2011:
--- !u!114 &11400000
MonoBehaviour:
  m_ObjectHideFlags: 0
  m_PrefabParentObject: {fileID: 0}
  m_PrefabInternal: {fileID: 0}
  m_GameObject: {fileID: 0}
  m_Enabled: 1
  m_EditorHideFlags: 0
  m_Script: {fileID: 11500000, guid: e896743ef08c70d40a5669e949a3a350, type: 3}
  m_Name: SANDTOMB
  m_EditorClassIdentifier: 
  AttackIDName: SANDTOMB
  Priority: 0
  Damage: 35
  Accuracy: 85
  PP: 15
  AdditionalMoveEffectChance: 0
  ElementType: {fileID: 11400000, guid: 9bce953606501074f95fb811ea470131, type: 2}
  Description: The user traps the target inside a harshly raging sandstorm for four
    to five turns.
  MoveType: Physical
