%YAML 1.1
%TAG !u! tag:unity3d.com,2011:
--- !u!114 &11400000
MonoBehaviour:
  m_ObjectHideFlags: 0
  m_PrefabParentObject: {fileID: 0}
  m_PrefabInternal: {fileID: 0}
  m_GameObject: {fileID: 0}
  m_Enabled: 1
  m_EditorHideFlags: 0
  m_Script: {fileID: 11500000, guid: e896743ef08c70d40a5669e949a3a350, type: 3}
  m_Name: SNATCH
  m_EditorClassIdentifier: 
  AttackIDName: SNATCH
  Priority: 4
  Damage: 0
  Accuracy: 0
  PP: 10
  AdditionalMoveEffectChance: 0
  ElementType: {fileID: 11400000, guid: 9034d3dd3086cdc41af1e7173855452f, type: 2}
  Description: The user steals the effects of any healing or stat-changing move the
    foe attempts to use.
  MoveType: Status
