%YAML 1.1
%TAG !u! tag:unity3d.com,2011:
--- !u!114 &11400000
MonoBehaviour:
  m_ObjectHideFlags: 0
  m_PrefabParentObject: {fileID: 0}
  m_PrefabInternal: {fileID: 0}
  m_GameObject: {fileID: 0}
  m_Enabled: 1
  m_EditorHideFlags: 0
  m_Script: {fileID: 11500000, guid: e896743ef08c70d40a5669e949a3a350, type: 3}
  m_Name: THUNDERPUNCH
  m_EditorClassIdentifier: 
  AttackIDName: THUNDERPUNCH
  Priority: 0
  Damage: 75
  Accuracy: 100
  PP: 15
  AdditionalMoveEffectChance: 10
  ElementType: {fileID: 11400000, guid: eb1f61bfedf02c847ac8f80212573502, type: 2}
  Description: The target is punched with an electrified fist. It may also leave the
    target with paralysis.
  MoveType: Physical
