%YAML 1.1
%TAG !u! tag:unity3d.com,2011:
--- !u!1045 &1
EditorBuildSettings:
  m_ObjectHideFlags: 0
  serializedVersion: 2
  m_Scenes:
  - enabled: 1
    path: Assets/OnlineScene.unity
    guid: bf2c85ec686841142a3e8d86da1d2132
  - enabled: 1
    path: Assets/Scene1.unity
    guid: 06834880ff48327468c68d1ee1879212
